Region,1980,1981,1982,1983,1984,1985,1986,1987,1988,1989,1990,1991,1992,1993,1994,1995,1996,1997,1998,1999,2000,2001,2002,2003,2004,2005,2006,2007,2008,2009,2010,2011,2012,2013,2014,2015,2016,2017,2018,2019
Northern Coastal,,,,,,,,,,,78.97,66.78,91.22,95.27,89.88,95.77,95.3,86.86,91.68,76.78,64.84,66.49,89.63,86.53,84.33,90.61,67.91,74.18,81.33,74.88,87.81,48.66,74.21,83.43,83.84,94.28,97.81,84,82.47,74.27
Mossman,,,,,,,,,,,75.37,63.78,94.3,88.58,92.62,91.47,102.12,86.91,89.11,85,67.68,66.82,83.28,82.37,71.71,69.15,63.15,77.34,72.35,66.34,75.18,56.17,71.62,78.34,81.64,89.98,101.43,92.34,91,79.51
Mulgrave,,,,,,,,,,,85.09,72.81,90.1,95.02,98.84,95.59,102.88,92.1,103.78,90.34,65.44,73.76,85.36,85.74,83.04,95.22,73.52,86.14,82.72,83.99,88.45,62.28,82.01,75.15,89.24,87.44,103.49,84.79,82.32,75.73
South Johnstone,,,,,,,,,,,75.2,65.15,85.61,92.33,84.78,89.98,84.69,84.73,89.93,71.26,63.78,63.74,84.84,80.03,80.8,88.66,61.85,67.08,78.53,72.03,89.86,38.47,70.05,83.58,77.34,92.25,88.88,79.35,72.19,70.49
Tully,,,,,,,,,,,80.87,66.59,95.05,101.85,83.85,102.44,92.44,84.63,86.69,67.91,63.66,63.87,98.03,92.24,92.99,97.21,73.56,75.1,86.4,75.17,89.78,47.06,74.2,89.42,87.83,100.78,100.66,83.65,86.7,74.5
Tableland,,,,,,,,,,,,,,,,,,,107.24,119.13,94.43,95.56,82.78,89.24,85.98,89.22,94.1,87.73,95.22,88.65,94.14,91.26,103.48,108.13,89.72,88.9,92.72,93.47,97.17,90.61
Herbert River Mills,,,,,,,,,,,68.71,56.38,79.17,86.76,83.2,98.03,98.13,91.97,86.12,69.25,48,58.2,77.32,71.11,82.28,97.29,84.98,75,85.15,76.62,82.75,55.77,71.95,74.06,74.41,78.8,85.67,88.12,82.71,71.95
Burdekin Mills,,,,,,,,,,,109.23,86.74,125.13,123.69,123.36,123.12,117.22,120.76,115.3,115.08,100.17,93.87,114.36,121.38,120.27,117.9,115.1,117.76,109.39,107.23,129.63,119.89,104.98,102.13,113.28,117.47,126.69,118.12,116.22,116.62
Central,,,,,,,,,,,65.01,46.15,71.55,84.61,95.8,92.99,99,94.27,104.93,83.49,56.67,61.93,76.26,66.41,75.49,85.18,85.01,85.59,72.89,74.65,72.89,63.31,79.56,73.17,81.33,74.29,88.71,71.38,68.3,72.77
Proserpine,,,,,,,,,,,68.39,45.74,75.18,85.58,88.06,95.68,106.17,93.96,105.85,87.38,60.08,64.9,81.04,76.47,78.01,90.05,87.84,78.11,79.15,73.56,76.52,69.18,79.23,77.55,88.04,77.75,95.94,66.03,73.47,73.53
Mackay Sugar Mills,,,,,,,,,,,65.46,48.12,71.4,85.6,98.3,94.55,99.65,95.7,106.93,81.14,55.94,62.04,78.73,66.97,74.91,85.09,84.9,87.88,71.6,74.33,73.28,60.28,80.6,71.8,79.6,73.15,88.13,74.29,67.29,72.91
Plane Creek,,,,,,,,,,,59.44,36.16,67.94,79.01,93.24,83.01,87.71,88.64,94.89,88.8,55.8,58.14,60.18,51,74.64,79.34,81.77,85.29,70.36,77.49,66.39,68.78,75.48,73.35,80.75,74.51,81.75,66.89,66.01,71.33
Southern Bundaberg-Isis,,,,,,,,,,,67.88,62.59,77.88,83.48,87.77,85.16,86.55,91.52,83.17,101.26,78.75,73.78,65.86,74.8,81.75,89.03,89.54,73.76,80.7,81.89,82.75,77.99,91.97,73.74,77.23,87.41,94.25,85.23,76.99,72.15
Bundaberg,,,,,,,,,,,71.89,63.81,78.8,84.34,88.07,86.06,84.43,91.42,81.99,100.93,79.3,73.87,64.4,75.4,81.8,87.14,90.2,72.8,77.91,80.69,81.8,73.87,88.91,71.81,78.18,87.35,93.44,86.01,72.9,70.83
Isis,,,,,,,,,,,53.98,58.51,74.95,80.81,86.85,82.42,93.14,91.85,86.64,102.2,77.22,73.52,69.89,73.19,81.62,92.27,88.39,75.36,84.8,83.71,84.06,83.29,95.96,76.38,75.99,87.5,95.37,84.17,82.03,73.69
Maryborough,,,,,,,,,,,54.5,49.93,62.13,70.51,76.13,70.6,76.92,74.2,83.49,89.43,69.17,68.42,65.06,69.78,69.33,75.36,77.44,66.19,63.64,68.48,67.89,69.6,63.86,60.39,57.06,76.12,72.05,63.56,67.93,61.67
Rocky Point,,,,,,,,,,,75.85,80.33,81.51,90.39,90.1,78.77,86.63,85.35,95.5,102.01,94.75,94.97,70.43,84.72,71.53,73.27,88.21,72.78,69.55,66.19,82.91,74.64,66.41,64.97,73.43,102.25,98.61,114.95,100.82,64.27
QLD,,,,,,,,,,,74.48,60.28,85.49,92.9,95.88,97.82,99.14,96.66,98.33,89.12,68.98,70.92,84.53,83.03,87.4,94.34,87.62,86.06,84.41,82.05,88.64,74.66,83.92,81.4,86.19,89.26,97.71,87.43,84.12,81.26
NSW Condong,,,,,,,,,,,76.61,100.98,99.83,118.73,103.31,103.1,117.56,117.39,126.14,109.19,92.08,99.63,115.75,110.74,105.32,123.55,132.41,111.35,122.46,94.54,101.67,86.06,70.02,76.75,118.19,122.31,119.18,117.35,117.49,116.81
Condong,,,,,,,,,,,76.61,100.98,99.83,118.73,103.31,103.1,117.56,117.39,126.14,109.19,92.08,99.63,115.75,110.74,105.32,123.55,132.41,111.35,122.46,94.54,101.67,86.06,70.02,76.75,118.19,122.31,119.18,117.35,117.49,116.81
NSW Broadwater,,,,,,,,,,,86.14,97.77,125.79,129.06,135.88,124.08,134.41,143.48,142.91,138.79,108.07,113.27,129.18,127.82,131.37,149.64,164.11,143.63,141.38,109.19,120.12,132.53,88.31,91.51,106.85,135,128.07,112.72,120.42,102.42
Broadwater,,,,,,,,,,,86.14,97.77,125.79,129.06,135.88,124.08,134.41,143.48,142.91,138.79,108.07,113.27,129.18,127.82,131.37,149.64,164.11,143.63,141.38,109.19,120.12,132.53,88.31,91.51,106.85,135,128.07,112.72,120.42,102.42
NSW Harwood,,,,,,,,,,,86.66,80.69,113.99,105.41,115.66,113.74,134.38,140.86,126,142.67,114.12,101.22,97.88,106.05,109.3,124.8,147.57,128.37,127.32,114.2,131.92,136.48,82.34,92.32,109.22,150.46,146.25,132.14,137.28,111.62
Harwood,,,,,,,,,,,86.66,80.69,113.99,105.41,115.66,113.74,134.38,140.86,126,142.67,114.12,101.22,97.88,106.05,109.3,124.8,147.57,128.37,127.32,114.2,131.92,136.48,82.34,92.32,109.22,150.46,146.25,132.14,137.28,111.62
NSW,,,,,,,,,,,82.77,93.96,112.91,118.23,118.84,114.29,129.21,135.03,132.29,131.38,105.32,105.52,114.09,115.74,116.69,134.26,149.65,129.7,131.65,106.27,118.03,121.12,79.94,87.6,111.22,136.39,130.86,120.33,125,109.88
QLD & NSW,,,,,,,,,,,74.91,61.98,86.99,94.19,97.09,98.67,100.64,98.53,100.07,91.11,70.63,72.57,86.03,84.66,88.88,96.12,90.39,87.98,86.27,83.1,90,76.35,83.79,81.65,87.13,91.23,99.16,88.79,85.85,82.4
