Climate,RepReg
2505-15185,Burnett
2490-15195,Burnett
2530-15190,Burnett
2500-15210,Burnett
2515-15205,Isis
2470-15205,Burnett
2490-15220,Burnett
2530-15220,Isis
2460-15205,Burnett
2515-15235,Isis
2470-15220,Burnett
2480-15230,Burnett
2495-15240,Burnett
2475-15240,Burnett
2535-15255,Burnett
2515-15255,Burnett
2605-15245,Mary
2590-15240,Mary
2570-15245,Mary
2565-15265,Mary
2595-15275,Mary
2540-15275,Mary
2615-15280,Mary
2635-15280,Mary
#,
#Note:,
#Isis boundaries approximate,
#2540-15275,Burnett
#This climate zones has cane in 2 river basins but assigned as per list above based on majority of area,
