"sowDate","TillageCode","FertCode","MillMudCode"
"Apr1","TillA","FertD","Af"
"Apr1","TillAp","FertA","Af"
"Apr1","TillAp","FertD","Af"
"Apr1","TillAp","FertBp","Af"
"Apr1","TillB","FertC","Af"
"Apr1","TillB","FertBp","Af"
"Apr1","TillB","FertA","Af"
"Apr1","TillD","FertC","Af"
"Apr1","TillB","FertD","Af"
"Apr1","TillBp","FertA","Af"
"Apr1","TillBp","FertB","Af"
"Apr1","TillBp","FertBp","Af"
"Apr1","TillBp","FertC","Af"
"Apr1","TillA","FertCp","Af"
"Apr1","TillC","FertC","Af"
"Apr1","TillD","FertD","Af"
"Apr1","TillCp","FertA","Af"
"Apr1","TillBp","FertD","Af"
"Apr1","TillA","FertC","Af"
"Apr1","TillCp","FertBp","Af"
"Apr1","TillB","FertB","Af"
"Apr1","TillB","FertCp","Af"
"Apr1","TillC","FertBp","Af"
"Apr1","TillC","FertD","Af"
"Apr1","TillA","FertA","Af"
"Apr1","TillAp","FertC","Af"
"Apr1","TillA","FertBp","Af"
"Apr1","TillD","FertB","Af"
"Apr1","TillAp","FertCp","Af"
"Apr1","TillC","FertA","Af"
"Apr1","TillD","FertCp","Af"
"Apr1","TillCp","FertCp","Af"
"Apr1","TillBp","FertCp","Af"
"Apr1","TillCp","FertD","Af"
"Apr1","TillCp","FertB","Af"
"Apr1","TillC","FertB","Af"
"Apr1","TillA","FertB","Af"
"Apr1","TillCp","FertC","Af"
"Apr1","TillD","FertA","Af"
"Apr1","TillC","FertCp","Af"
"Apr1","TillD","FertBp","Af"
"Apr1","TillAp","FertB","Af"
"May1","TillA","FertD","Af"
"May1","TillAp","FertA","Af"
"May1","TillAp","FertD","Af"
"May1","TillAp","FertBp","Af"
"May1","TillB","FertC","Af"
"May1","TillB","FertBp","Af"
"May1","TillB","FertA","Af"
"May1","TillD","FertC","Af"
"May1","TillB","FertD","Af"
"May1","TillBp","FertA","Af"
"May1","TillBp","FertB","Af"
"May1","TillBp","FertBp","Af"
"May1","TillBp","FertC","Af"
"May1","TillA","FertCp","Af"
"May1","TillC","FertC","Af"
"May1","TillD","FertD","Af"
"May1","TillCp","FertA","Af"
"May1","TillBp","FertD","Af"
"May1","TillA","FertC","Af"
"May1","TillCp","FertBp","Af"
"May1","TillB","FertB","Af"
"May1","TillB","FertCp","Af"
"May1","TillC","FertBp","Af"
"May1","TillC","FertD","Af"
"May1","TillA","FertA","Af"
"May1","TillAp","FertC","Af"
"May1","TillA","FertBp","Af"
"May1","TillD","FertB","Af"
"May1","TillAp","FertCp","Af"
"May1","TillC","FertA","Af"
"May1","TillD","FertCp","Af"
"May1","TillCp","FertCp","Af"
"May1","TillBp","FertCp","Af"
"May1","TillCp","FertD","Af"
"May1","TillCp","FertB","Af"
"May1","TillC","FertB","Af"
"May1","TillA","FertB","Af"
"May1","TillCp","FertC","Af"
"May1","TillD","FertA","Af"
"May1","TillC","FertCp","Af"
"May1","TillD","FertBp","Af"
"May1","TillAp","FertB","Af"
"Jun1","TillA","FertD","Af"
"Jun1","TillAp","FertA","Af"
"Jun1","TillAp","FertD","Af"
"Jun1","TillAp","FertBp","Af"
"Jun1","TillB","FertC","Af"
"Jun1","TillB","FertBp","Af"
"Jun1","TillB","FertA","Af"
"Jun1","TillD","FertC","Af"
"Jun1","TillB","FertD","Af"
"Jun1","TillBp","FertA","Af"
"Jun1","TillBp","FertB","Af"
"Jun1","TillBp","FertBp","Af"
"Jun1","TillBp","FertC","Af"
"Jun1","TillA","FertCp","Af"
"Jun1","TillC","FertC","Af"
"Jun1","TillD","FertD","Af"
"Jun1","TillCp","FertA","Af"
"Jun1","TillBp","FertD","Af"
"Jun1","TillA","FertC","Af"
"Jun1","TillCp","FertBp","Af"
"Jun1","TillB","FertB","Af"
"Jun1","TillB","FertCp","Af"
"Jun1","TillC","FertBp","Af"
"Jun1","TillC","FertD","Af"
"Jun1","TillA","FertA","Af"
"Jun1","TillAp","FertC","Af"
"Jun1","TillA","FertBp","Af"
"Jun1","TillD","FertB","Af"
"Jun1","TillAp","FertCp","Af"
"Jun1","TillC","FertA","Af"
"Jun1","TillD","FertCp","Af"
"Jun1","TillCp","FertCp","Af"
"Jun1","TillBp","FertCp","Af"
"Jun1","TillCp","FertD","Af"
"Jun1","TillCp","FertB","Af"
"Jun1","TillC","FertB","Af"
"Jun1","TillA","FertB","Af"
"Jun1","TillCp","FertC","Af"
"Jun1","TillD","FertA","Af"
"Jun1","TillC","FertCp","Af"
"Jun1","TillD","FertBp","Af"
"Jun1","TillAp","FertB","Af"
"Aug1","TillA","FertD","Af"
"Aug1","TillAp","FertA","Af"
"Aug1","TillAp","FertD","Af"
"Aug1","TillAp","FertBp","Af"
"Aug1","TillB","FertC","Af"
"Aug1","TillB","FertBp","Af"
"Aug1","TillB","FertA","Af"
"Aug1","TillD","FertC","Af"
"Aug1","TillB","FertD","Af"
"Aug1","TillBp","FertA","Af"
"Aug1","TillBp","FertB","Af"
"Aug1","TillBp","FertBp","Af"
"Aug1","TillBp","FertC","Af"
"Aug1","TillA","FertCp","Af"
"Aug1","TillC","FertC","Af"
"Aug1","TillD","FertD","Af"
"Aug1","TillCp","FertA","Af"
"Aug1","TillBp","FertD","Af"
"Aug1","TillA","FertC","Af"
"Aug1","TillCp","FertBp","Af"
"Aug1","TillB","FertB","Af"
"Aug1","TillB","FertCp","Af"
"Aug1","TillC","FertBp","Af"
"Aug1","TillC","FertD","Af"
"Aug1","TillA","FertA","Af"
"Aug1","TillAp","FertC","Af"
"Aug1","TillA","FertBp","Af"
"Aug1","TillD","FertB","Af"
"Aug1","TillAp","FertCp","Af"
"Aug1","TillC","FertA","Af"
"Aug1","TillD","FertCp","Af"
"Aug1","TillCp","FertCp","Af"
"Aug1","TillBp","FertCp","Af"
"Aug1","TillCp","FertD","Af"
"Aug1","TillCp","FertB","Af"
"Aug1","TillC","FertB","Af"
"Aug1","TillA","FertB","Af"
"Aug1","TillCp","FertC","Af"
"Aug1","TillD","FertA","Af"
"Aug1","TillC","FertCp","Af"
"Aug1","TillD","FertBp","Af"
"Aug1","TillAp","FertB","Af"
"Sep1","TillA","FertD","Af"
"Sep1","TillAp","FertA","Af"
"Sep1","TillAp","FertD","Af"
"Sep1","TillAp","FertBp","Af"
"Sep1","TillB","FertC","Af"
"Sep1","TillB","FertBp","Af"
"Sep1","TillB","FertA","Af"
"Sep1","TillD","FertC","Af"
"Sep1","TillB","FertD","Af"
"Sep1","TillBp","FertA","Af"
"Sep1","TillBp","FertB","Af"
"Sep1","TillBp","FertBp","Af"
"Sep1","TillBp","FertC","Af"
"Sep1","TillA","FertCp","Af"
"Sep1","TillC","FertC","Af"
"Sep1","TillD","FertD","Af"
"Sep1","TillCp","FertA","Af"
"Sep1","TillBp","FertD","Af"
"Sep1","TillA","FertC","Af"
"Sep1","TillCp","FertBp","Af"
"Sep1","TillB","FertB","Af"
"Sep1","TillB","FertCp","Af"
"Sep1","TillC","FertBp","Af"
"Sep1","TillC","FertD","Af"
"Sep1","TillA","FertA","Af"
"Sep1","TillAp","FertC","Af"
"Sep1","TillA","FertBp","Af"
"Sep1","TillD","FertB","Af"
"Sep1","TillAp","FertCp","Af"
"Sep1","TillC","FertA","Af"
"Sep1","TillD","FertCp","Af"
"Sep1","TillCp","FertCp","Af"
"Sep1","TillBp","FertCp","Af"
"Sep1","TillCp","FertD","Af"
"Sep1","TillCp","FertB","Af"
"Sep1","TillC","FertB","Af"
"Sep1","TillA","FertB","Af"
"Sep1","TillCp","FertC","Af"
"Sep1","TillD","FertA","Af"
"Sep1","TillC","FertCp","Af"
"Sep1","TillD","FertBp","Af"
"Sep1","TillAp","FertB","Af"
"Apr1","TillA","FertD","Bf"
"Apr1","TillAp","FertA","Bf"
"Apr1","TillAp","FertD","Bf"
"Apr1","TillAp","FertBp","Bf"
"Apr1","TillB","FertC","Bf"
"Apr1","TillB","FertBp","Bf"
"Apr1","TillB","FertA","Bf"
"Apr1","TillD","FertC","Bf"
"Apr1","TillB","FertD","Bf"
"Apr1","TillBp","FertA","Bf"
"Apr1","TillBp","FertB","Bf"
"Apr1","TillBp","FertBp","Bf"
"Apr1","TillBp","FertC","Bf"
"Apr1","TillA","FertCp","Bf"
"Apr1","TillC","FertC","Bf"
"Apr1","TillD","FertD","Bf"
"Apr1","TillCp","FertA","Bf"
"Apr1","TillBp","FertD","Bf"
"Apr1","TillA","FertC","Bf"
"Apr1","TillCp","FertBp","Bf"
"Apr1","TillB","FertB","Bf"
"Apr1","TillB","FertCp","Bf"
"Apr1","TillC","FertBp","Bf"
"Apr1","TillC","FertD","Bf"
"Apr1","TillA","FertA","Bf"
"Apr1","TillAp","FertC","Bf"
"Apr1","TillA","FertBp","Bf"
"Apr1","TillD","FertB","Bf"
"Apr1","TillAp","FertCp","Bf"
"Apr1","TillC","FertA","Bf"
"Apr1","TillD","FertCp","Bf"
"Apr1","TillCp","FertCp","Bf"
"Apr1","TillBp","FertCp","Bf"
"Apr1","TillCp","FertD","Bf"
"Apr1","TillCp","FertB","Bf"
"Apr1","TillC","FertB","Bf"
"Apr1","TillA","FertB","Bf"
"Apr1","TillCp","FertC","Bf"
"Apr1","TillD","FertA","Bf"
"Apr1","TillC","FertCp","Bf"
"Apr1","TillD","FertBp","Bf"
"Apr1","TillAp","FertB","Bf"
"May1","TillA","FertD","Bf"
"May1","TillAp","FertA","Bf"
"May1","TillAp","FertD","Bf"
"May1","TillAp","FertBp","Bf"
"May1","TillB","FertC","Bf"
"May1","TillB","FertBp","Bf"
"May1","TillB","FertA","Bf"
"May1","TillD","FertC","Bf"
"May1","TillB","FertD","Bf"
"May1","TillBp","FertA","Bf"
"May1","TillBp","FertB","Bf"
"May1","TillBp","FertBp","Bf"
"May1","TillBp","FertC","Bf"
"May1","TillA","FertCp","Bf"
"May1","TillC","FertC","Bf"
"May1","TillD","FertD","Bf"
"May1","TillCp","FertA","Bf"
"May1","TillBp","FertD","Bf"
"May1","TillA","FertC","Bf"
"May1","TillCp","FertBp","Bf"
"May1","TillB","FertB","Bf"
"May1","TillB","FertCp","Bf"
"May1","TillC","FertBp","Bf"
"May1","TillC","FertD","Bf"
"May1","TillA","FertA","Bf"
"May1","TillAp","FertC","Bf"
"May1","TillA","FertBp","Bf"
"May1","TillD","FertB","Bf"
"May1","TillAp","FertCp","Bf"
"May1","TillC","FertA","Bf"
"May1","TillD","FertCp","Bf"
"May1","TillCp","FertCp","Bf"
"May1","TillBp","FertCp","Bf"
"May1","TillCp","FertD","Bf"
"May1","TillCp","FertB","Bf"
"May1","TillC","FertB","Bf"
"May1","TillA","FertB","Bf"
"May1","TillCp","FertC","Bf"
"May1","TillD","FertA","Bf"
"May1","TillC","FertCp","Bf"
"May1","TillD","FertBp","Bf"
"May1","TillAp","FertB","Bf"
"Jun1","TillA","FertD","Bf"
"Jun1","TillAp","FertA","Bf"
"Jun1","TillAp","FertD","Bf"
"Jun1","TillAp","FertBp","Bf"
"Jun1","TillB","FertC","Bf"
"Jun1","TillB","FertBp","Bf"
"Jun1","TillB","FertA","Bf"
"Jun1","TillD","FertC","Bf"
"Jun1","TillB","FertD","Bf"
"Jun1","TillBp","FertA","Bf"
"Jun1","TillBp","FertB","Bf"
"Jun1","TillBp","FertBp","Bf"
"Jun1","TillBp","FertC","Bf"
"Jun1","TillA","FertCp","Bf"
"Jun1","TillC","FertC","Bf"
"Jun1","TillD","FertD","Bf"
"Jun1","TillCp","FertA","Bf"
"Jun1","TillBp","FertD","Bf"
"Jun1","TillA","FertC","Bf"
"Jun1","TillCp","FertBp","Bf"
"Jun1","TillB","FertB","Bf"
"Jun1","TillB","FertCp","Bf"
"Jun1","TillC","FertBp","Bf"
"Jun1","TillC","FertD","Bf"
"Jun1","TillA","FertA","Bf"
"Jun1","TillAp","FertC","Bf"
"Jun1","TillA","FertBp","Bf"
"Jun1","TillD","FertB","Bf"
"Jun1","TillAp","FertCp","Bf"
"Jun1","TillC","FertA","Bf"
"Jun1","TillD","FertCp","Bf"
"Jun1","TillCp","FertCp","Bf"
"Jun1","TillBp","FertCp","Bf"
"Jun1","TillCp","FertD","Bf"
"Jun1","TillCp","FertB","Bf"
"Jun1","TillC","FertB","Bf"
"Jun1","TillA","FertB","Bf"
"Jun1","TillCp","FertC","Bf"
"Jun1","TillD","FertA","Bf"
"Jun1","TillC","FertCp","Bf"
"Jun1","TillD","FertBp","Bf"
"Jun1","TillAp","FertB","Bf"
"Aug1","TillA","FertD","Bf"
"Aug1","TillAp","FertA","Bf"
"Aug1","TillAp","FertD","Bf"
"Aug1","TillAp","FertBp","Bf"
"Aug1","TillB","FertC","Bf"
"Aug1","TillB","FertBp","Bf"
"Aug1","TillB","FertA","Bf"
"Aug1","TillD","FertC","Bf"
"Aug1","TillB","FertD","Bf"
"Aug1","TillBp","FertA","Bf"
"Aug1","TillBp","FertB","Bf"
"Aug1","TillBp","FertBp","Bf"
"Aug1","TillBp","FertC","Bf"
"Aug1","TillA","FertCp","Bf"
"Aug1","TillC","FertC","Bf"
"Aug1","TillD","FertD","Bf"
"Aug1","TillCp","FertA","Bf"
"Aug1","TillBp","FertD","Bf"
"Aug1","TillA","FertC","Bf"
"Aug1","TillCp","FertBp","Bf"
"Aug1","TillB","FertB","Bf"
"Aug1","TillB","FertCp","Bf"
"Aug1","TillC","FertBp","Bf"
"Aug1","TillC","FertD","Bf"
"Aug1","TillA","FertA","Bf"
"Aug1","TillAp","FertC","Bf"
"Aug1","TillA","FertBp","Bf"
"Aug1","TillD","FertB","Bf"
"Aug1","TillAp","FertCp","Bf"
"Aug1","TillC","FertA","Bf"
"Aug1","TillD","FertCp","Bf"
"Aug1","TillCp","FertCp","Bf"
"Aug1","TillBp","FertCp","Bf"
"Aug1","TillCp","FertD","Bf"
"Aug1","TillCp","FertB","Bf"
"Aug1","TillC","FertB","Bf"
"Aug1","TillA","FertB","Bf"
"Aug1","TillCp","FertC","Bf"
"Aug1","TillD","FertA","Bf"
"Aug1","TillC","FertCp","Bf"
"Aug1","TillD","FertBp","Bf"
"Aug1","TillAp","FertB","Bf"
"Sep1","TillA","FertD","Bf"
"Sep1","TillAp","FertA","Bf"
"Sep1","TillAp","FertD","Bf"
"Sep1","TillAp","FertBp","Bf"
"Sep1","TillB","FertC","Bf"
"Sep1","TillB","FertBp","Bf"
"Sep1","TillB","FertA","Bf"
"Sep1","TillD","FertC","Bf"
"Sep1","TillB","FertD","Bf"
"Sep1","TillBp","FertA","Bf"
"Sep1","TillBp","FertB","Bf"
"Sep1","TillBp","FertBp","Bf"
"Sep1","TillBp","FertC","Bf"
"Sep1","TillA","FertCp","Bf"
"Sep1","TillC","FertC","Bf"
"Sep1","TillD","FertD","Bf"
"Sep1","TillCp","FertA","Bf"
"Sep1","TillBp","FertD","Bf"
"Sep1","TillA","FertC","Bf"
"Sep1","TillCp","FertBp","Bf"
"Sep1","TillB","FertB","Bf"
"Sep1","TillB","FertCp","Bf"
"Sep1","TillC","FertBp","Bf"
"Sep1","TillC","FertD","Bf"
"Sep1","TillA","FertA","Bf"
"Sep1","TillAp","FertC","Bf"
"Sep1","TillA","FertBp","Bf"
"Sep1","TillD","FertB","Bf"
"Sep1","TillAp","FertCp","Bf"
"Sep1","TillC","FertA","Bf"
"Sep1","TillD","FertCp","Bf"
"Sep1","TillCp","FertCp","Bf"
"Sep1","TillBp","FertCp","Bf"
"Sep1","TillCp","FertD","Bf"
"Sep1","TillCp","FertB","Bf"
"Sep1","TillC","FertB","Bf"
"Sep1","TillA","FertB","Bf"
"Sep1","TillCp","FertC","Bf"
"Sep1","TillD","FertA","Bf"
"Sep1","TillC","FertCp","Bf"
"Sep1","TillD","FertBp","Bf"
"Sep1","TillAp","FertB","Bf"
"Apr1","TillA","FertD","Cf"
"Apr1","TillAp","FertA","Cf"
"Apr1","TillAp","FertD","Cf"
"Apr1","TillAp","FertBp","Cf"
"Apr1","TillB","FertC","Cf"
"Apr1","TillB","FertBp","Cf"
"Apr1","TillB","FertA","Cf"
"Apr1","TillD","FertC","Cf"
"Apr1","TillB","FertD","Cf"
"Apr1","TillBp","FertA","Cf"
"Apr1","TillBp","FertB","Cf"
"Apr1","TillBp","FertBp","Cf"
"Apr1","TillBp","FertC","Cf"
"Apr1","TillA","FertCp","Cf"
"Apr1","TillC","FertC","Cf"
"Apr1","TillD","FertD","Cf"
"Apr1","TillCp","FertA","Cf"
"Apr1","TillBp","FertD","Cf"
"Apr1","TillA","FertC","Cf"
"Apr1","TillCp","FertBp","Cf"
"Apr1","TillB","FertB","Cf"
"Apr1","TillB","FertCp","Cf"
"Apr1","TillC","FertBp","Cf"
"Apr1","TillC","FertD","Cf"
"Apr1","TillA","FertA","Cf"
"Apr1","TillAp","FertC","Cf"
"Apr1","TillA","FertBp","Cf"
"Apr1","TillD","FertB","Cf"
"Apr1","TillAp","FertCp","Cf"
"Apr1","TillC","FertA","Cf"
"Apr1","TillD","FertCp","Cf"
"Apr1","TillCp","FertCp","Cf"
"Apr1","TillBp","FertCp","Cf"
"Apr1","TillCp","FertD","Cf"
"Apr1","TillCp","FertB","Cf"
"Apr1","TillC","FertB","Cf"
"Apr1","TillA","FertB","Cf"
"Apr1","TillCp","FertC","Cf"
"Apr1","TillD","FertA","Cf"
"Apr1","TillC","FertCp","Cf"
"Apr1","TillD","FertBp","Cf"
"Apr1","TillAp","FertB","Cf"
"May1","TillA","FertD","Cf"
"May1","TillAp","FertA","Cf"
"May1","TillAp","FertD","Cf"
"May1","TillAp","FertBp","Cf"
"May1","TillB","FertC","Cf"
"May1","TillB","FertBp","Cf"
"May1","TillB","FertA","Cf"
"May1","TillD","FertC","Cf"
"May1","TillB","FertD","Cf"
"May1","TillBp","FertA","Cf"
"May1","TillBp","FertB","Cf"
"May1","TillBp","FertBp","Cf"
"May1","TillBp","FertC","Cf"
"May1","TillA","FertCp","Cf"
"May1","TillC","FertC","Cf"
"May1","TillD","FertD","Cf"
"May1","TillCp","FertA","Cf"
"May1","TillBp","FertD","Cf"
"May1","TillA","FertC","Cf"
"May1","TillCp","FertBp","Cf"
"May1","TillB","FertB","Cf"
"May1","TillB","FertCp","Cf"
"May1","TillC","FertBp","Cf"
"May1","TillC","FertD","Cf"
"May1","TillA","FertA","Cf"
"May1","TillAp","FertC","Cf"
"May1","TillA","FertBp","Cf"
"May1","TillD","FertB","Cf"
"May1","TillAp","FertCp","Cf"
"May1","TillC","FertA","Cf"
"May1","TillD","FertCp","Cf"
"May1","TillCp","FertCp","Cf"
"May1","TillBp","FertCp","Cf"
"May1","TillCp","FertD","Cf"
"May1","TillCp","FertB","Cf"
"May1","TillC","FertB","Cf"
"May1","TillA","FertB","Cf"
"May1","TillCp","FertC","Cf"
"May1","TillD","FertA","Cf"
"May1","TillC","FertCp","Cf"
"May1","TillD","FertBp","Cf"
"May1","TillAp","FertB","Cf"
"Jun1","TillA","FertD","Cf"
"Jun1","TillAp","FertA","Cf"
"Jun1","TillAp","FertD","Cf"
"Jun1","TillAp","FertBp","Cf"
"Jun1","TillB","FertC","Cf"
"Jun1","TillB","FertBp","Cf"
"Jun1","TillB","FertA","Cf"
"Jun1","TillD","FertC","Cf"
"Jun1","TillB","FertD","Cf"
"Jun1","TillBp","FertA","Cf"
"Jun1","TillBp","FertB","Cf"
"Jun1","TillBp","FertBp","Cf"
"Jun1","TillBp","FertC","Cf"
"Jun1","TillA","FertCp","Cf"
"Jun1","TillC","FertC","Cf"
"Jun1","TillD","FertD","Cf"
"Jun1","TillCp","FertA","Cf"
"Jun1","TillBp","FertD","Cf"
"Jun1","TillA","FertC","Cf"
"Jun1","TillCp","FertBp","Cf"
"Jun1","TillB","FertB","Cf"
"Jun1","TillB","FertCp","Cf"
"Jun1","TillC","FertBp","Cf"
"Jun1","TillC","FertD","Cf"
"Jun1","TillA","FertA","Cf"
"Jun1","TillAp","FertC","Cf"
"Jun1","TillA","FertBp","Cf"
"Jun1","TillD","FertB","Cf"
"Jun1","TillAp","FertCp","Cf"
"Jun1","TillC","FertA","Cf"
"Jun1","TillD","FertCp","Cf"
"Jun1","TillCp","FertCp","Cf"
"Jun1","TillBp","FertCp","Cf"
"Jun1","TillCp","FertD","Cf"
"Jun1","TillCp","FertB","Cf"
"Jun1","TillC","FertB","Cf"
"Jun1","TillA","FertB","Cf"
"Jun1","TillCp","FertC","Cf"
"Jun1","TillD","FertA","Cf"
"Jun1","TillC","FertCp","Cf"
"Jun1","TillD","FertBp","Cf"
"Jun1","TillAp","FertB","Cf"
"Aug1","TillA","FertD","Cf"
"Aug1","TillAp","FertA","Cf"
"Aug1","TillAp","FertD","Cf"
"Aug1","TillAp","FertBp","Cf"
"Aug1","TillB","FertC","Cf"
"Aug1","TillB","FertBp","Cf"
"Aug1","TillB","FertA","Cf"
"Aug1","TillD","FertC","Cf"
"Aug1","TillB","FertD","Cf"
"Aug1","TillBp","FertA","Cf"
"Aug1","TillBp","FertB","Cf"
"Aug1","TillBp","FertBp","Cf"
"Aug1","TillBp","FertC","Cf"
"Aug1","TillA","FertCp","Cf"
"Aug1","TillC","FertC","Cf"
"Aug1","TillD","FertD","Cf"
"Aug1","TillCp","FertA","Cf"
"Aug1","TillBp","FertD","Cf"
"Aug1","TillA","FertC","Cf"
"Aug1","TillCp","FertBp","Cf"
"Aug1","TillB","FertB","Cf"
"Aug1","TillB","FertCp","Cf"
"Aug1","TillC","FertBp","Cf"
"Aug1","TillC","FertD","Cf"
"Aug1","TillA","FertA","Cf"
"Aug1","TillAp","FertC","Cf"
"Aug1","TillA","FertBp","Cf"
"Aug1","TillD","FertB","Cf"
"Aug1","TillAp","FertCp","Cf"
"Aug1","TillC","FertA","Cf"
"Aug1","TillD","FertCp","Cf"
"Aug1","TillCp","FertCp","Cf"
"Aug1","TillBp","FertCp","Cf"
"Aug1","TillCp","FertD","Cf"
"Aug1","TillCp","FertB","Cf"
"Aug1","TillC","FertB","Cf"
"Aug1","TillA","FertB","Cf"
"Aug1","TillCp","FertC","Cf"
"Aug1","TillD","FertA","Cf"
"Aug1","TillC","FertCp","Cf"
"Aug1","TillD","FertBp","Cf"
"Aug1","TillAp","FertB","Cf"
"Sep1","TillA","FertD","Cf"
"Sep1","TillAp","FertA","Cf"
"Sep1","TillAp","FertD","Cf"
"Sep1","TillAp","FertBp","Cf"
"Sep1","TillB","FertC","Cf"
"Sep1","TillB","FertBp","Cf"
"Sep1","TillB","FertA","Cf"
"Sep1","TillD","FertC","Cf"
"Sep1","TillB","FertD","Cf"
"Sep1","TillBp","FertA","Cf"
"Sep1","TillBp","FertB","Cf"
"Sep1","TillBp","FertBp","Cf"
"Sep1","TillBp","FertC","Cf"
"Sep1","TillA","FertCp","Cf"
"Sep1","TillC","FertC","Cf"
"Sep1","TillD","FertD","Cf"
"Sep1","TillCp","FertA","Cf"
"Sep1","TillBp","FertD","Cf"
"Sep1","TillA","FertC","Cf"
"Sep1","TillCp","FertBp","Cf"
"Sep1","TillB","FertB","Cf"
"Sep1","TillB","FertCp","Cf"
"Sep1","TillC","FertBp","Cf"
"Sep1","TillC","FertD","Cf"
"Sep1","TillA","FertA","Cf"
"Sep1","TillAp","FertC","Cf"
"Sep1","TillA","FertBp","Cf"
"Sep1","TillD","FertB","Cf"
"Sep1","TillAp","FertCp","Cf"
"Sep1","TillC","FertA","Cf"
"Sep1","TillD","FertCp","Cf"
"Sep1","TillCp","FertCp","Cf"
"Sep1","TillBp","FertCp","Cf"
"Sep1","TillCp","FertD","Cf"
"Sep1","TillCp","FertB","Cf"
"Sep1","TillC","FertB","Cf"
"Sep1","TillA","FertB","Cf"
"Sep1","TillCp","FertC","Cf"
"Sep1","TillD","FertA","Cf"
"Sep1","TillC","FertCp","Cf"
"Sep1","TillD","FertBp","Cf"
"Sep1","TillAp","FertB","Cf"
"Apr1","TillA","FertD","Df"
"Apr1","TillAp","FertA","Df"
"Apr1","TillAp","FertD","Df"
"Apr1","TillAp","FertBp","Df"
"Apr1","TillB","FertC","Df"
"Apr1","TillB","FertBp","Df"
"Apr1","TillB","FertA","Df"
"Apr1","TillD","FertC","Df"
"Apr1","TillB","FertD","Df"
"Apr1","TillBp","FertA","Df"
"Apr1","TillBp","FertB","Df"
"Apr1","TillBp","FertBp","Df"
"Apr1","TillBp","FertC","Df"
"Apr1","TillA","FertCp","Df"
"Apr1","TillC","FertC","Df"
"Apr1","TillD","FertD","Df"
"Apr1","TillCp","FertA","Df"
"Apr1","TillBp","FertD","Df"
"Apr1","TillA","FertC","Df"
"Apr1","TillCp","FertBp","Df"
"Apr1","TillB","FertB","Df"
"Apr1","TillB","FertCp","Df"
"Apr1","TillC","FertBp","Df"
"Apr1","TillC","FertD","Df"
"Apr1","TillA","FertA","Df"
"Apr1","TillAp","FertC","Df"
"Apr1","TillA","FertBp","Df"
"Apr1","TillD","FertB","Df"
"Apr1","TillAp","FertCp","Df"
"Apr1","TillC","FertA","Df"
"Apr1","TillD","FertCp","Df"
"Apr1","TillCp","FertCp","Df"
"Apr1","TillBp","FertCp","Df"
"Apr1","TillCp","FertD","Df"
"Apr1","TillCp","FertB","Df"
"Apr1","TillC","FertB","Df"
"Apr1","TillA","FertB","Df"
"Apr1","TillCp","FertC","Df"
"Apr1","TillD","FertA","Df"
"Apr1","TillC","FertCp","Df"
"Apr1","TillD","FertBp","Df"
"Apr1","TillAp","FertB","Df"
"May1","TillA","FertD","Df"
"May1","TillAp","FertA","Df"
"May1","TillAp","FertD","Df"
"May1","TillAp","FertBp","Df"
"May1","TillB","FertC","Df"
"May1","TillB","FertBp","Df"
"May1","TillB","FertA","Df"
"May1","TillD","FertC","Df"
"May1","TillB","FertD","Df"
"May1","TillBp","FertA","Df"
"May1","TillBp","FertB","Df"
"May1","TillBp","FertBp","Df"
"May1","TillBp","FertC","Df"
"May1","TillA","FertCp","Df"
"May1","TillC","FertC","Df"
"May1","TillD","FertD","Df"
"May1","TillCp","FertA","Df"
"May1","TillBp","FertD","Df"
"May1","TillA","FertC","Df"
"May1","TillCp","FertBp","Df"
"May1","TillB","FertB","Df"
"May1","TillB","FertCp","Df"
"May1","TillC","FertBp","Df"
"May1","TillC","FertD","Df"
"May1","TillA","FertA","Df"
"May1","TillAp","FertC","Df"
"May1","TillA","FertBp","Df"
"May1","TillD","FertB","Df"
"May1","TillAp","FertCp","Df"
"May1","TillC","FertA","Df"
"May1","TillD","FertCp","Df"
"May1","TillCp","FertCp","Df"
"May1","TillBp","FertCp","Df"
"May1","TillCp","FertD","Df"
"May1","TillCp","FertB","Df"
"May1","TillC","FertB","Df"
"May1","TillA","FertB","Df"
"May1","TillCp","FertC","Df"
"May1","TillD","FertA","Df"
"May1","TillC","FertCp","Df"
"May1","TillD","FertBp","Df"
"May1","TillAp","FertB","Df"
"Jun1","TillA","FertD","Df"
"Jun1","TillAp","FertA","Df"
"Jun1","TillAp","FertD","Df"
"Jun1","TillAp","FertBp","Df"
"Jun1","TillB","FertC","Df"
"Jun1","TillB","FertBp","Df"
"Jun1","TillB","FertA","Df"
"Jun1","TillD","FertC","Df"
"Jun1","TillB","FertD","Df"
"Jun1","TillBp","FertA","Df"
"Jun1","TillBp","FertB","Df"
"Jun1","TillBp","FertBp","Df"
"Jun1","TillBp","FertC","Df"
"Jun1","TillA","FertCp","Df"
"Jun1","TillC","FertC","Df"
"Jun1","TillD","FertD","Df"
"Jun1","TillCp","FertA","Df"
"Jun1","TillBp","FertD","Df"
"Jun1","TillA","FertC","Df"
"Jun1","TillCp","FertBp","Df"
"Jun1","TillB","FertB","Df"
"Jun1","TillB","FertCp","Df"
"Jun1","TillC","FertBp","Df"
"Jun1","TillC","FertD","Df"
"Jun1","TillA","FertA","Df"
"Jun1","TillAp","FertC","Df"
"Jun1","TillA","FertBp","Df"
"Jun1","TillD","FertB","Df"
"Jun1","TillAp","FertCp","Df"
"Jun1","TillC","FertA","Df"
"Jun1","TillD","FertCp","Df"
"Jun1","TillCp","FertCp","Df"
"Jun1","TillBp","FertCp","Df"
"Jun1","TillCp","FertD","Df"
"Jun1","TillCp","FertB","Df"
"Jun1","TillC","FertB","Df"
"Jun1","TillA","FertB","Df"
"Jun1","TillCp","FertC","Df"
"Jun1","TillD","FertA","Df"
"Jun1","TillC","FertCp","Df"
"Jun1","TillD","FertBp","Df"
"Jun1","TillAp","FertB","Df"
"Aug1","TillA","FertD","Df"
"Aug1","TillAp","FertA","Df"
"Aug1","TillAp","FertD","Df"
"Aug1","TillAp","FertBp","Df"
"Aug1","TillB","FertC","Df"
"Aug1","TillB","FertBp","Df"
"Aug1","TillB","FertA","Df"
"Aug1","TillD","FertC","Df"
"Aug1","TillB","FertD","Df"
"Aug1","TillBp","FertA","Df"
"Aug1","TillBp","FertB","Df"
"Aug1","TillBp","FertBp","Df"
"Aug1","TillBp","FertC","Df"
"Aug1","TillA","FertCp","Df"
"Aug1","TillC","FertC","Df"
"Aug1","TillD","FertD","Df"
"Aug1","TillCp","FertA","Df"
"Aug1","TillBp","FertD","Df"
"Aug1","TillA","FertC","Df"
"Aug1","TillCp","FertBp","Df"
"Aug1","TillB","FertB","Df"
"Aug1","TillB","FertCp","Df"
"Aug1","TillC","FertBp","Df"
"Aug1","TillC","FertD","Df"
"Aug1","TillA","FertA","Df"
"Aug1","TillAp","FertC","Df"
"Aug1","TillA","FertBp","Df"
"Aug1","TillD","FertB","Df"
"Aug1","TillAp","FertCp","Df"
"Aug1","TillC","FertA","Df"
"Aug1","TillD","FertCp","Df"
"Aug1","TillCp","FertCp","Df"
"Aug1","TillBp","FertCp","Df"
"Aug1","TillCp","FertD","Df"
"Aug1","TillCp","FertB","Df"
"Aug1","TillC","FertB","Df"
"Aug1","TillA","FertB","Df"
"Aug1","TillCp","FertC","Df"
"Aug1","TillD","FertA","Df"
"Aug1","TillC","FertCp","Df"
"Aug1","TillD","FertBp","Df"
"Aug1","TillAp","FertB","Df"
"Sep1","TillA","FertD","Df"
"Sep1","TillAp","FertA","Df"
"Sep1","TillAp","FertD","Df"
"Sep1","TillAp","FertBp","Df"
"Sep1","TillB","FertC","Df"
"Sep1","TillB","FertBp","Df"
"Sep1","TillB","FertA","Df"
"Sep1","TillD","FertC","Df"
"Sep1","TillB","FertD","Df"
"Sep1","TillBp","FertA","Df"
"Sep1","TillBp","FertB","Df"
"Sep1","TillBp","FertBp","Df"
"Sep1","TillBp","FertC","Df"
"Sep1","TillA","FertCp","Df"
"Sep1","TillC","FertC","Df"
"Sep1","TillD","FertD","Df"
"Sep1","TillCp","FertA","Df"
"Sep1","TillBp","FertD","Df"
"Sep1","TillA","FertC","Df"
"Sep1","TillCp","FertBp","Df"
"Sep1","TillB","FertB","Df"
"Sep1","TillB","FertCp","Df"
"Sep1","TillC","FertBp","Df"
"Sep1","TillC","FertD","Df"
"Sep1","TillA","FertA","Df"
"Sep1","TillAp","FertC","Df"
"Sep1","TillA","FertBp","Df"
"Sep1","TillD","FertB","Df"
"Sep1","TillAp","FertCp","Df"
"Sep1","TillC","FertA","Df"
"Sep1","TillD","FertCp","Df"
"Sep1","TillCp","FertCp","Df"
"Sep1","TillBp","FertCp","Df"
"Sep1","TillCp","FertD","Df"
"Sep1","TillCp","FertB","Df"
"Sep1","TillC","FertB","Df"
"Sep1","TillA","FertB","Df"
"Sep1","TillCp","FertC","Df"
"Sep1","TillD","FertA","Df"
"Sep1","TillC","FertCp","Df"
"Sep1","TillD","FertBp","Df"
"Sep1","TillAp","FertB","Df"
