SoilName,MetCode,StartYear,MillMudCode,KS,TrafficCode,Soil,Irrigation,P2RClass,Pest,Nutrient,FertCode,TillageCode,FallowCode,PSplitCode,RSplitCode,PestManagement,BurnFlag,CurveNumber,PRUE,RRUE,KSVal,OxdefPhotoRtfr1,OxdefPhotoRtfr2,OxdefPhoto1,OxdefPhoto2,surfClay,ECEC,ColwellP,PBI,DataSource.for.ECEC.and.ColwellP,LegumeCrop,LegumeCultivar,LegumeDensity,LegumeDepth,MetDir,sowDate,Region,MillMudRAmount,MillMudPAmount,MMAppDate,plantN,ratoonN,simFiles
mari,1725-14595,1960,Af,HighKS,ct,B,irr1,BfCpCpAf,Cp,Cp,FertCp,TillB,cover,split,early,PestD,0,79.1,1.89,1.733,100,0.7,1,1,0.2,17,6.5,45,100,"Masters et al 2008, rainfall sim",cowpea,spreading,25,40,c:/Projects/P2R/primary/RegionsRC9/Met/,Jul,wetTropics,0,0,252,140,150,mari_BfCpCpAf_1725-14595_1960_wetTropics_HighKS_Jul
mari,1725-14595,1960,Af,HighKS,ct,A,irr1,AfCpCpAf,Cp,Cp,FertCp,TillA,grain,split,early,PestD,0,74.8,1.89,1.733,100,0.7,1,1,0.2,17,6.5,45,100,"Masters et al 2008, rainfall sim",cowpea,spreading,25,40,c:/Projects/P2R/primary/RegionsRC9/Met/,Sep,wetTropics,0,0,252,140,150,mari_AfCpCpAf_1725-14595_1960_wetTropics_HighKS_Sep
mari,1725-14595,1960,Af,LowKS,ct,C,irr1,CfCpCpAf,Cp,Cp,FertCp,TillC,cover,split,early,PestD,0,82.3,1.89,1.733,5,0.7,1,1,0.2,17,6.5,45,100,"Masters et al 2008, rainfall sim",cowpea,spreading,25,40,c:/Projects/P2R/primary/RegionsRC9/Met/,Jun,wetTropics,0,0,252,140,150,mari_CfCpCpAf_1725-14595_1960_wetTropics_LowKS_Jun
mari,1725-14595,1960,Af,LowKS,cp,D,irr1,DfCpCpAf,Cp,Cp,FertCp,TillD,bare,split,early,PestD,1,88,1.8,1.65,5,0.7,1,1,0.2,17,6.5,45,100,"Masters et al 2008, rainfall sim",cowpea,spreading,25,40,c:/Projects/P2R/primary/RegionsRC9/Met/,Jun,wetTropics,0,0,252,140,150,mari_DfCpCpAf_1725-14595_1960_wetTropics_LowKS_Jun
mari,1725-14595,1960,Af,LowKS,ct,Ap,irr1,ApCpCpAf,Cp,Cp,FertCp,TillAp,cover,split,early,PestD,0,76.5,1.89,1.733,5,0.7,1,1,0.2,17,6.5,45,100,"Masters et al 2008, rainfall sim",cowpea,spreading,25,40,c:/Projects/P2R/primary/RegionsRC9/Met/,Jun,wetTropics,0,0,252,140,150,mari_ApCpCpAf_1725-14595_1960_wetTropics_LowKS_Jun
mari,1725-14595,1960,Af,HighKS,cp,Cp,irr1,CpCpCpAf,Cp,Cp,FertCp,TillCp,bare,split,early,PestD,0,88,1.8,1.65,100,0.7,1,1,0.2,17,6.5,45,100,"Masters et al 2008, rainfall sim",cowpea,spreading,25,40,c:/Projects/P2R/primary/RegionsRC9/Met/,Jun,wetTropics,0,0,252,140,150,mari_CpCpCpAf_1725-14595_1960_wetTropics_HighKS_Jun
mari,1725-14595,1960,Af,LowKS,cp,D,irr1,DfCpCpAf,Cp,Cp,FertCp,TillD,bare,split,early,PestD,1,88,1.8,1.65,5,0.7,1,1,0.2,17,6.5,45,100,"Masters et al 2008, rainfall sim",cowpea,spreading,25,40,c:/Projects/P2R/primary/RegionsRC9/Met/,Aug,wetTropics,0,0,252,140,150,mari_DfCpCpAf_1725-14595_1960_wetTropics_LowKS_Aug
mari,1725-14595,1960,Af,LowKS,ct,A,irr1,AfCpCpAf,Cp,Cp,FertCp,TillA,grain,split,early,PestD,0,74.8,1.89,1.733,5,0.7,1,1,0.2,17,6.5,45,100,"Masters et al 2008, rainfall sim",cowpea,spreading,25,40,c:/Projects/P2R/primary/RegionsRC9/Met/,Aug,wetTropics,0,0,252,140,150,mari_AfCpCpAf_1725-14595_1960_wetTropics_LowKS_Aug
mari,1725-14595,1960,Af,LowKS,ct,B,irr1,BfCpCpAf,Cp,Cp,FertCp,TillB,cover,split,early,PestD,0,79.1,1.89,1.733,5,0.7,1,1,0.2,17,6.5,45,100,"Masters et al 2008, rainfall sim",cowpea,spreading,25,40,c:/Projects/P2R/primary/RegionsRC9/Met/,Jun,wetTropics,0,0,252,140,150,mari_BfCpCpAf_1725-14595_1960_wetTropics_LowKS_Jun
mari,1725-14595,1960,Af,HighKS,cp,PORP,irr1,PoCpCpAf,Cp,Cp,FertCp,TillPO,PORP,split,early,PestD,0,82.3,1.8,1.65,100,0.7,1,1,0.2,17,6.5,45,100,"Masters et al 2008, rainfall sim",cowpea,spreading,25,40,c:/Projects/P2R/primary/RegionsRC9/Met/,Sep,wetTropics,0,0,252,140,150,mari_PoCpCpAf_1725-14595_1960_wetTropics_HighKS_Sep
mari,1725-14595,1960,Af,LowKS,ct,A,irr1,AfCpCpAf,Cp,Cp,FertCp,TillA,grain,split,early,PestD,0,74.8,1.89,1.733,5,0.7,1,1,0.2,17,6.5,45,100,"Masters et al 2008, rainfall sim",cowpea,spreading,25,40,c:/Projects/P2R/primary/RegionsRC9/Met/,Sep,wetTropics,0,0,252,140,150,mari_AfCpCpAf_1725-14595_1960_wetTropics_LowKS_Sep
mari,1725-14595,1960,Af,LowKS,ct,Bp,irr1,BpCpCpAf,Cp,Cp,FertCp,TillBp,cover,split,early,PestD,0,81.4,1.89,1.733,5,0.7,1,1,0.2,17,6.5,45,100,"Masters et al 2008, rainfall sim",cowpea,spreading,25,40,c:/Projects/P2R/primary/RegionsRC9/Met/,Jun,wetTropics,0,0,252,140,150,mari_BpCpCpAf_1725-14595_1960_wetTropics_LowKS_Jun
mari,1725-14595,1960,Af,LowKS,cp,Cp,irr1,CpCpCpAf,Cp,Cp,FertCp,TillCp,bare,split,early,PestD,0,88,1.8,1.65,5,0.7,1,1,0.2,17,6.5,45,100,"Masters et al 2008, rainfall sim",cowpea,spreading,25,40,c:/Projects/P2R/primary/RegionsRC9/Met/,Jul,wetTropics,0,0,252,140,150,mari_CpCpCpAf_1725-14595_1960_wetTropics_LowKS_Jul
mari,1725-14595,1960,Af,LowKS,cp,Cp,irr1,CpCpCpAf,Cp,Cp,FertCp,TillCp,bare,split,early,PestD,0,88,1.8,1.65,5,0.7,1,1,0.2,17,6.5,45,100,"Masters et al 2008, rainfall sim",cowpea,spreading,25,40,c:/Projects/P2R/primary/RegionsRC9/Met/,Aug,wetTropics,0,0,252,140,150,mari_CpCpCpAf_1725-14595_1960_wetTropics_LowKS_Aug
mari,1725-14595,1960,Af,LowKS,cp,Cp,irr1,CpCpCpAf,Cp,Cp,FertCp,TillCp,bare,split,early,PestD,0,88,1.8,1.65,5,0.7,1,1,0.2,17,6.5,45,100,"Masters et al 2008, rainfall sim",cowpea,spreading,25,40,c:/Projects/P2R/primary/RegionsRC9/Met/,Sep,wetTropics,0,0,252,140,150,mari_CpCpCpAf_1725-14595_1960_wetTropics_LowKS_Sep
mari,1725-14595,1960,Af,HighKS,ct,Bp,irr1,BpCpCpAf,Cp,Cp,FertCp,TillBp,cover,split,early,PestD,0,81.4,1.89,1.733,100,0.7,1,1,0.2,17,6.5,45,100,"Masters et al 2008, rainfall sim",cowpea,spreading,25,40,c:/Projects/P2R/primary/RegionsRC9/Met/,Jul,wetTropics,0,0,252,140,150,mari_BpCpCpAf_1725-14595_1960_wetTropics_HighKS_Jul
mari,1725-14595,1960,Af,LowKS,cp,D,irr1,DfCpCpAf,Cp,Cp,FertCp,TillD,bare,split,early,PestD,1,88,1.8,1.65,5,0.7,1,1,0.2,17,6.5,45,100,"Masters et al 2008, rainfall sim",cowpea,spreading,25,40,c:/Projects/P2R/primary/RegionsRC9/Met/,Jul,wetTropics,0,0,252,140,150,mari_DfCpCpAf_1725-14595_1960_wetTropics_LowKS_Jul
mari,1725-14595,1960,Af,LowKS,cp,PORP,irr1,PoCpCpAf,Cp,Cp,FertCp,TillPO,PORP,split,early,PestD,0,82.3,1.8,1.65,5,0.7,1,1,0.2,17,6.5,45,100,"Masters et al 2008, rainfall sim",cowpea,spreading,25,40,c:/Projects/P2R/primary/RegionsRC9/Met/,Jul,wetTropics,0,0,252,140,150,mari_PoCpCpAf_1725-14595_1960_wetTropics_LowKS_Jul
mari,1725-14595,1960,Af,LowKS,cp,Cp,irr1,CpCpCpAf,Cp,Cp,FertCp,TillCp,bare,split,early,PestD,0,88,1.8,1.65,5,0.7,1,1,0.2,17,6.5,45,100,"Masters et al 2008, rainfall sim",cowpea,spreading,25,40,c:/Projects/P2R/primary/RegionsRC9/Met/,Jun,wetTropics,0,0,252,140,150,mari_CpCpCpAf_1725-14595_1960_wetTropics_LowKS_Jun
mari,1725-14595,1960,Af,HighKS,cp,D,irr1,DfCpCpAf,Cp,Cp,FertCp,TillD,bare,split,early,PestD,1,88,1.8,1.65,100,0.7,1,1,0.2,17,6.5,45,100,"Masters et al 2008, rainfall sim",cowpea,spreading,25,40,c:/Projects/P2R/primary/RegionsRC9/Met/,Sep,wetTropics,0,0,252,140,150,mari_DfCpCpAf_1725-14595_1960_wetTropics_HighKS_Sep
mari,1725-14595,1960,Af,HighKS,ct,A,irr1,AfCpCpAf,Cp,Cp,FertCp,TillA,grain,split,early,PestD,0,74.8,1.89,1.733,100,0.7,1,1,0.2,17,6.5,45,100,"Masters et al 2008, rainfall sim",cowpea,spreading,25,40,c:/Projects/P2R/primary/RegionsRC9/Met/,Aug,wetTropics,0,0,252,140,150,mari_AfCpCpAf_1725-14595_1960_wetTropics_HighKS_Aug
mari,1725-14595,1960,Af,LowKS,ct,Ap,irr1,ApCpCpAf,Cp,Cp,FertCp,TillAp,cover,split,early,PestD,0,76.5,1.89,1.733,5,0.7,1,1,0.2,17,6.5,45,100,"Masters et al 2008, rainfall sim",cowpea,spreading,25,40,c:/Projects/P2R/primary/RegionsRC9/Met/,Jul,wetTropics,0,0,252,140,150,mari_ApCpCpAf_1725-14595_1960_wetTropics_LowKS_Jul
mari,1725-14595,1960,Af,HighKS,ct,Bp,irr1,BpCpCpAf,Cp,Cp,FertCp,TillBp,cover,split,early,PestD,0,81.4,1.89,1.733,100,0.7,1,1,0.2,17,6.5,45,100,"Masters et al 2008, rainfall sim",cowpea,spreading,25,40,c:/Projects/P2R/primary/RegionsRC9/Met/,Aug,wetTropics,0,0,252,140,150,mari_BpCpCpAf_1725-14595_1960_wetTropics_HighKS_Aug
mari,1725-14595,1960,Af,HighKS,ct,B,irr1,BfCpCpAf,Cp,Cp,FertCp,TillB,cover,split,early,PestD,0,79.1,1.89,1.733,100,0.7,1,1,0.2,17,6.5,45,100,"Masters et al 2008, rainfall sim",cowpea,spreading,25,40,c:/Projects/P2R/primary/RegionsRC9/Met/,Jun,wetTropics,0,0,252,140,150,mari_BfCpCpAf_1725-14595_1960_wetTropics_HighKS_Jun
mari,1725-14595,1960,Af,LowKS,cp,PORP,irr1,PoCpCpAf,Cp,Cp,FertCp,TillPO,PORP,split,early,PestD,0,82.3,1.8,1.65,5,0.7,1,1,0.2,17,6.5,45,100,"Masters et al 2008, rainfall sim",cowpea,spreading,25,40,c:/Projects/P2R/primary/RegionsRC9/Met/,Aug,wetTropics,0,0,252,140,150,mari_PoCpCpAf_1725-14595_1960_wetTropics_LowKS_Aug
mari,1725-14595,1960,Af,LowKS,ct,B,irr1,BfCpCpAf,Cp,Cp,FertCp,TillB,cover,split,early,PestD,0,79.1,1.89,1.733,5,0.7,1,1,0.2,17,6.5,45,100,"Masters et al 2008, rainfall sim",cowpea,spreading,25,40,c:/Projects/P2R/primary/RegionsRC9/Met/,Jul,wetTropics,0,0,252,140,150,mari_BfCpCpAf_1725-14595_1960_wetTropics_LowKS_Jul
mari,1725-14595,1960,Af,LowKS,cp,D,irr1,DfCpCpAf,Cp,Cp,FertCp,TillD,bare,split,early,PestD,1,88,1.8,1.65,5,0.7,1,1,0.2,17,6.5,45,100,"Masters et al 2008, rainfall sim",cowpea,spreading,25,40,c:/Projects/P2R/primary/RegionsRC9/Met/,Sep,wetTropics,0,0,252,140,150,mari_DfCpCpAf_1725-14595_1960_wetTropics_LowKS_Sep
mari,1725-14595,1960,Af,HighKS,ct,B,irr1,BfCpCpAf,Cp,Cp,FertCp,TillB,cover,split,early,PestD,0,79.1,1.89,1.733,100,0.7,1,1,0.2,17,6.5,45,100,"Masters et al 2008, rainfall sim",cowpea,spreading,25,40,c:/Projects/P2R/primary/RegionsRC9/Met/,Aug,wetTropics,0,0,252,140,150,mari_BfCpCpAf_1725-14595_1960_wetTropics_HighKS_Aug
mari,1725-14595,1960,Af,HighKS,ct,B,irr1,BfCpCpAf,Cp,Cp,FertCp,TillB,cover,split,early,PestD,0,79.1,1.89,1.733,100,0.7,1,1,0.2,17,6.5,45,100,"Masters et al 2008, rainfall sim",cowpea,spreading,25,40,c:/Projects/P2R/primary/RegionsRC9/Met/,Sep,wetTropics,0,0,252,140,150,mari_BfCpCpAf_1725-14595_1960_wetTropics_HighKS_Sep
mari,1725-14595,1960,Af,HighKS,ct,Bp,irr1,BpCpCpAf,Cp,Cp,FertCp,TillBp,cover,split,early,PestD,0,81.4,1.89,1.733,100,0.7,1,1,0.2,17,6.5,45,100,"Masters et al 2008, rainfall sim",cowpea,spreading,25,40,c:/Projects/P2R/primary/RegionsRC9/Met/,Jun,wetTropics,0,0,252,140,150,mari_BpCpCpAf_1725-14595_1960_wetTropics_HighKS_Jun
mari,1725-14595,1960,Af,LowKS,ct,Bp,irr1,BpCpCpAf,Cp,Cp,FertCp,TillBp,cover,split,early,PestD,0,81.4,1.89,1.733,5,0.7,1,1,0.2,17,6.5,45,100,"Masters et al 2008, rainfall sim",cowpea,spreading,25,40,c:/Projects/P2R/primary/RegionsRC9/Met/,Aug,wetTropics,0,0,252,140,150,mari_BpCpCpAf_1725-14595_1960_wetTropics_LowKS_Aug
mari,1725-14595,1960,Af,HighKS,ct,C,irr1,CfCpCpAf,Cp,Cp,FertCp,TillC,cover,split,early,PestD,0,82.3,1.89,1.733,100,0.7,1,1,0.2,17,6.5,45,100,"Masters et al 2008, rainfall sim",cowpea,spreading,25,40,c:/Projects/P2R/primary/RegionsRC9/Met/,Jul,wetTropics,0,0,252,140,150,mari_CfCpCpAf_1725-14595_1960_wetTropics_HighKS_Jul
mari,1725-14595,1960,Af,HighKS,ct,Ap,irr1,ApCpCpAf,Cp,Cp,FertCp,TillAp,cover,split,early,PestD,0,76.5,1.89,1.733,100,0.7,1,1,0.2,17,6.5,45,100,"Masters et al 2008, rainfall sim",cowpea,spreading,25,40,c:/Projects/P2R/primary/RegionsRC9/Met/,Jun,wetTropics,0,0,252,140,150,mari_ApCpCpAf_1725-14595_1960_wetTropics_HighKS_Jun
mari,1725-14595,1960,Af,HighKS,cp,Cp,irr1,CpCpCpAf,Cp,Cp,FertCp,TillCp,bare,split,early,PestD,0,88,1.8,1.65,100,0.7,1,1,0.2,17,6.5,45,100,"Masters et al 2008, rainfall sim",cowpea,spreading,25,40,c:/Projects/P2R/primary/RegionsRC9/Met/,Jul,wetTropics,0,0,252,140,150,mari_CpCpCpAf_1725-14595_1960_wetTropics_HighKS_Jul
mari,1725-14595,1960,Af,LowKS,ct,A,irr1,AfCpCpAf,Cp,Cp,FertCp,TillA,grain,split,early,PestD,0,74.8,1.89,1.733,5,0.7,1,1,0.2,17,6.5,45,100,"Masters et al 2008, rainfall sim",cowpea,spreading,25,40,c:/Projects/P2R/primary/RegionsRC9/Met/,Jul,wetTropics,0,0,252,140,150,mari_AfCpCpAf_1725-14595_1960_wetTropics_LowKS_Jul
mari,1725-14595,1960,Af,LowKS,ct,C,irr1,CfCpCpAf,Cp,Cp,FertCp,TillC,cover,split,early,PestD,0,82.3,1.89,1.733,5,0.7,1,1,0.2,17,6.5,45,100,"Masters et al 2008, rainfall sim",cowpea,spreading,25,40,c:/Projects/P2R/primary/RegionsRC9/Met/,Jul,wetTropics,0,0,252,140,150,mari_CfCpCpAf_1725-14595_1960_wetTropics_LowKS_Jul
mari,1725-14595,1960,Af,HighKS,cp,D,irr1,DfCpCpAf,Cp,Cp,FertCp,TillD,bare,split,early,PestD,1,88,1.8,1.65,100,0.7,1,1,0.2,17,6.5,45,100,"Masters et al 2008, rainfall sim",cowpea,spreading,25,40,c:/Projects/P2R/primary/RegionsRC9/Met/,Jun,wetTropics,0,0,252,140,150,mari_DfCpCpAf_1725-14595_1960_wetTropics_HighKS_Jun
mari,1725-14595,1960,Af,LowKS,ct,B,irr1,BfCpCpAf,Cp,Cp,FertCp,TillB,cover,split,early,PestD,0,79.1,1.89,1.733,5,0.7,1,1,0.2,17,6.5,45,100,"Masters et al 2008, rainfall sim",cowpea,spreading,25,40,c:/Projects/P2R/primary/RegionsRC9/Met/,Aug,wetTropics,0,0,252,140,150,mari_BfCpCpAf_1725-14595_1960_wetTropics_LowKS_Aug
mari,1725-14595,1960,Af,HighKS,ct,C,irr1,CfCpCpAf,Cp,Cp,FertCp,TillC,cover,split,early,PestD,0,82.3,1.89,1.733,100,0.7,1,1,0.2,17,6.5,45,100,"Masters et al 2008, rainfall sim",cowpea,spreading,25,40,c:/Projects/P2R/primary/RegionsRC9/Met/,Aug,wetTropics,0,0,252,140,150,mari_CfCpCpAf_1725-14595_1960_wetTropics_HighKS_Aug
mari,1725-14595,1960,Af,LowKS,ct,C,irr1,CfCpCpAf,Cp,Cp,FertCp,TillC,cover,split,early,PestD,0,82.3,1.89,1.733,5,0.7,1,1,0.2,17,6.5,45,100,"Masters et al 2008, rainfall sim",cowpea,spreading,25,40,c:/Projects/P2R/primary/RegionsRC9/Met/,Aug,wetTropics,0,0,252,140,150,mari_CfCpCpAf_1725-14595_1960_wetTropics_LowKS_Aug
mari,1725-14595,1960,Af,LowKS,ct,B,irr1,BfCpCpAf,Cp,Cp,FertCp,TillB,cover,split,early,PestD,0,79.1,1.89,1.733,5,0.7,1,1,0.2,17,6.5,45,100,"Masters et al 2008, rainfall sim",cowpea,spreading,25,40,c:/Projects/P2R/primary/RegionsRC9/Met/,Sep,wetTropics,0,0,252,140,150,mari_BfCpCpAf_1725-14595_1960_wetTropics_LowKS_Sep
mari,1725-14595,1960,Af,HighKS,ct,C,irr1,CfCpCpAf,Cp,Cp,FertCp,TillC,cover,split,early,PestD,0,82.3,1.89,1.733,100,0.7,1,1,0.2,17,6.5,45,100,"Masters et al 2008, rainfall sim",cowpea,spreading,25,40,c:/Projects/P2R/primary/RegionsRC9/Met/,Jun,wetTropics,0,0,252,140,150,mari_CfCpCpAf_1725-14595_1960_wetTropics_HighKS_Jun
mari,1725-14595,1960,Af,HighKS,ct,A,irr1,AfCpCpAf,Cp,Cp,FertCp,TillA,grain,split,early,PestD,0,74.8,1.89,1.733,100,0.7,1,1,0.2,17,6.5,45,100,"Masters et al 2008, rainfall sim",cowpea,spreading,25,40,c:/Projects/P2R/primary/RegionsRC9/Met/,Jun,wetTropics,0,0,252,140,150,mari_AfCpCpAf_1725-14595_1960_wetTropics_HighKS_Jun
mari,1725-14595,1960,Af,LowKS,ct,Bp,irr1,BpCpCpAf,Cp,Cp,FertCp,TillBp,cover,split,early,PestD,0,81.4,1.89,1.733,5,0.7,1,1,0.2,17,6.5,45,100,"Masters et al 2008, rainfall sim",cowpea,spreading,25,40,c:/Projects/P2R/primary/RegionsRC9/Met/,Jul,wetTropics,0,0,252,140,150,mari_BpCpCpAf_1725-14595_1960_wetTropics_LowKS_Jul
mari,1725-14595,1960,Af,LowKS,ct,C,irr1,CfCpCpAf,Cp,Cp,FertCp,TillC,cover,split,early,PestD,0,82.3,1.89,1.733,5,0.7,1,1,0.2,17,6.5,45,100,"Masters et al 2008, rainfall sim",cowpea,spreading,25,40,c:/Projects/P2R/primary/RegionsRC9/Met/,Sep,wetTropics,0,0,252,140,150,mari_CfCpCpAf_1725-14595_1960_wetTropics_LowKS_Sep
mari,1725-14595,1960,Af,LowKS,ct,Ap,irr1,ApCpCpAf,Cp,Cp,FertCp,TillAp,cover,split,early,PestD,0,76.5,1.89,1.733,5,0.7,1,1,0.2,17,6.5,45,100,"Masters et al 2008, rainfall sim",cowpea,spreading,25,40,c:/Projects/P2R/primary/RegionsRC9/Met/,Sep,wetTropics,0,0,252,140,150,mari_ApCpCpAf_1725-14595_1960_wetTropics_LowKS_Sep
mari,1725-14595,1960,Af,LowKS,ct,A,irr1,AfCpCpAf,Cp,Cp,FertCp,TillA,grain,split,early,PestD,0,74.8,1.89,1.733,5,0.7,1,1,0.2,17,6.5,45,100,"Masters et al 2008, rainfall sim",cowpea,spreading,25,40,c:/Projects/P2R/primary/RegionsRC9/Met/,Jun,wetTropics,0,0,252,140,150,mari_AfCpCpAf_1725-14595_1960_wetTropics_LowKS_Jun
mari,1725-14595,1960,Af,HighKS,ct,Ap,irr1,ApCpCpAf,Cp,Cp,FertCp,TillAp,cover,split,early,PestD,0,76.5,1.89,1.733,100,0.7,1,1,0.2,17,6.5,45,100,"Masters et al 2008, rainfall sim",cowpea,spreading,25,40,c:/Projects/P2R/primary/RegionsRC9/Met/,Jul,wetTropics,0,0,252,140,150,mari_ApCpCpAf_1725-14595_1960_wetTropics_HighKS_Jul
mari,1725-14595,1960,Af,HighKS,ct,Ap,irr1,ApCpCpAf,Cp,Cp,FertCp,TillAp,cover,split,early,PestD,0,76.5,1.89,1.733,100,0.7,1,1,0.2,17,6.5,45,100,"Masters et al 2008, rainfall sim",cowpea,spreading,25,40,c:/Projects/P2R/primary/RegionsRC9/Met/,Aug,wetTropics,0,0,252,140,150,mari_ApCpCpAf_1725-14595_1960_wetTropics_HighKS_Aug
mari,1725-14595,1960,Af,HighKS,cp,Cp,irr1,CpCpCpAf,Cp,Cp,FertCp,TillCp,bare,split,early,PestD,0,88,1.8,1.65,100,0.7,1,1,0.2,17,6.5,45,100,"Masters et al 2008, rainfall sim",cowpea,spreading,25,40,c:/Projects/P2R/primary/RegionsRC9/Met/,Aug,wetTropics,0,0,252,140,150,mari_CpCpCpAf_1725-14595_1960_wetTropics_HighKS_Aug
mari,1725-14595,1960,Af,HighKS,cp,D,irr1,DfCpCpAf,Cp,Cp,FertCp,TillD,bare,split,early,PestD,1,88,1.8,1.65,100,0.7,1,1,0.2,17,6.5,45,100,"Masters et al 2008, rainfall sim",cowpea,spreading,25,40,c:/Projects/P2R/primary/RegionsRC9/Met/,Jul,wetTropics,0,0,252,140,150,mari_DfCpCpAf_1725-14595_1960_wetTropics_HighKS_Jul
mari,1725-14595,1960,Af,LowKS,ct,Bp,irr1,BpCpCpAf,Cp,Cp,FertCp,TillBp,cover,split,early,PestD,0,81.4,1.89,1.733,5,0.7,1,1,0.2,17,6.5,45,100,"Masters et al 2008, rainfall sim",cowpea,spreading,25,40,c:/Projects/P2R/primary/RegionsRC9/Met/,Sep,wetTropics,0,0,252,140,150,mari_BpCpCpAf_1725-14595_1960_wetTropics_LowKS_Sep
mari,1725-14595,1960,Af,LowKS,cp,PORP,irr1,PoCpCpAf,Cp,Cp,FertCp,TillPO,PORP,split,early,PestD,0,82.3,1.8,1.65,5,0.7,1,1,0.2,17,6.5,45,100,"Masters et al 2008, rainfall sim",cowpea,spreading,25,40,c:/Projects/P2R/primary/RegionsRC9/Met/,Sep,wetTropics,0,0,252,140,150,mari_PoCpCpAf_1725-14595_1960_wetTropics_LowKS_Sep
mari,1725-14595,1960,Af,HighKS,cp,D,irr1,DfCpCpAf,Cp,Cp,FertCp,TillD,bare,split,early,PestD,1,88,1.8,1.65,100,0.7,1,1,0.2,17,6.5,45,100,"Masters et al 2008, rainfall sim",cowpea,spreading,25,40,c:/Projects/P2R/primary/RegionsRC9/Met/,Aug,wetTropics,0,0,252,140,150,mari_DfCpCpAf_1725-14595_1960_wetTropics_HighKS_Aug
mari,1725-14595,1960,Af,HighKS,cp,PORP,irr1,PoCpCpAf,Cp,Cp,FertCp,TillPO,PORP,split,early,PestD,0,82.3,1.8,1.65,100,0.7,1,1,0.2,17,6.5,45,100,"Masters et al 2008, rainfall sim",cowpea,spreading,25,40,c:/Projects/P2R/primary/RegionsRC9/Met/,Aug,wetTropics,0,0,252,140,150,mari_PoCpCpAf_1725-14595_1960_wetTropics_HighKS_Aug
mari,1725-14595,1960,Af,HighKS,ct,A,irr1,AfCpCpAf,Cp,Cp,FertCp,TillA,grain,split,early,PestD,0,74.8,1.89,1.733,100,0.7,1,1,0.2,17,6.5,45,100,"Masters et al 2008, rainfall sim",cowpea,spreading,25,40,c:/Projects/P2R/primary/RegionsRC9/Met/,Jul,wetTropics,0,0,252,140,150,mari_AfCpCpAf_1725-14595_1960_wetTropics_HighKS_Jul
mari,1725-14595,1960,Af,HighKS,cp,Cp,irr1,CpCpCpAf,Cp,Cp,FertCp,TillCp,bare,split,early,PestD,0,88,1.8,1.65,100,0.7,1,1,0.2,17,6.5,45,100,"Masters et al 2008, rainfall sim",cowpea,spreading,25,40,c:/Projects/P2R/primary/RegionsRC9/Met/,Sep,wetTropics,0,0,252,140,150,mari_CpCpCpAf_1725-14595_1960_wetTropics_HighKS_Sep
mari,1725-14595,1960,Af,HighKS,ct,C,irr1,CfCpCpAf,Cp,Cp,FertCp,TillC,cover,split,early,PestD,0,82.3,1.89,1.733,100,0.7,1,1,0.2,17,6.5,45,100,"Masters et al 2008, rainfall sim",cowpea,spreading,25,40,c:/Projects/P2R/primary/RegionsRC9/Met/,Sep,wetTropics,0,0,252,140,150,mari_CfCpCpAf_1725-14595_1960_wetTropics_HighKS_Sep
mari,1725-14595,1960,Af,HighKS,ct,Ap,irr1,ApCpCpAf,Cp,Cp,FertCp,TillAp,cover,split,early,PestD,0,76.5,1.89,1.733,100,0.7,1,1,0.2,17,6.5,45,100,"Masters et al 2008, rainfall sim",cowpea,spreading,25,40,c:/Projects/P2R/primary/RegionsRC9/Met/,Sep,wetTropics,0,0,252,140,150,mari_ApCpCpAf_1725-14595_1960_wetTropics_HighKS_Sep
mari,1725-14595,1960,Af,LowKS,ct,Ap,irr1,ApCpCpAf,Cp,Cp,FertCp,TillAp,cover,split,early,PestD,0,76.5,1.89,1.733,5,0.7,1,1,0.2,17,6.5,45,100,"Masters et al 2008, rainfall sim",cowpea,spreading,25,40,c:/Projects/P2R/primary/RegionsRC9/Met/,Aug,wetTropics,0,0,252,140,150,mari_ApCpCpAf_1725-14595_1960_wetTropics_LowKS_Aug
mari,1725-14595,1960,Af,HighKS,cp,PORP,irr1,PoCpCpAf,Cp,Cp,FertCp,TillPO,PORP,split,early,PestD,0,82.3,1.8,1.65,100,0.7,1,1,0.2,17,6.5,45,100,"Masters et al 2008, rainfall sim",cowpea,spreading,25,40,c:/Projects/P2R/primary/RegionsRC9/Met/,Jul,wetTropics,0,0,252,140,150,mari_PoCpCpAf_1725-14595_1960_wetTropics_HighKS_Jul
mari,1725-14595,1960,Af,HighKS,ct,Bp,irr1,BpCpCpAf,Cp,Cp,FertCp,TillBp,cover,split,early,PestD,0,81.4,1.89,1.733,100,0.7,1,1,0.2,17,6.5,45,100,"Masters et al 2008, rainfall sim",cowpea,spreading,25,40,c:/Projects/P2R/primary/RegionsRC9/Met/,Sep,wetTropics,0,0,252,140,150,mari_BpCpCpAf_1725-14595_1960_wetTropics_HighKS_Sep
mari,1725-14595,1960,Bf,LowKS,ct,B,irr1,BfCpCpBf,Cp,Cp,FertCp,TillB,cover,split,early,PestD,0,79.1,1.89,1.733,5,0.7,1,1,0.2,17,6.5,45,100,"Masters et al 2008, rainfall sim",cowpea,spreading,25,40,c:/Projects/P2R/primary/RegionsRC9/Met/,Jun,wetTropics,0,17500,252,140,150,mari_BfCpCpBf_1725-14595_1960_wetTropics_LowKS_Jun
mari,1725-14595,1960,Bf,LowKS,ct,Ap,irr1,ApCpCpBf,Cp,Cp,FertCp,TillAp,cover,split,early,PestD,0,76.5,1.89,1.733,5,0.7,1,1,0.2,17,6.5,45,100,"Masters et al 2008, rainfall sim",cowpea,spreading,25,40,c:/Projects/P2R/primary/RegionsRC9/Met/,Jun,wetTropics,0,17500,252,140,150,mari_ApCpCpBf_1725-14595_1960_wetTropics_LowKS_Jun
mari,1725-14595,1960,Bf,LowKS,cp,D,irr1,DfCpCpBf,Cp,Cp,FertCp,TillD,bare,split,early,PestD,1,88,1.8,1.65,5,0.7,1,1,0.2,17,6.5,45,100,"Masters et al 2008, rainfall sim",cowpea,spreading,25,40,c:/Projects/P2R/primary/RegionsRC9/Met/,Jun,wetTropics,0,17500,252,140,150,mari_DfCpCpBf_1725-14595_1960_wetTropics_LowKS_Jun
mari,1725-14595,1960,Bf,LowKS,ct,Ap,irr1,ApCpCpBf,Cp,Cp,FertCp,TillAp,cover,split,early,PestD,0,76.5,1.89,1.733,5,0.7,1,1,0.2,17,6.5,45,100,"Masters et al 2008, rainfall sim",cowpea,spreading,25,40,c:/Projects/P2R/primary/RegionsRC9/Met/,Sep,wetTropics,0,17500,252,140,150,mari_ApCpCpBf_1725-14595_1960_wetTropics_LowKS_Sep
mari,1725-14595,1960,Bf,LowKS,cp,D,irr1,DfCpCpBf,Cp,Cp,FertCp,TillD,bare,split,early,PestD,1,88,1.8,1.65,5,0.7,1,1,0.2,17,6.5,45,100,"Masters et al 2008, rainfall sim",cowpea,spreading,25,40,c:/Projects/P2R/primary/RegionsRC9/Met/,Sep,wetTropics,0,17500,252,140,150,mari_DfCpCpBf_1725-14595_1960_wetTropics_LowKS_Sep
mari,1725-14595,1960,Bf,LowKS,ct,Bp,irr1,BpCpCpBf,Cp,Cp,FertCp,TillBp,cover,split,early,PestD,0,81.4,1.89,1.733,5,0.7,1,1,0.2,17,6.5,45,100,"Masters et al 2008, rainfall sim",cowpea,spreading,25,40,c:/Projects/P2R/primary/RegionsRC9/Met/,Jun,wetTropics,0,17500,252,140,150,mari_BpCpCpBf_1725-14595_1960_wetTropics_LowKS_Jun
mari,1725-14595,1960,Bf,HighKS,ct,B,irr1,BfCpCpBf,Cp,Cp,FertCp,TillB,cover,split,early,PestD,0,79.1,1.89,1.733,100,0.7,1,1,0.2,17,6.5,45,100,"Masters et al 2008, rainfall sim",cowpea,spreading,25,40,c:/Projects/P2R/primary/RegionsRC9/Met/,Aug,wetTropics,0,17500,252,140,150,mari_BfCpCpBf_1725-14595_1960_wetTropics_HighKS_Aug
mari,1725-14595,1960,Bf,LowKS,ct,Ap,irr1,ApCpCpBf,Cp,Cp,FertCp,TillAp,cover,split,early,PestD,0,76.5,1.89,1.733,5,0.7,1,1,0.2,17,6.5,45,100,"Masters et al 2008, rainfall sim",cowpea,spreading,25,40,c:/Projects/P2R/primary/RegionsRC9/Met/,Aug,wetTropics,0,17500,252,140,150,mari_ApCpCpBf_1725-14595_1960_wetTropics_LowKS_Aug
mari,1725-14595,1960,Bf,LowKS,cp,D,irr1,DfCpCpBf,Cp,Cp,FertCp,TillD,bare,split,early,PestD,1,88,1.8,1.65,5,0.7,1,1,0.2,17,6.5,45,100,"Masters et al 2008, rainfall sim",cowpea,spreading,25,40,c:/Projects/P2R/primary/RegionsRC9/Met/,Aug,wetTropics,0,17500,252,140,150,mari_DfCpCpBf_1725-14595_1960_wetTropics_LowKS_Aug
mari,1725-14595,1960,Bf,HighKS,cp,PORP,irr1,PoCpCpBf,Cp,Cp,FertCp,TillPO,PORP,split,early,PestD,0,82.3,1.8,1.65,100,0.7,1,1,0.2,17,6.5,45,100,"Masters et al 2008, rainfall sim",cowpea,spreading,25,40,c:/Projects/P2R/primary/RegionsRC9/Met/,Aug,wetTropics,0,17500,252,140,150,mari_PoCpCpBf_1725-14595_1960_wetTropics_HighKS_Aug
mari,1725-14595,1960,Bf,HighKS,ct,B,irr1,BfCpCpBf,Cp,Cp,FertCp,TillB,cover,split,early,PestD,0,79.1,1.89,1.733,100,0.7,1,1,0.2,17,6.5,45,100,"Masters et al 2008, rainfall sim",cowpea,spreading,25,40,c:/Projects/P2R/primary/RegionsRC9/Met/,Jun,wetTropics,0,17500,252,140,150,mari_BfCpCpBf_1725-14595_1960_wetTropics_HighKS_Jun
mari,1725-14595,1960,Bf,HighKS,ct,B,irr1,BfCpCpBf,Cp,Cp,FertCp,TillB,cover,split,early,PestD,0,79.1,1.89,1.733,100,0.7,1,1,0.2,17,6.5,45,100,"Masters et al 2008, rainfall sim",cowpea,spreading,25,40,c:/Projects/P2R/primary/RegionsRC9/Met/,Jul,wetTropics,0,17500,252,140,150,mari_BfCpCpBf_1725-14595_1960_wetTropics_HighKS_Jul
mari,1725-14595,1960,Bf,LowKS,ct,C,irr1,CfCpCpBf,Cp,Cp,FertCp,TillC,cover,split,early,PestD,0,82.3,1.89,1.733,5,0.7,1,1,0.2,17,6.5,45,100,"Masters et al 2008, rainfall sim",cowpea,spreading,25,40,c:/Projects/P2R/primary/RegionsRC9/Met/,Jul,wetTropics,0,17500,252,140,150,mari_CfCpCpBf_1725-14595_1960_wetTropics_LowKS_Jul
mari,1725-14595,1960,Bf,HighKS,ct,C,irr1,CfCpCpBf,Cp,Cp,FertCp,TillC,cover,split,early,PestD,0,82.3,1.89,1.733,100,0.7,1,1,0.2,17,6.5,45,100,"Masters et al 2008, rainfall sim",cowpea,spreading,25,40,c:/Projects/P2R/primary/RegionsRC9/Met/,Jul,wetTropics,0,17500,252,140,150,mari_CfCpCpBf_1725-14595_1960_wetTropics_HighKS_Jul
mari,1725-14595,1960,Bf,HighKS,ct,C,irr1,CfCpCpBf,Cp,Cp,FertCp,TillC,cover,split,early,PestD,0,82.3,1.89,1.733,100,0.7,1,1,0.2,17,6.5,45,100,"Masters et al 2008, rainfall sim",cowpea,spreading,25,40,c:/Projects/P2R/primary/RegionsRC9/Met/,Aug,wetTropics,0,17500,252,140,150,mari_CfCpCpBf_1725-14595_1960_wetTropics_HighKS_Aug
mari,1725-14595,1960,Bf,LowKS,ct,B,irr1,BfCpCpBf,Cp,Cp,FertCp,TillB,cover,split,early,PestD,0,79.1,1.89,1.733,5,0.7,1,1,0.2,17,6.5,45,100,"Masters et al 2008, rainfall sim",cowpea,spreading,25,40,c:/Projects/P2R/primary/RegionsRC9/Met/,Jul,wetTropics,0,17500,252,140,150,mari_BfCpCpBf_1725-14595_1960_wetTropics_LowKS_Jul
mari,1725-14595,1960,Bf,HighKS,ct,Ap,irr1,ApCpCpBf,Cp,Cp,FertCp,TillAp,cover,split,early,PestD,0,76.5,1.89,1.733,100,0.7,1,1,0.2,17,6.5,45,100,"Masters et al 2008, rainfall sim",cowpea,spreading,25,40,c:/Projects/P2R/primary/RegionsRC9/Met/,Jun,wetTropics,0,17500,252,140,150,mari_ApCpCpBf_1725-14595_1960_wetTropics_HighKS_Jun
mari,1725-14595,1960,Bf,LowKS,ct,Ap,irr1,ApCpCpBf,Cp,Cp,FertCp,TillAp,cover,split,early,PestD,0,76.5,1.89,1.733,5,0.7,1,1,0.2,17,6.5,45,100,"Masters et al 2008, rainfall sim",cowpea,spreading,25,40,c:/Projects/P2R/primary/RegionsRC9/Met/,Jul,wetTropics,0,17500,252,140,150,mari_ApCpCpBf_1725-14595_1960_wetTropics_LowKS_Jul
mari,1725-14595,1960,Bf,LowKS,cp,D,irr1,DfCpCpBf,Cp,Cp,FertCp,TillD,bare,split,early,PestD,1,88,1.8,1.65,5,0.7,1,1,0.2,17,6.5,45,100,"Masters et al 2008, rainfall sim",cowpea,spreading,25,40,c:/Projects/P2R/primary/RegionsRC9/Met/,Jul,wetTropics,0,17500,252,140,150,mari_DfCpCpBf_1725-14595_1960_wetTropics_LowKS_Jul
mari,1725-14595,1960,Bf,LowKS,ct,B,irr1,BfCpCpBf,Cp,Cp,FertCp,TillB,cover,split,early,PestD,0,79.1,1.89,1.733,5,0.7,1,1,0.2,17,6.5,45,100,"Masters et al 2008, rainfall sim",cowpea,spreading,25,40,c:/Projects/P2R/primary/RegionsRC9/Met/,Sep,wetTropics,0,17500,252,140,150,mari_BfCpCpBf_1725-14595_1960_wetTropics_LowKS_Sep
mari,1725-14595,1960,Bf,HighKS,cp,Cp,irr1,CpCpCpBf,Cp,Cp,FertCp,TillCp,bare,split,early,PestD,0,88,1.8,1.65,100,0.7,1,1,0.2,17,6.5,45,100,"Masters et al 2008, rainfall sim",cowpea,spreading,25,40,c:/Projects/P2R/primary/RegionsRC9/Met/,Jun,wetTropics,0,17500,252,140,150,mari_CpCpCpBf_1725-14595_1960_wetTropics_HighKS_Jun
mari,1725-14595,1960,Bf,LowKS,ct,Bp,irr1,BpCpCpBf,Cp,Cp,FertCp,TillBp,cover,split,early,PestD,0,81.4,1.89,1.733,5,0.7,1,1,0.2,17,6.5,45,100,"Masters et al 2008, rainfall sim",cowpea,spreading,25,40,c:/Projects/P2R/primary/RegionsRC9/Met/,Jul,wetTropics,0,17500,252,140,150,mari_BpCpCpBf_1725-14595_1960_wetTropics_LowKS_Jul
mari,1725-14595,1960,Bf,LowKS,ct,A,irr1,AfCpCpBf,Cp,Cp,FertCp,TillA,grain,split,early,PestD,0,74.8,1.89,1.733,5,0.7,1,1,0.2,17,6.5,45,100,"Masters et al 2008, rainfall sim",cowpea,spreading,25,40,c:/Projects/P2R/primary/RegionsRC9/Met/,Jun,wetTropics,0,17500,252,140,150,mari_AfCpCpBf_1725-14595_1960_wetTropics_LowKS_Jun
mari,1725-14595,1960,Bf,LowKS,ct,C,irr1,CfCpCpBf,Cp,Cp,FertCp,TillC,cover,split,early,PestD,0,82.3,1.89,1.733,5,0.7,1,1,0.2,17,6.5,45,100,"Masters et al 2008, rainfall sim",cowpea,spreading,25,40,c:/Projects/P2R/primary/RegionsRC9/Met/,Jun,wetTropics,0,17500,252,140,150,mari_CfCpCpBf_1725-14595_1960_wetTropics_LowKS_Jun
mari,1725-14595,1960,Bf,HighKS,ct,B,irr1,BfCpCpBf,Cp,Cp,FertCp,TillB,cover,split,early,PestD,0,79.1,1.89,1.733,100,0.7,1,1,0.2,17,6.5,45,100,"Masters et al 2008, rainfall sim",cowpea,spreading,25,40,c:/Projects/P2R/primary/RegionsRC9/Met/,Sep,wetTropics,0,17500,252,140,150,mari_BfCpCpBf_1725-14595_1960_wetTropics_HighKS_Sep
mari,1725-14595,1960,Bf,HighKS,ct,Bp,irr1,BpCpCpBf,Cp,Cp,FertCp,TillBp,cover,split,early,PestD,0,81.4,1.89,1.733,100,0.7,1,1,0.2,17,6.5,45,100,"Masters et al 2008, rainfall sim",cowpea,spreading,25,40,c:/Projects/P2R/primary/RegionsRC9/Met/,Jun,wetTropics,0,17500,252,140,150,mari_BpCpCpBf_1725-14595_1960_wetTropics_HighKS_Jun
mari,1725-14595,1960,Bf,LowKS,cp,Cp,irr1,CpCpCpBf,Cp,Cp,FertCp,TillCp,bare,split,early,PestD,0,88,1.8,1.65,5,0.7,1,1,0.2,17,6.5,45,100,"Masters et al 2008, rainfall sim",cowpea,spreading,25,40,c:/Projects/P2R/primary/RegionsRC9/Met/,Sep,wetTropics,0,17500,252,140,150,mari_CpCpCpBf_1725-14595_1960_wetTropics_LowKS_Sep
mari,1725-14595,1960,Bf,HighKS,ct,A,irr1,AfCpCpBf,Cp,Cp,FertCp,TillA,grain,split,early,PestD,0,74.8,1.89,1.733,100,0.7,1,1,0.2,17,6.5,45,100,"Masters et al 2008, rainfall sim",cowpea,spreading,25,40,c:/Projects/P2R/primary/RegionsRC9/Met/,Jun,wetTropics,0,17500,252,140,150,mari_AfCpCpBf_1725-14595_1960_wetTropics_HighKS_Jun
mari,1725-14595,1960,Bf,HighKS,cp,D,irr1,DfCpCpBf,Cp,Cp,FertCp,TillD,bare,split,early,PestD,1,88,1.8,1.65,100,0.7,1,1,0.2,17,6.5,45,100,"Masters et al 2008, rainfall sim",cowpea,spreading,25,40,c:/Projects/P2R/primary/RegionsRC9/Met/,Jun,wetTropics,0,17500,252,140,150,mari_DfCpCpBf_1725-14595_1960_wetTropics_HighKS_Jun
mari,1725-14595,1960,Bf,HighKS,ct,C,irr1,CfCpCpBf,Cp,Cp,FertCp,TillC,cover,split,early,PestD,0,82.3,1.89,1.733,100,0.7,1,1,0.2,17,6.5,45,100,"Masters et al 2008, rainfall sim",cowpea,spreading,25,40,c:/Projects/P2R/primary/RegionsRC9/Met/,Jun,wetTropics,0,17500,252,140,150,mari_CfCpCpBf_1725-14595_1960_wetTropics_HighKS_Jun
mari,1725-14595,1960,Bf,HighKS,ct,A,irr1,AfCpCpBf,Cp,Cp,FertCp,TillA,grain,split,early,PestD,0,74.8,1.89,1.733,100,0.7,1,1,0.2,17,6.5,45,100,"Masters et al 2008, rainfall sim",cowpea,spreading,25,40,c:/Projects/P2R/primary/RegionsRC9/Met/,Jul,wetTropics,0,17500,252,140,150,mari_AfCpCpBf_1725-14595_1960_wetTropics_HighKS_Jul
mari,1725-14595,1960,Bf,LowKS,cp,PORP,irr1,PoCpCpBf,Cp,Cp,FertCp,TillPO,PORP,split,early,PestD,0,82.3,1.8,1.65,5,0.7,1,1,0.2,17,6.5,45,100,"Masters et al 2008, rainfall sim",cowpea,spreading,25,40,c:/Projects/P2R/primary/RegionsRC9/Met/,Sep,wetTropics,0,17500,252,140,150,mari_PoCpCpBf_1725-14595_1960_wetTropics_LowKS_Sep
mari,1725-14595,1960,Bf,LowKS,ct,B,irr1,BfCpCpBf,Cp,Cp,FertCp,TillB,cover,split,early,PestD,0,79.1,1.89,1.733,5,0.7,1,1,0.2,17,6.5,45,100,"Masters et al 2008, rainfall sim",cowpea,spreading,25,40,c:/Projects/P2R/primary/RegionsRC9/Met/,Aug,wetTropics,0,17500,252,140,150,mari_BfCpCpBf_1725-14595_1960_wetTropics_LowKS_Aug
mari,1725-14595,1960,Bf,LowKS,ct,C,irr1,CfCpCpBf,Cp,Cp,FertCp,TillC,cover,split,early,PestD,0,82.3,1.89,1.733,5,0.7,1,1,0.2,17,6.5,45,100,"Masters et al 2008, rainfall sim",cowpea,spreading,25,40,c:/Projects/P2R/primary/RegionsRC9/Met/,Sep,wetTropics,0,17500,252,140,150,mari_CfCpCpBf_1725-14595_1960_wetTropics_LowKS_Sep
mari,1725-14595,1960,Bf,HighKS,cp,Cp,irr1,CpCpCpBf,Cp,Cp,FertCp,TillCp,bare,split,early,PestD,0,88,1.8,1.65,100,0.7,1,1,0.2,17,6.5,45,100,"Masters et al 2008, rainfall sim",cowpea,spreading,25,40,c:/Projects/P2R/primary/RegionsRC9/Met/,Jul,wetTropics,0,17500,252,140,150,mari_CpCpCpBf_1725-14595_1960_wetTropics_HighKS_Jul
mari,1725-14595,1960,Bf,HighKS,cp,Cp,irr1,CpCpCpBf,Cp,Cp,FertCp,TillCp,bare,split,early,PestD,0,88,1.8,1.65,100,0.7,1,1,0.2,17,6.5,45,100,"Masters et al 2008, rainfall sim",cowpea,spreading,25,40,c:/Projects/P2R/primary/RegionsRC9/Met/,Aug,wetTropics,0,17500,252,140,150,mari_CpCpCpBf_1725-14595_1960_wetTropics_HighKS_Aug
mari,1725-14595,1960,Bf,LowKS,cp,Cp,irr1,CpCpCpBf,Cp,Cp,FertCp,TillCp,bare,split,early,PestD,0,88,1.8,1.65,5,0.7,1,1,0.2,17,6.5,45,100,"Masters et al 2008, rainfall sim",cowpea,spreading,25,40,c:/Projects/P2R/primary/RegionsRC9/Met/,Jun,wetTropics,0,17500,252,140,150,mari_CpCpCpBf_1725-14595_1960_wetTropics_LowKS_Jun
mari,1725-14595,1960,Bf,HighKS,cp,D,irr1,DfCpCpBf,Cp,Cp,FertCp,TillD,bare,split,early,PestD,1,88,1.8,1.65,100,0.7,1,1,0.2,17,6.5,45,100,"Masters et al 2008, rainfall sim",cowpea,spreading,25,40,c:/Projects/P2R/primary/RegionsRC9/Met/,Aug,wetTropics,0,17500,252,140,150,mari_DfCpCpBf_1725-14595_1960_wetTropics_HighKS_Aug
mari,1725-14595,1960,Bf,HighKS,ct,A,irr1,AfCpCpBf,Cp,Cp,FertCp,TillA,grain,split,early,PestD,0,74.8,1.89,1.733,100,0.7,1,1,0.2,17,6.5,45,100,"Masters et al 2008, rainfall sim",cowpea,spreading,25,40,c:/Projects/P2R/primary/RegionsRC9/Met/,Sep,wetTropics,0,17500,252,140,150,mari_AfCpCpBf_1725-14595_1960_wetTropics_HighKS_Sep
mari,1725-14595,1960,Bf,LowKS,cp,Cp,irr1,CpCpCpBf,Cp,Cp,FertCp,TillCp,bare,split,early,PestD,0,88,1.8,1.65,5,0.7,1,1,0.2,17,6.5,45,100,"Masters et al 2008, rainfall sim",cowpea,spreading,25,40,c:/Projects/P2R/primary/RegionsRC9/Met/,Aug,wetTropics,0,17500,252,140,150,mari_CpCpCpBf_1725-14595_1960_wetTropics_LowKS_Aug
mari,1725-14595,1960,Bf,LowKS,ct,A,irr1,AfCpCpBf,Cp,Cp,FertCp,TillA,grain,split,early,PestD,0,74.8,1.89,1.733,5,0.7,1,1,0.2,17,6.5,45,100,"Masters et al 2008, rainfall sim",cowpea,spreading,25,40,c:/Projects/P2R/primary/RegionsRC9/Met/,Aug,wetTropics,0,17500,252,140,150,mari_AfCpCpBf_1725-14595_1960_wetTropics_LowKS_Aug
mari,1725-14595,1960,Bf,LowKS,ct,C,irr1,CfCpCpBf,Cp,Cp,FertCp,TillC,cover,split,early,PestD,0,82.3,1.89,1.733,5,0.7,1,1,0.2,17,6.5,45,100,"Masters et al 2008, rainfall sim",cowpea,spreading,25,40,c:/Projects/P2R/primary/RegionsRC9/Met/,Aug,wetTropics,0,17500,252,140,150,mari_CfCpCpBf_1725-14595_1960_wetTropics_LowKS_Aug
mari,1725-14595,1960,Bf,HighKS,ct,Bp,irr1,BpCpCpBf,Cp,Cp,FertCp,TillBp,cover,split,early,PestD,0,81.4,1.89,1.733,100,0.7,1,1,0.2,17,6.5,45,100,"Masters et al 2008, rainfall sim",cowpea,spreading,25,40,c:/Projects/P2R/primary/RegionsRC9/Met/,Jul,wetTropics,0,17500,252,140,150,mari_BpCpCpBf_1725-14595_1960_wetTropics_HighKS_Jul
mari,1725-14595,1960,Bf,HighKS,cp,D,irr1,DfCpCpBf,Cp,Cp,FertCp,TillD,bare,split,early,PestD,1,88,1.8,1.65,100,0.7,1,1,0.2,17,6.5,45,100,"Masters et al 2008, rainfall sim",cowpea,spreading,25,40,c:/Projects/P2R/primary/RegionsRC9/Met/,Jul,wetTropics,0,17500,252,140,150,mari_DfCpCpBf_1725-14595_1960_wetTropics_HighKS_Jul
mari,1725-14595,1960,Bf,LowKS,ct,Bp,irr1,BpCpCpBf,Cp,Cp,FertCp,TillBp,cover,split,early,PestD,0,81.4,1.89,1.733,5,0.7,1,1,0.2,17,6.5,45,100,"Masters et al 2008, rainfall sim",cowpea,spreading,25,40,c:/Projects/P2R/primary/RegionsRC9/Met/,Aug,wetTropics,0,17500,252,140,150,mari_BpCpCpBf_1725-14595_1960_wetTropics_LowKS_Aug
mari,1725-14595,1960,Bf,HighKS,ct,A,irr1,AfCpCpBf,Cp,Cp,FertCp,TillA,grain,split,early,PestD,0,74.8,1.89,1.733,100,0.7,1,1,0.2,17,6.5,45,100,"Masters et al 2008, rainfall sim",cowpea,spreading,25,40,c:/Projects/P2R/primary/RegionsRC9/Met/,Aug,wetTropics,0,17500,252,140,150,mari_AfCpCpBf_1725-14595_1960_wetTropics_HighKS_Aug
mari,1725-14595,1960,Bf,LowKS,ct,Bp,irr1,BpCpCpBf,Cp,Cp,FertCp,TillBp,cover,split,early,PestD,0,81.4,1.89,1.733,5,0.7,1,1,0.2,17,6.5,45,100,"Masters et al 2008, rainfall sim",cowpea,spreading,25,40,c:/Projects/P2R/primary/RegionsRC9/Met/,Sep,wetTropics,0,17500,252,140,150,mari_BpCpCpBf_1725-14595_1960_wetTropics_LowKS_Sep
mari,1725-14595,1960,Bf,HighKS,cp,D,irr1,DfCpCpBf,Cp,Cp,FertCp,TillD,bare,split,early,PestD,1,88,1.8,1.65,100,0.7,1,1,0.2,17,6.5,45,100,"Masters et al 2008, rainfall sim",cowpea,spreading,25,40,c:/Projects/P2R/primary/RegionsRC9/Met/,Sep,wetTropics,0,17500,252,140,150,mari_DfCpCpBf_1725-14595_1960_wetTropics_HighKS_Sep
mari,1725-14595,1960,Bf,HighKS,ct,C,irr1,CfCpCpBf,Cp,Cp,FertCp,TillC,cover,split,early,PestD,0,82.3,1.89,1.733,100,0.7,1,1,0.2,17,6.5,45,100,"Masters et al 2008, rainfall sim",cowpea,spreading,25,40,c:/Projects/P2R/primary/RegionsRC9/Met/,Sep,wetTropics,0,17500,252,140,150,mari_CfCpCpBf_1725-14595_1960_wetTropics_HighKS_Sep
mari,1725-14595,1960,Bf,LowKS,cp,Cp,irr1,CpCpCpBf,Cp,Cp,FertCp,TillCp,bare,split,early,PestD,0,88,1.8,1.65,5,0.7,1,1,0.2,17,6.5,45,100,"Masters et al 2008, rainfall sim",cowpea,spreading,25,40,c:/Projects/P2R/primary/RegionsRC9/Met/,Jul,wetTropics,0,17500,252,140,150,mari_CpCpCpBf_1725-14595_1960_wetTropics_LowKS_Jul
mari,1725-14595,1960,Bf,HighKS,ct,Ap,irr1,ApCpCpBf,Cp,Cp,FertCp,TillAp,cover,split,early,PestD,0,76.5,1.89,1.733,100,0.7,1,1,0.2,17,6.5,45,100,"Masters et al 2008, rainfall sim",cowpea,spreading,25,40,c:/Projects/P2R/primary/RegionsRC9/Met/,Sep,wetTropics,0,17500,252,140,150,mari_ApCpCpBf_1725-14595_1960_wetTropics_HighKS_Sep
mari,1725-14595,1960,Bf,HighKS,cp,Cp,irr1,CpCpCpBf,Cp,Cp,FertCp,TillCp,bare,split,early,PestD,0,88,1.8,1.65,100,0.7,1,1,0.2,17,6.5,45,100,"Masters et al 2008, rainfall sim",cowpea,spreading,25,40,c:/Projects/P2R/primary/RegionsRC9/Met/,Sep,wetTropics,0,17500,252,140,150,mari_CpCpCpBf_1725-14595_1960_wetTropics_HighKS_Sep
mari,1725-14595,1960,Bf,LowKS,ct,A,irr1,AfCpCpBf,Cp,Cp,FertCp,TillA,grain,split,early,PestD,0,74.8,1.89,1.733,5,0.7,1,1,0.2,17,6.5,45,100,"Masters et al 2008, rainfall sim",cowpea,spreading,25,40,c:/Projects/P2R/primary/RegionsRC9/Met/,Jul,wetTropics,0,17500,252,140,150,mari_AfCpCpBf_1725-14595_1960_wetTropics_LowKS_Jul
mari,1725-14595,1960,Bf,HighKS,ct,Ap,irr1,ApCpCpBf,Cp,Cp,FertCp,TillAp,cover,split,early,PestD,0,76.5,1.89,1.733,100,0.7,1,1,0.2,17,6.5,45,100,"Masters et al 2008, rainfall sim",cowpea,spreading,25,40,c:/Projects/P2R/primary/RegionsRC9/Met/,Jul,wetTropics,0,17500,252,140,150,mari_ApCpCpBf_1725-14595_1960_wetTropics_HighKS_Jul
mari,1725-14595,1960,Bf,HighKS,cp,PORP,irr1,PoCpCpBf,Cp,Cp,FertCp,TillPO,PORP,split,early,PestD,0,82.3,1.8,1.65,100,0.7,1,1,0.2,17,6.5,45,100,"Masters et al 2008, rainfall sim",cowpea,spreading,25,40,c:/Projects/P2R/primary/RegionsRC9/Met/,Jul,wetTropics,0,17500,252,140,150,mari_PoCpCpBf_1725-14595_1960_wetTropics_HighKS_Jul
mari,1725-14595,1960,Bf,LowKS,ct,A,irr1,AfCpCpBf,Cp,Cp,FertCp,TillA,grain,split,early,PestD,0,74.8,1.89,1.733,5,0.7,1,1,0.2,17,6.5,45,100,"Masters et al 2008, rainfall sim",cowpea,spreading,25,40,c:/Projects/P2R/primary/RegionsRC9/Met/,Sep,wetTropics,0,17500,252,140,150,mari_AfCpCpBf_1725-14595_1960_wetTropics_LowKS_Sep
mari,1725-14595,1960,Bf,LowKS,cp,PORP,irr1,PoCpCpBf,Cp,Cp,FertCp,TillPO,PORP,split,early,PestD,0,82.3,1.8,1.65,5,0.7,1,1,0.2,17,6.5,45,100,"Masters et al 2008, rainfall sim",cowpea,spreading,25,40,c:/Projects/P2R/primary/RegionsRC9/Met/,Jul,wetTropics,0,17500,252,140,150,mari_PoCpCpBf_1725-14595_1960_wetTropics_LowKS_Jul
mari,1725-14595,1960,Bf,HighKS,ct,Bp,irr1,BpCpCpBf,Cp,Cp,FertCp,TillBp,cover,split,early,PestD,0,81.4,1.89,1.733,100,0.7,1,1,0.2,17,6.5,45,100,"Masters et al 2008, rainfall sim",cowpea,spreading,25,40,c:/Projects/P2R/primary/RegionsRC9/Met/,Sep,wetTropics,0,17500,252,140,150,mari_BpCpCpBf_1725-14595_1960_wetTropics_HighKS_Sep
mari,1725-14595,1960,Bf,HighKS,ct,Ap,irr1,ApCpCpBf,Cp,Cp,FertCp,TillAp,cover,split,early,PestD,0,76.5,1.89,1.733,100,0.7,1,1,0.2,17,6.5,45,100,"Masters et al 2008, rainfall sim",cowpea,spreading,25,40,c:/Projects/P2R/primary/RegionsRC9/Met/,Aug,wetTropics,0,17500,252,140,150,mari_ApCpCpBf_1725-14595_1960_wetTropics_HighKS_Aug
mari,1725-14595,1960,Bf,HighKS,ct,Bp,irr1,BpCpCpBf,Cp,Cp,FertCp,TillBp,cover,split,early,PestD,0,81.4,1.89,1.733,100,0.7,1,1,0.2,17,6.5,45,100,"Masters et al 2008, rainfall sim",cowpea,spreading,25,40,c:/Projects/P2R/primary/RegionsRC9/Met/,Aug,wetTropics,0,17500,252,140,150,mari_BpCpCpBf_1725-14595_1960_wetTropics_HighKS_Aug
mari,1725-14595,1960,Bf,LowKS,cp,PORP,irr1,PoCpCpBf,Cp,Cp,FertCp,TillPO,PORP,split,early,PestD,0,82.3,1.8,1.65,5,0.7,1,1,0.2,17,6.5,45,100,"Masters et al 2008, rainfall sim",cowpea,spreading,25,40,c:/Projects/P2R/primary/RegionsRC9/Met/,Aug,wetTropics,0,17500,252,140,150,mari_PoCpCpBf_1725-14595_1960_wetTropics_LowKS_Aug
mari,1725-14595,1960,Bf,HighKS,cp,PORP,irr1,PoCpCpBf,Cp,Cp,FertCp,TillPO,PORP,split,early,PestD,0,82.3,1.8,1.65,100,0.7,1,1,0.2,17,6.5,45,100,"Masters et al 2008, rainfall sim",cowpea,spreading,25,40,c:/Projects/P2R/primary/RegionsRC9/Met/,Sep,wetTropics,0,17500,252,140,150,mari_PoCpCpBf_1725-14595_1960_wetTropics_HighKS_Sep
mari,1725-14595,1960,Cf,HighKS,cp,D,irr1,DfCpCpCf,Cp,Cp,FertCp,TillD,bare,split,early,PestD,1,88,1.8,1.65,100,0.7,1,1,0.2,17,6.5,45,100,"Masters et al 2008, rainfall sim",cowpea,spreading,25,40,c:/Projects/P2R/primary/RegionsRC9/Met/,Jun,wetTropics,0,25000,252,140,150,mari_DfCpCpCf_1725-14595_1960_wetTropics_HighKS_Jun
mari,1725-14595,1960,Cf,HighKS,ct,A,irr1,AfCpCpCf,Cp,Cp,FertCp,TillA,grain,split,early,PestD,0,74.8,1.89,1.733,100,0.7,1,1,0.2,17,6.5,45,100,"Masters et al 2008, rainfall sim",cowpea,spreading,25,40,c:/Projects/P2R/primary/RegionsRC9/Met/,Jun,wetTropics,0,25000,252,140,150,mari_AfCpCpCf_1725-14595_1960_wetTropics_HighKS_Jun
mari,1725-14595,1960,Cf,HighKS,cp,Cp,irr1,CpCpCpCf,Cp,Cp,FertCp,TillCp,bare,split,early,PestD,0,88,1.8,1.65,100,0.7,1,1,0.2,17,6.5,45,100,"Masters et al 2008, rainfall sim",cowpea,spreading,25,40,c:/Projects/P2R/primary/RegionsRC9/Met/,Jun,wetTropics,0,25000,252,140,150,mari_CpCpCpCf_1725-14595_1960_wetTropics_HighKS_Jun
mari,1725-14595,1960,Cf,LowKS,cp,D,irr1,DfCpCpCf,Cp,Cp,FertCp,TillD,bare,split,early,PestD,1,88,1.8,1.65,5,0.7,1,1,0.2,17,6.5,45,100,"Masters et al 2008, rainfall sim",cowpea,spreading,25,40,c:/Projects/P2R/primary/RegionsRC9/Met/,Jun,wetTropics,0,25000,252,140,150,mari_DfCpCpCf_1725-14595_1960_wetTropics_LowKS_Jun
mari,1725-14595,1960,Cf,LowKS,cp,D,irr1,DfCpCpCf,Cp,Cp,FertCp,TillD,bare,split,early,PestD,1,88,1.8,1.65,5,0.7,1,1,0.2,17,6.5,45,100,"Masters et al 2008, rainfall sim",cowpea,spreading,25,40,c:/Projects/P2R/primary/RegionsRC9/Met/,Aug,wetTropics,0,25000,252,140,150,mari_DfCpCpCf_1725-14595_1960_wetTropics_LowKS_Aug
mari,1725-14595,1960,Cf,LowKS,ct,Ap,irr1,ApCpCpCf,Cp,Cp,FertCp,TillAp,cover,split,early,PestD,0,76.5,1.89,1.733,5,0.7,1,1,0.2,17,6.5,45,100,"Masters et al 2008, rainfall sim",cowpea,spreading,25,40,c:/Projects/P2R/primary/RegionsRC9/Met/,Jun,wetTropics,0,25000,252,140,150,mari_ApCpCpCf_1725-14595_1960_wetTropics_LowKS_Jun
mari,1725-14595,1960,Cf,HighKS,cp,Cp,irr1,CpCpCpCf,Cp,Cp,FertCp,TillCp,bare,split,early,PestD,0,88,1.8,1.65,100,0.7,1,1,0.2,17,6.5,45,100,"Masters et al 2008, rainfall sim",cowpea,spreading,25,40,c:/Projects/P2R/primary/RegionsRC9/Met/,Jul,wetTropics,0,25000,252,140,150,mari_CpCpCpCf_1725-14595_1960_wetTropics_HighKS_Jul
mari,1725-14595,1960,Cf,LowKS,ct,B,irr1,BfCpCpCf,Cp,Cp,FertCp,TillB,cover,split,early,PestD,0,79.1,1.89,1.733,5,0.7,1,1,0.2,17,6.5,45,100,"Masters et al 2008, rainfall sim",cowpea,spreading,25,40,c:/Projects/P2R/primary/RegionsRC9/Met/,Jun,wetTropics,0,25000,252,140,150,mari_BfCpCpCf_1725-14595_1960_wetTropics_LowKS_Jun
mari,1725-14595,1960,Cf,LowKS,ct,Ap,irr1,ApCpCpCf,Cp,Cp,FertCp,TillAp,cover,split,early,PestD,0,76.5,1.89,1.733,5,0.7,1,1,0.2,17,6.5,45,100,"Masters et al 2008, rainfall sim",cowpea,spreading,25,40,c:/Projects/P2R/primary/RegionsRC9/Met/,Aug,wetTropics,0,25000,252,140,150,mari_ApCpCpCf_1725-14595_1960_wetTropics_LowKS_Aug
mari,1725-14595,1960,Cf,LowKS,ct,Ap,irr1,ApCpCpCf,Cp,Cp,FertCp,TillAp,cover,split,early,PestD,0,76.5,1.89,1.733,5,0.7,1,1,0.2,17,6.5,45,100,"Masters et al 2008, rainfall sim",cowpea,spreading,25,40,c:/Projects/P2R/primary/RegionsRC9/Met/,Jul,wetTropics,0,25000,252,140,150,mari_ApCpCpCf_1725-14595_1960_wetTropics_LowKS_Jul
mari,1725-14595,1960,Cf,HighKS,cp,D,irr1,DfCpCpCf,Cp,Cp,FertCp,TillD,bare,split,early,PestD,1,88,1.8,1.65,100,0.7,1,1,0.2,17,6.5,45,100,"Masters et al 2008, rainfall sim",cowpea,spreading,25,40,c:/Projects/P2R/primary/RegionsRC9/Met/,Jul,wetTropics,0,25000,252,140,150,mari_DfCpCpCf_1725-14595_1960_wetTropics_HighKS_Jul
mari,1725-14595,1960,Cf,LowKS,ct,Bp,irr1,BpCpCpCf,Cp,Cp,FertCp,TillBp,cover,split,early,PestD,0,81.4,1.89,1.733,5,0.7,1,1,0.2,17,6.5,45,100,"Masters et al 2008, rainfall sim",cowpea,spreading,25,40,c:/Projects/P2R/primary/RegionsRC9/Met/,Jul,wetTropics,0,25000,252,140,150,mari_BpCpCpCf_1725-14595_1960_wetTropics_LowKS_Jul
mari,1725-14595,1960,Cf,HighKS,ct,Bp,irr1,BpCpCpCf,Cp,Cp,FertCp,TillBp,cover,split,early,PestD,0,81.4,1.89,1.733,100,0.7,1,1,0.2,17,6.5,45,100,"Masters et al 2008, rainfall sim",cowpea,spreading,25,40,c:/Projects/P2R/primary/RegionsRC9/Met/,Jun,wetTropics,0,25000,252,140,150,mari_BpCpCpCf_1725-14595_1960_wetTropics_HighKS_Jun
mari,1725-14595,1960,Cf,LowKS,cp,Cp,irr1,CpCpCpCf,Cp,Cp,FertCp,TillCp,bare,split,early,PestD,0,88,1.8,1.65,5,0.7,1,1,0.2,17,6.5,45,100,"Masters et al 2008, rainfall sim",cowpea,spreading,25,40,c:/Projects/P2R/primary/RegionsRC9/Met/,Jul,wetTropics,0,25000,252,140,150,mari_CpCpCpCf_1725-14595_1960_wetTropics_LowKS_Jul
mari,1725-14595,1960,Cf,LowKS,cp,D,irr1,DfCpCpCf,Cp,Cp,FertCp,TillD,bare,split,early,PestD,1,88,1.8,1.65,5,0.7,1,1,0.2,17,6.5,45,100,"Masters et al 2008, rainfall sim",cowpea,spreading,25,40,c:/Projects/P2R/primary/RegionsRC9/Met/,Jul,wetTropics,0,25000,252,140,150,mari_DfCpCpCf_1725-14595_1960_wetTropics_LowKS_Jul
mari,1725-14595,1960,Cf,HighKS,ct,Ap,irr1,ApCpCpCf,Cp,Cp,FertCp,TillAp,cover,split,early,PestD,0,76.5,1.89,1.733,100,0.7,1,1,0.2,17,6.5,45,100,"Masters et al 2008, rainfall sim",cowpea,spreading,25,40,c:/Projects/P2R/primary/RegionsRC9/Met/,Jun,wetTropics,0,25000,252,140,150,mari_ApCpCpCf_1725-14595_1960_wetTropics_HighKS_Jun
mari,1725-14595,1960,Cf,HighKS,ct,C,irr1,CfCpCpCf,Cp,Cp,FertCp,TillC,cover,split,early,PestD,0,82.3,1.89,1.733,100,0.7,1,1,0.2,17,6.5,45,100,"Masters et al 2008, rainfall sim",cowpea,spreading,25,40,c:/Projects/P2R/primary/RegionsRC9/Met/,Jul,wetTropics,0,25000,252,140,150,mari_CfCpCpCf_1725-14595_1960_wetTropics_HighKS_Jul
mari,1725-14595,1960,Cf,HighKS,ct,A,irr1,AfCpCpCf,Cp,Cp,FertCp,TillA,grain,split,early,PestD,0,74.8,1.89,1.733,100,0.7,1,1,0.2,17,6.5,45,100,"Masters et al 2008, rainfall sim",cowpea,spreading,25,40,c:/Projects/P2R/primary/RegionsRC9/Met/,Jul,wetTropics,0,25000,252,140,150,mari_AfCpCpCf_1725-14595_1960_wetTropics_HighKS_Jul
mari,1725-14595,1960,Cf,HighKS,cp,Cp,irr1,CpCpCpCf,Cp,Cp,FertCp,TillCp,bare,split,early,PestD,0,88,1.8,1.65,100,0.7,1,1,0.2,17,6.5,45,100,"Masters et al 2008, rainfall sim",cowpea,spreading,25,40,c:/Projects/P2R/primary/RegionsRC9/Met/,Aug,wetTropics,0,25000,252,140,150,mari_CpCpCpCf_1725-14595_1960_wetTropics_HighKS_Aug
mari,1725-14595,1960,Cf,HighKS,ct,Ap,irr1,ApCpCpCf,Cp,Cp,FertCp,TillAp,cover,split,early,PestD,0,76.5,1.89,1.733,100,0.7,1,1,0.2,17,6.5,45,100,"Masters et al 2008, rainfall sim",cowpea,spreading,25,40,c:/Projects/P2R/primary/RegionsRC9/Met/,Aug,wetTropics,0,25000,252,140,150,mari_ApCpCpCf_1725-14595_1960_wetTropics_HighKS_Aug
mari,1725-14595,1960,Cf,LowKS,ct,A,irr1,AfCpCpCf,Cp,Cp,FertCp,TillA,grain,split,early,PestD,0,74.8,1.89,1.733,5,0.7,1,1,0.2,17,6.5,45,100,"Masters et al 2008, rainfall sim",cowpea,spreading,25,40,c:/Projects/P2R/primary/RegionsRC9/Met/,Jun,wetTropics,0,25000,252,140,150,mari_AfCpCpCf_1725-14595_1960_wetTropics_LowKS_Jun
mari,1725-14595,1960,Cf,LowKS,ct,Bp,irr1,BpCpCpCf,Cp,Cp,FertCp,TillBp,cover,split,early,PestD,0,81.4,1.89,1.733,5,0.7,1,1,0.2,17,6.5,45,100,"Masters et al 2008, rainfall sim",cowpea,spreading,25,40,c:/Projects/P2R/primary/RegionsRC9/Met/,Jun,wetTropics,0,25000,252,140,150,mari_BpCpCpCf_1725-14595_1960_wetTropics_LowKS_Jun
mari,1725-14595,1960,Cf,LowKS,cp,D,irr1,DfCpCpCf,Cp,Cp,FertCp,TillD,bare,split,early,PestD,1,88,1.8,1.65,5,0.7,1,1,0.2,17,6.5,45,100,"Masters et al 2008, rainfall sim",cowpea,spreading,25,40,c:/Projects/P2R/primary/RegionsRC9/Met/,Sep,wetTropics,0,25000,252,140,150,mari_DfCpCpCf_1725-14595_1960_wetTropics_LowKS_Sep
mari,1725-14595,1960,Cf,HighKS,ct,Bp,irr1,BpCpCpCf,Cp,Cp,FertCp,TillBp,cover,split,early,PestD,0,81.4,1.89,1.733,100,0.7,1,1,0.2,17,6.5,45,100,"Masters et al 2008, rainfall sim",cowpea,spreading,25,40,c:/Projects/P2R/primary/RegionsRC9/Met/,Jul,wetTropics,0,25000,252,140,150,mari_BpCpCpCf_1725-14595_1960_wetTropics_HighKS_Jul
mari,1725-14595,1960,Cf,LowKS,ct,A,irr1,AfCpCpCf,Cp,Cp,FertCp,TillA,grain,split,early,PestD,0,74.8,1.89,1.733,5,0.7,1,1,0.2,17,6.5,45,100,"Masters et al 2008, rainfall sim",cowpea,spreading,25,40,c:/Projects/P2R/primary/RegionsRC9/Met/,Sep,wetTropics,0,25000,252,140,150,mari_AfCpCpCf_1725-14595_1960_wetTropics_LowKS_Sep
mari,1725-14595,1960,Cf,LowKS,ct,B,irr1,BfCpCpCf,Cp,Cp,FertCp,TillB,cover,split,early,PestD,0,79.1,1.89,1.733,5,0.7,1,1,0.2,17,6.5,45,100,"Masters et al 2008, rainfall sim",cowpea,spreading,25,40,c:/Projects/P2R/primary/RegionsRC9/Met/,Jul,wetTropics,0,25000,252,140,150,mari_BfCpCpCf_1725-14595_1960_wetTropics_LowKS_Jul
mari,1725-14595,1960,Cf,HighKS,ct,C,irr1,CfCpCpCf,Cp,Cp,FertCp,TillC,cover,split,early,PestD,0,82.3,1.89,1.733,100,0.7,1,1,0.2,17,6.5,45,100,"Masters et al 2008, rainfall sim",cowpea,spreading,25,40,c:/Projects/P2R/primary/RegionsRC9/Met/,Jun,wetTropics,0,25000,252,140,150,mari_CfCpCpCf_1725-14595_1960_wetTropics_HighKS_Jun
mari,1725-14595,1960,Cf,HighKS,ct,B,irr1,BfCpCpCf,Cp,Cp,FertCp,TillB,cover,split,early,PestD,0,79.1,1.89,1.733,100,0.7,1,1,0.2,17,6.5,45,100,"Masters et al 2008, rainfall sim",cowpea,spreading,25,40,c:/Projects/P2R/primary/RegionsRC9/Met/,Jun,wetTropics,0,25000,252,140,150,mari_BfCpCpCf_1725-14595_1960_wetTropics_HighKS_Jun
mari,1725-14595,1960,Cf,HighKS,ct,A,irr1,AfCpCpCf,Cp,Cp,FertCp,TillA,grain,split,early,PestD,0,74.8,1.89,1.733,100,0.7,1,1,0.2,17,6.5,45,100,"Masters et al 2008, rainfall sim",cowpea,spreading,25,40,c:/Projects/P2R/primary/RegionsRC9/Met/,Sep,wetTropics,0,25000,252,140,150,mari_AfCpCpCf_1725-14595_1960_wetTropics_HighKS_Sep
mari,1725-14595,1960,Cf,HighKS,ct,Ap,irr1,ApCpCpCf,Cp,Cp,FertCp,TillAp,cover,split,early,PestD,0,76.5,1.89,1.733,100,0.7,1,1,0.2,17,6.5,45,100,"Masters et al 2008, rainfall sim",cowpea,spreading,25,40,c:/Projects/P2R/primary/RegionsRC9/Met/,Sep,wetTropics,0,25000,252,140,150,mari_ApCpCpCf_1725-14595_1960_wetTropics_HighKS_Sep
mari,1725-14595,1960,Cf,HighKS,ct,Ap,irr1,ApCpCpCf,Cp,Cp,FertCp,TillAp,cover,split,early,PestD,0,76.5,1.89,1.733,100,0.7,1,1,0.2,17,6.5,45,100,"Masters et al 2008, rainfall sim",cowpea,spreading,25,40,c:/Projects/P2R/primary/RegionsRC9/Met/,Jul,wetTropics,0,25000,252,140,150,mari_ApCpCpCf_1725-14595_1960_wetTropics_HighKS_Jul
mari,1725-14595,1960,Cf,HighKS,cp,D,irr1,DfCpCpCf,Cp,Cp,FertCp,TillD,bare,split,early,PestD,1,88,1.8,1.65,100,0.7,1,1,0.2,17,6.5,45,100,"Masters et al 2008, rainfall sim",cowpea,spreading,25,40,c:/Projects/P2R/primary/RegionsRC9/Met/,Aug,wetTropics,0,25000,252,140,150,mari_DfCpCpCf_1725-14595_1960_wetTropics_HighKS_Aug
mari,1725-14595,1960,Cf,LowKS,ct,A,irr1,AfCpCpCf,Cp,Cp,FertCp,TillA,grain,split,early,PestD,0,74.8,1.89,1.733,5,0.7,1,1,0.2,17,6.5,45,100,"Masters et al 2008, rainfall sim",cowpea,spreading,25,40,c:/Projects/P2R/primary/RegionsRC9/Met/,Aug,wetTropics,0,25000,252,140,150,mari_AfCpCpCf_1725-14595_1960_wetTropics_LowKS_Aug
mari,1725-14595,1960,Cf,LowKS,ct,B,irr1,BfCpCpCf,Cp,Cp,FertCp,TillB,cover,split,early,PestD,0,79.1,1.89,1.733,5,0.7,1,1,0.2,17,6.5,45,100,"Masters et al 2008, rainfall sim",cowpea,spreading,25,40,c:/Projects/P2R/primary/RegionsRC9/Met/,Aug,wetTropics,0,25000,252,140,150,mari_BfCpCpCf_1725-14595_1960_wetTropics_LowKS_Aug
mari,1725-14595,1960,Cf,HighKS,ct,B,irr1,BfCpCpCf,Cp,Cp,FertCp,TillB,cover,split,early,PestD,0,79.1,1.89,1.733,100,0.7,1,1,0.2,17,6.5,45,100,"Masters et al 2008, rainfall sim",cowpea,spreading,25,40,c:/Projects/P2R/primary/RegionsRC9/Met/,Jul,wetTropics,0,25000,252,140,150,mari_BfCpCpCf_1725-14595_1960_wetTropics_HighKS_Jul
mari,1725-14595,1960,Cf,LowKS,ct,C,irr1,CfCpCpCf,Cp,Cp,FertCp,TillC,cover,split,early,PestD,0,82.3,1.89,1.733,5,0.7,1,1,0.2,17,6.5,45,100,"Masters et al 2008, rainfall sim",cowpea,spreading,25,40,c:/Projects/P2R/primary/RegionsRC9/Met/,Jul,wetTropics,0,25000,252,140,150,mari_CfCpCpCf_1725-14595_1960_wetTropics_LowKS_Jul
mari,1725-14595,1960,Cf,HighKS,cp,Cp,irr1,CpCpCpCf,Cp,Cp,FertCp,TillCp,bare,split,early,PestD,0,88,1.8,1.65,100,0.7,1,1,0.2,17,6.5,45,100,"Masters et al 2008, rainfall sim",cowpea,spreading,25,40,c:/Projects/P2R/primary/RegionsRC9/Met/,Sep,wetTropics,0,25000,252,140,150,mari_CpCpCpCf_1725-14595_1960_wetTropics_HighKS_Sep
mari,1725-14595,1960,Cf,HighKS,cp,PORP,irr1,PoCpCpCf,Cp,Cp,FertCp,TillPO,PORP,split,early,PestD,0,82.3,1.8,1.65,100,0.7,1,1,0.2,17,6.5,45,100,"Masters et al 2008, rainfall sim",cowpea,spreading,25,40,c:/Projects/P2R/primary/RegionsRC9/Met/,Jul,wetTropics,0,25000,252,140,150,mari_PoCpCpCf_1725-14595_1960_wetTropics_HighKS_Jul
mari,1725-14595,1960,Cf,LowKS,ct,A,irr1,AfCpCpCf,Cp,Cp,FertCp,TillA,grain,split,early,PestD,0,74.8,1.89,1.733,5,0.7,1,1,0.2,17,6.5,45,100,"Masters et al 2008, rainfall sim",cowpea,spreading,25,40,c:/Projects/P2R/primary/RegionsRC9/Met/,Jul,wetTropics,0,25000,252,140,150,mari_AfCpCpCf_1725-14595_1960_wetTropics_LowKS_Jul
mari,1725-14595,1960,Cf,HighKS,cp,D,irr1,DfCpCpCf,Cp,Cp,FertCp,TillD,bare,split,early,PestD,1,88,1.8,1.65,100,0.7,1,1,0.2,17,6.5,45,100,"Masters et al 2008, rainfall sim",cowpea,spreading,25,40,c:/Projects/P2R/primary/RegionsRC9/Met/,Sep,wetTropics,0,25000,252,140,150,mari_DfCpCpCf_1725-14595_1960_wetTropics_HighKS_Sep
mari,1725-14595,1960,Cf,LowKS,ct,Bp,irr1,BpCpCpCf,Cp,Cp,FertCp,TillBp,cover,split,early,PestD,0,81.4,1.89,1.733,5,0.7,1,1,0.2,17,6.5,45,100,"Masters et al 2008, rainfall sim",cowpea,spreading,25,40,c:/Projects/P2R/primary/RegionsRC9/Met/,Sep,wetTropics,0,25000,252,140,150,mari_BpCpCpCf_1725-14595_1960_wetTropics_LowKS_Sep
mari,1725-14595,1960,Cf,LowKS,cp,PORP,irr1,PoCpCpCf,Cp,Cp,FertCp,TillPO,PORP,split,early,PestD,0,82.3,1.8,1.65,5,0.7,1,1,0.2,17,6.5,45,100,"Masters et al 2008, rainfall sim",cowpea,spreading,25,40,c:/Projects/P2R/primary/RegionsRC9/Met/,Jul,wetTropics,0,25000,252,140,150,mari_PoCpCpCf_1725-14595_1960_wetTropics_LowKS_Jul
mari,1725-14595,1960,Cf,HighKS,ct,Bp,irr1,BpCpCpCf,Cp,Cp,FertCp,TillBp,cover,split,early,PestD,0,81.4,1.89,1.733,100,0.7,1,1,0.2,17,6.5,45,100,"Masters et al 2008, rainfall sim",cowpea,spreading,25,40,c:/Projects/P2R/primary/RegionsRC9/Met/,Sep,wetTropics,0,25000,252,140,150,mari_BpCpCpCf_1725-14595_1960_wetTropics_HighKS_Sep
mari,1725-14595,1960,Cf,HighKS,ct,C,irr1,CfCpCpCf,Cp,Cp,FertCp,TillC,cover,split,early,PestD,0,82.3,1.89,1.733,100,0.7,1,1,0.2,17,6.5,45,100,"Masters et al 2008, rainfall sim",cowpea,spreading,25,40,c:/Projects/P2R/primary/RegionsRC9/Met/,Sep,wetTropics,0,25000,252,140,150,mari_CfCpCpCf_1725-14595_1960_wetTropics_HighKS_Sep
mari,1725-14595,1960,Cf,LowKS,ct,C,irr1,CfCpCpCf,Cp,Cp,FertCp,TillC,cover,split,early,PestD,0,82.3,1.89,1.733,5,0.7,1,1,0.2,17,6.5,45,100,"Masters et al 2008, rainfall sim",cowpea,spreading,25,40,c:/Projects/P2R/primary/RegionsRC9/Met/,Jun,wetTropics,0,25000,252,140,150,mari_CfCpCpCf_1725-14595_1960_wetTropics_LowKS_Jun
mari,1725-14595,1960,Cf,HighKS,ct,B,irr1,BfCpCpCf,Cp,Cp,FertCp,TillB,cover,split,early,PestD,0,79.1,1.89,1.733,100,0.7,1,1,0.2,17,6.5,45,100,"Masters et al 2008, rainfall sim",cowpea,spreading,25,40,c:/Projects/P2R/primary/RegionsRC9/Met/,Sep,wetTropics,0,25000,252,140,150,mari_BfCpCpCf_1725-14595_1960_wetTropics_HighKS_Sep
mari,1725-14595,1960,Cf,LowKS,cp,Cp,irr1,CpCpCpCf,Cp,Cp,FertCp,TillCp,bare,split,early,PestD,0,88,1.8,1.65,5,0.7,1,1,0.2,17,6.5,45,100,"Masters et al 2008, rainfall sim",cowpea,spreading,25,40,c:/Projects/P2R/primary/RegionsRC9/Met/,Jun,wetTropics,0,25000,252,140,150,mari_CpCpCpCf_1725-14595_1960_wetTropics_LowKS_Jun
mari,1725-14595,1960,Cf,LowKS,ct,C,irr1,CfCpCpCf,Cp,Cp,FertCp,TillC,cover,split,early,PestD,0,82.3,1.89,1.733,5,0.7,1,1,0.2,17,6.5,45,100,"Masters et al 2008, rainfall sim",cowpea,spreading,25,40,c:/Projects/P2R/primary/RegionsRC9/Met/,Sep,wetTropics,0,25000,252,140,150,mari_CfCpCpCf_1725-14595_1960_wetTropics_LowKS_Sep
mari,1725-14595,1960,Cf,LowKS,cp,PORP,irr1,PoCpCpCf,Cp,Cp,FertCp,TillPO,PORP,split,early,PestD,0,82.3,1.8,1.65,5,0.7,1,1,0.2,17,6.5,45,100,"Masters et al 2008, rainfall sim",cowpea,spreading,25,40,c:/Projects/P2R/primary/RegionsRC9/Met/,Aug,wetTropics,0,25000,252,140,150,mari_PoCpCpCf_1725-14595_1960_wetTropics_LowKS_Aug
mari,1725-14595,1960,Cf,LowKS,ct,Ap,irr1,ApCpCpCf,Cp,Cp,FertCp,TillAp,cover,split,early,PestD,0,76.5,1.89,1.733,5,0.7,1,1,0.2,17,6.5,45,100,"Masters et al 2008, rainfall sim",cowpea,spreading,25,40,c:/Projects/P2R/primary/RegionsRC9/Met/,Sep,wetTropics,0,25000,252,140,150,mari_ApCpCpCf_1725-14595_1960_wetTropics_LowKS_Sep
mari,1725-14595,1960,Cf,LowKS,ct,B,irr1,BfCpCpCf,Cp,Cp,FertCp,TillB,cover,split,early,PestD,0,79.1,1.89,1.733,5,0.7,1,1,0.2,17,6.5,45,100,"Masters et al 2008, rainfall sim",cowpea,spreading,25,40,c:/Projects/P2R/primary/RegionsRC9/Met/,Sep,wetTropics,0,25000,252,140,150,mari_BfCpCpCf_1725-14595_1960_wetTropics_LowKS_Sep
mari,1725-14595,1960,Cf,LowKS,ct,Bp,irr1,BpCpCpCf,Cp,Cp,FertCp,TillBp,cover,split,early,PestD,0,81.4,1.89,1.733,5,0.7,1,1,0.2,17,6.5,45,100,"Masters et al 2008, rainfall sim",cowpea,spreading,25,40,c:/Projects/P2R/primary/RegionsRC9/Met/,Aug,wetTropics,0,25000,252,140,150,mari_BpCpCpCf_1725-14595_1960_wetTropics_LowKS_Aug
mari,1725-14595,1960,Cf,HighKS,ct,Bp,irr1,BpCpCpCf,Cp,Cp,FertCp,TillBp,cover,split,early,PestD,0,81.4,1.89,1.733,100,0.7,1,1,0.2,17,6.5,45,100,"Masters et al 2008, rainfall sim",cowpea,spreading,25,40,c:/Projects/P2R/primary/RegionsRC9/Met/,Aug,wetTropics,0,25000,252,140,150,mari_BpCpCpCf_1725-14595_1960_wetTropics_HighKS_Aug
mari,1725-14595,1960,Cf,HighKS,ct,C,irr1,CfCpCpCf,Cp,Cp,FertCp,TillC,cover,split,early,PestD,0,82.3,1.89,1.733,100,0.7,1,1,0.2,17,6.5,45,100,"Masters et al 2008, rainfall sim",cowpea,spreading,25,40,c:/Projects/P2R/primary/RegionsRC9/Met/,Aug,wetTropics,0,25000,252,140,150,mari_CfCpCpCf_1725-14595_1960_wetTropics_HighKS_Aug
mari,1725-14595,1960,Cf,HighKS,ct,A,irr1,AfCpCpCf,Cp,Cp,FertCp,TillA,grain,split,early,PestD,0,74.8,1.89,1.733,100,0.7,1,1,0.2,17,6.5,45,100,"Masters et al 2008, rainfall sim",cowpea,spreading,25,40,c:/Projects/P2R/primary/RegionsRC9/Met/,Aug,wetTropics,0,25000,252,140,150,mari_AfCpCpCf_1725-14595_1960_wetTropics_HighKS_Aug
mari,1725-14595,1960,Cf,HighKS,cp,PORP,irr1,PoCpCpCf,Cp,Cp,FertCp,TillPO,PORP,split,early,PestD,0,82.3,1.8,1.65,100,0.7,1,1,0.2,17,6.5,45,100,"Masters et al 2008, rainfall sim",cowpea,spreading,25,40,c:/Projects/P2R/primary/RegionsRC9/Met/,Sep,wetTropics,0,25000,252,140,150,mari_PoCpCpCf_1725-14595_1960_wetTropics_HighKS_Sep
mari,1725-14595,1960,Cf,HighKS,ct,B,irr1,BfCpCpCf,Cp,Cp,FertCp,TillB,cover,split,early,PestD,0,79.1,1.89,1.733,100,0.7,1,1,0.2,17,6.5,45,100,"Masters et al 2008, rainfall sim",cowpea,spreading,25,40,c:/Projects/P2R/primary/RegionsRC9/Met/,Aug,wetTropics,0,25000,252,140,150,mari_BfCpCpCf_1725-14595_1960_wetTropics_HighKS_Aug
mari,1725-14595,1960,Cf,LowKS,cp,PORP,irr1,PoCpCpCf,Cp,Cp,FertCp,TillPO,PORP,split,early,PestD,0,82.3,1.8,1.65,5,0.7,1,1,0.2,17,6.5,45,100,"Masters et al 2008, rainfall sim",cowpea,spreading,25,40,c:/Projects/P2R/primary/RegionsRC9/Met/,Sep,wetTropics,0,25000,252,140,150,mari_PoCpCpCf_1725-14595_1960_wetTropics_LowKS_Sep
mari,1725-14595,1960,Cf,LowKS,ct,C,irr1,CfCpCpCf,Cp,Cp,FertCp,TillC,cover,split,early,PestD,0,82.3,1.89,1.733,5,0.7,1,1,0.2,17,6.5,45,100,"Masters et al 2008, rainfall sim",cowpea,spreading,25,40,c:/Projects/P2R/primary/RegionsRC9/Met/,Aug,wetTropics,0,25000,252,140,150,mari_CfCpCpCf_1725-14595_1960_wetTropics_LowKS_Aug
mari,1725-14595,1960,Cf,HighKS,cp,PORP,irr1,PoCpCpCf,Cp,Cp,FertCp,TillPO,PORP,split,early,PestD,0,82.3,1.8,1.65,100,0.7,1,1,0.2,17,6.5,45,100,"Masters et al 2008, rainfall sim",cowpea,spreading,25,40,c:/Projects/P2R/primary/RegionsRC9/Met/,Aug,wetTropics,0,25000,252,140,150,mari_PoCpCpCf_1725-14595_1960_wetTropics_HighKS_Aug
mari,1725-14595,1960,Cf,LowKS,cp,Cp,irr1,CpCpCpCf,Cp,Cp,FertCp,TillCp,bare,split,early,PestD,0,88,1.8,1.65,5,0.7,1,1,0.2,17,6.5,45,100,"Masters et al 2008, rainfall sim",cowpea,spreading,25,40,c:/Projects/P2R/primary/RegionsRC9/Met/,Aug,wetTropics,0,25000,252,140,150,mari_CpCpCpCf_1725-14595_1960_wetTropics_LowKS_Aug
mari,1725-14595,1960,Cf,LowKS,cp,Cp,irr1,CpCpCpCf,Cp,Cp,FertCp,TillCp,bare,split,early,PestD,0,88,1.8,1.65,5,0.7,1,1,0.2,17,6.5,45,100,"Masters et al 2008, rainfall sim",cowpea,spreading,25,40,c:/Projects/P2R/primary/RegionsRC9/Met/,Sep,wetTropics,0,25000,252,140,150,mari_CpCpCpCf_1725-14595_1960_wetTropics_LowKS_Sep
mari,1725-14595,1960,Df,HighKS,ct,A,irr1,AfCpCpDf,Cp,Cp,FertCp,TillA,grain,split,early,PestD,0,74.8,1.89,1.733,100,0.7,1,1,0.2,17,6.5,45,100,"Masters et al 2008, rainfall sim",cowpea,spreading,25,40,c:/Projects/P2R/primary/RegionsRC9/Met/,Jul,wetTropics,0,62500,252,140,150,mari_AfCpCpDf_1725-14595_1960_wetTropics_HighKS_Jul
mari,1725-14595,1960,Df,LowKS,ct,C,irr1,CfCpCpDf,Cp,Cp,FertCp,TillC,cover,split,early,PestD,0,82.3,1.89,1.733,5,0.7,1,1,0.2,17,6.5,45,100,"Masters et al 2008, rainfall sim",cowpea,spreading,25,40,c:/Projects/P2R/primary/RegionsRC9/Met/,Jun,wetTropics,0,62500,252,140,150,mari_CfCpCpDf_1725-14595_1960_wetTropics_LowKS_Jun
mari,1725-14595,1960,Df,HighKS,ct,Ap,irr1,ApCpCpDf,Cp,Cp,FertCp,TillAp,cover,split,early,PestD,0,76.5,1.89,1.733,100,0.7,1,1,0.2,17,6.5,45,100,"Masters et al 2008, rainfall sim",cowpea,spreading,25,40,c:/Projects/P2R/primary/RegionsRC9/Met/,Jun,wetTropics,0,62500,252,140,150,mari_ApCpCpDf_1725-14595_1960_wetTropics_HighKS_Jun
mari,1725-14595,1960,Df,LowKS,ct,C,irr1,CfCpCpDf,Cp,Cp,FertCp,TillC,cover,split,early,PestD,0,82.3,1.89,1.733,5,0.7,1,1,0.2,17,6.5,45,100,"Masters et al 2008, rainfall sim",cowpea,spreading,25,40,c:/Projects/P2R/primary/RegionsRC9/Met/,Jul,wetTropics,0,62500,252,140,150,mari_CfCpCpDf_1725-14595_1960_wetTropics_LowKS_Jul
mari,1725-14595,1960,Df,HighKS,cp,D,irr1,DfCpCpDf,Cp,Cp,FertCp,TillD,bare,split,early,PestD,1,88,1.8,1.65,100,0.7,1,1,0.2,17,6.5,45,100,"Masters et al 2008, rainfall sim",cowpea,spreading,25,40,c:/Projects/P2R/primary/RegionsRC9/Met/,Aug,wetTropics,0,62500,252,140,150,mari_DfCpCpDf_1725-14595_1960_wetTropics_HighKS_Aug
mari,1725-14595,1960,Df,HighKS,cp,Cp,irr1,CpCpCpDf,Cp,Cp,FertCp,TillCp,bare,split,early,PestD,0,88,1.8,1.65,100,0.7,1,1,0.2,17,6.5,45,100,"Masters et al 2008, rainfall sim",cowpea,spreading,25,40,c:/Projects/P2R/primary/RegionsRC9/Met/,Jul,wetTropics,0,62500,252,140,150,mari_CpCpCpDf_1725-14595_1960_wetTropics_HighKS_Jul
mari,1725-14595,1960,Df,HighKS,ct,A,irr1,AfCpCpDf,Cp,Cp,FertCp,TillA,grain,split,early,PestD,0,74.8,1.89,1.733,100,0.7,1,1,0.2,17,6.5,45,100,"Masters et al 2008, rainfall sim",cowpea,spreading,25,40,c:/Projects/P2R/primary/RegionsRC9/Met/,Jun,wetTropics,0,62500,252,140,150,mari_AfCpCpDf_1725-14595_1960_wetTropics_HighKS_Jun
mari,1725-14595,1960,Df,HighKS,cp,D,irr1,DfCpCpDf,Cp,Cp,FertCp,TillD,bare,split,early,PestD,1,88,1.8,1.65,100,0.7,1,1,0.2,17,6.5,45,100,"Masters et al 2008, rainfall sim",cowpea,spreading,25,40,c:/Projects/P2R/primary/RegionsRC9/Met/,Sep,wetTropics,0,62500,252,140,150,mari_DfCpCpDf_1725-14595_1960_wetTropics_HighKS_Sep
mari,1725-14595,1960,Df,HighKS,cp,Cp,irr1,CpCpCpDf,Cp,Cp,FertCp,TillCp,bare,split,early,PestD,0,88,1.8,1.65,100,0.7,1,1,0.2,17,6.5,45,100,"Masters et al 2008, rainfall sim",cowpea,spreading,25,40,c:/Projects/P2R/primary/RegionsRC9/Met/,Jun,wetTropics,0,62500,252,140,150,mari_CpCpCpDf_1725-14595_1960_wetTropics_HighKS_Jun
mari,1725-14595,1960,Df,HighKS,ct,A,irr1,AfCpCpDf,Cp,Cp,FertCp,TillA,grain,split,early,PestD,0,74.8,1.89,1.733,100,0.7,1,1,0.2,17,6.5,45,100,"Masters et al 2008, rainfall sim",cowpea,spreading,25,40,c:/Projects/P2R/primary/RegionsRC9/Met/,Aug,wetTropics,0,62500,252,140,150,mari_AfCpCpDf_1725-14595_1960_wetTropics_HighKS_Aug
mari,1725-14595,1960,Df,HighKS,ct,A,irr1,AfCpCpDf,Cp,Cp,FertCp,TillA,grain,split,early,PestD,0,74.8,1.89,1.733,100,0.7,1,1,0.2,17,6.5,45,100,"Masters et al 2008, rainfall sim",cowpea,spreading,25,40,c:/Projects/P2R/primary/RegionsRC9/Met/,Sep,wetTropics,0,62500,252,140,150,mari_AfCpCpDf_1725-14595_1960_wetTropics_HighKS_Sep
mari,1725-14595,1960,Df,LowKS,ct,A,irr1,AfCpCpDf,Cp,Cp,FertCp,TillA,grain,split,early,PestD,0,74.8,1.89,1.733,5,0.7,1,1,0.2,17,6.5,45,100,"Masters et al 2008, rainfall sim",cowpea,spreading,25,40,c:/Projects/P2R/primary/RegionsRC9/Met/,Jun,wetTropics,0,62500,252,140,150,mari_AfCpCpDf_1725-14595_1960_wetTropics_LowKS_Jun
mari,1725-14595,1960,Df,LowKS,cp,D,irr1,DfCpCpDf,Cp,Cp,FertCp,TillD,bare,split,early,PestD,1,88,1.8,1.65,5,0.7,1,1,0.2,17,6.5,45,100,"Masters et al 2008, rainfall sim",cowpea,spreading,25,40,c:/Projects/P2R/primary/RegionsRC9/Met/,Aug,wetTropics,0,62500,252,140,150,mari_DfCpCpDf_1725-14595_1960_wetTropics_LowKS_Aug
mari,1725-14595,1960,Df,LowKS,cp,Cp,irr1,CpCpCpDf,Cp,Cp,FertCp,TillCp,bare,split,early,PestD,0,88,1.8,1.65,5,0.7,1,1,0.2,17,6.5,45,100,"Masters et al 2008, rainfall sim",cowpea,spreading,25,40,c:/Projects/P2R/primary/RegionsRC9/Met/,Aug,wetTropics,0,62500,252,140,150,mari_CpCpCpDf_1725-14595_1960_wetTropics_LowKS_Aug
mari,1725-14595,1960,Df,LowKS,cp,Cp,irr1,CpCpCpDf,Cp,Cp,FertCp,TillCp,bare,split,early,PestD,0,88,1.8,1.65,5,0.7,1,1,0.2,17,6.5,45,100,"Masters et al 2008, rainfall sim",cowpea,spreading,25,40,c:/Projects/P2R/primary/RegionsRC9/Met/,Sep,wetTropics,0,62500,252,140,150,mari_CpCpCpDf_1725-14595_1960_wetTropics_LowKS_Sep
mari,1725-14595,1960,Df,LowKS,cp,Cp,irr1,CpCpCpDf,Cp,Cp,FertCp,TillCp,bare,split,early,PestD,0,88,1.8,1.65,5,0.7,1,1,0.2,17,6.5,45,100,"Masters et al 2008, rainfall sim",cowpea,spreading,25,40,c:/Projects/P2R/primary/RegionsRC9/Met/,Jun,wetTropics,0,62500,252,140,150,mari_CpCpCpDf_1725-14595_1960_wetTropics_LowKS_Jun
mari,1725-14595,1960,Df,HighKS,ct,C,irr1,CfCpCpDf,Cp,Cp,FertCp,TillC,cover,split,early,PestD,0,82.3,1.89,1.733,100,0.7,1,1,0.2,17,6.5,45,100,"Masters et al 2008, rainfall sim",cowpea,spreading,25,40,c:/Projects/P2R/primary/RegionsRC9/Met/,Jun,wetTropics,0,62500,252,140,150,mari_CfCpCpDf_1725-14595_1960_wetTropics_HighKS_Jun
mari,1725-14595,1960,Df,HighKS,ct,C,irr1,CfCpCpDf,Cp,Cp,FertCp,TillC,cover,split,early,PestD,0,82.3,1.89,1.733,100,0.7,1,1,0.2,17,6.5,45,100,"Masters et al 2008, rainfall sim",cowpea,spreading,25,40,c:/Projects/P2R/primary/RegionsRC9/Met/,Sep,wetTropics,0,62500,252,140,150,mari_CfCpCpDf_1725-14595_1960_wetTropics_HighKS_Sep
mari,1725-14595,1960,Df,HighKS,ct,Bp,irr1,BpCpCpDf,Cp,Cp,FertCp,TillBp,cover,split,early,PestD,0,81.4,1.89,1.733,100,0.7,1,1,0.2,17,6.5,45,100,"Masters et al 2008, rainfall sim",cowpea,spreading,25,40,c:/Projects/P2R/primary/RegionsRC9/Met/,Jun,wetTropics,0,62500,252,140,150,mari_BpCpCpDf_1725-14595_1960_wetTropics_HighKS_Jun
mari,1725-14595,1960,Df,HighKS,cp,D,irr1,DfCpCpDf,Cp,Cp,FertCp,TillD,bare,split,early,PestD,1,88,1.8,1.65,100,0.7,1,1,0.2,17,6.5,45,100,"Masters et al 2008, rainfall sim",cowpea,spreading,25,40,c:/Projects/P2R/primary/RegionsRC9/Met/,Jun,wetTropics,0,62500,252,140,150,mari_DfCpCpDf_1725-14595_1960_wetTropics_HighKS_Jun
mari,1725-14595,1960,Df,HighKS,cp,D,irr1,DfCpCpDf,Cp,Cp,FertCp,TillD,bare,split,early,PestD,1,88,1.8,1.65,100,0.7,1,1,0.2,17,6.5,45,100,"Masters et al 2008, rainfall sim",cowpea,spreading,25,40,c:/Projects/P2R/primary/RegionsRC9/Met/,Jul,wetTropics,0,62500,252,140,150,mari_DfCpCpDf_1725-14595_1960_wetTropics_HighKS_Jul
mari,1725-14595,1960,Df,LowKS,ct,C,irr1,CfCpCpDf,Cp,Cp,FertCp,TillC,cover,split,early,PestD,0,82.3,1.89,1.733,5,0.7,1,1,0.2,17,6.5,45,100,"Masters et al 2008, rainfall sim",cowpea,spreading,25,40,c:/Projects/P2R/primary/RegionsRC9/Met/,Sep,wetTropics,0,62500,252,140,150,mari_CfCpCpDf_1725-14595_1960_wetTropics_LowKS_Sep
mari,1725-14595,1960,Df,HighKS,ct,Bp,irr1,BpCpCpDf,Cp,Cp,FertCp,TillBp,cover,split,early,PestD,0,81.4,1.89,1.733,100,0.7,1,1,0.2,17,6.5,45,100,"Masters et al 2008, rainfall sim",cowpea,spreading,25,40,c:/Projects/P2R/primary/RegionsRC9/Met/,Jul,wetTropics,0,62500,252,140,150,mari_BpCpCpDf_1725-14595_1960_wetTropics_HighKS_Jul
mari,1725-14595,1960,Df,HighKS,ct,C,irr1,CfCpCpDf,Cp,Cp,FertCp,TillC,cover,split,early,PestD,0,82.3,1.89,1.733,100,0.7,1,1,0.2,17,6.5,45,100,"Masters et al 2008, rainfall sim",cowpea,spreading,25,40,c:/Projects/P2R/primary/RegionsRC9/Met/,Aug,wetTropics,0,62500,252,140,150,mari_CfCpCpDf_1725-14595_1960_wetTropics_HighKS_Aug
mari,1725-14595,1960,Df,LowKS,ct,A,irr1,AfCpCpDf,Cp,Cp,FertCp,TillA,grain,split,early,PestD,0,74.8,1.89,1.733,5,0.7,1,1,0.2,17,6.5,45,100,"Masters et al 2008, rainfall sim",cowpea,spreading,25,40,c:/Projects/P2R/primary/RegionsRC9/Met/,Sep,wetTropics,0,62500,252,140,150,mari_AfCpCpDf_1725-14595_1960_wetTropics_LowKS_Sep
mari,1725-14595,1960,Df,LowKS,ct,A,irr1,AfCpCpDf,Cp,Cp,FertCp,TillA,grain,split,early,PestD,0,74.8,1.89,1.733,5,0.7,1,1,0.2,17,6.5,45,100,"Masters et al 2008, rainfall sim",cowpea,spreading,25,40,c:/Projects/P2R/primary/RegionsRC9/Met/,Jul,wetTropics,0,62500,252,140,150,mari_AfCpCpDf_1725-14595_1960_wetTropics_LowKS_Jul
mari,1725-14595,1960,Df,HighKS,ct,Ap,irr1,ApCpCpDf,Cp,Cp,FertCp,TillAp,cover,split,early,PestD,0,76.5,1.89,1.733,100,0.7,1,1,0.2,17,6.5,45,100,"Masters et al 2008, rainfall sim",cowpea,spreading,25,40,c:/Projects/P2R/primary/RegionsRC9/Met/,Jul,wetTropics,0,62500,252,140,150,mari_ApCpCpDf_1725-14595_1960_wetTropics_HighKS_Jul
mari,1725-14595,1960,Df,HighKS,ct,B,irr1,BfCpCpDf,Cp,Cp,FertCp,TillB,cover,split,early,PestD,0,79.1,1.89,1.733,100,0.7,1,1,0.2,17,6.5,45,100,"Masters et al 2008, rainfall sim",cowpea,spreading,25,40,c:/Projects/P2R/primary/RegionsRC9/Met/,Jun,wetTropics,0,62500,252,140,150,mari_BfCpCpDf_1725-14595_1960_wetTropics_HighKS_Jun
mari,1725-14595,1960,Df,LowKS,ct,Ap,irr1,ApCpCpDf,Cp,Cp,FertCp,TillAp,cover,split,early,PestD,0,76.5,1.89,1.733,5,0.7,1,1,0.2,17,6.5,45,100,"Masters et al 2008, rainfall sim",cowpea,spreading,25,40,c:/Projects/P2R/primary/RegionsRC9/Met/,Jun,wetTropics,0,62500,252,140,150,mari_ApCpCpDf_1725-14595_1960_wetTropics_LowKS_Jun
mari,1725-14595,1960,Df,HighKS,ct,B,irr1,BfCpCpDf,Cp,Cp,FertCp,TillB,cover,split,early,PestD,0,79.1,1.89,1.733,100,0.7,1,1,0.2,17,6.5,45,100,"Masters et al 2008, rainfall sim",cowpea,spreading,25,40,c:/Projects/P2R/primary/RegionsRC9/Met/,Jul,wetTropics,0,62500,252,140,150,mari_BfCpCpDf_1725-14595_1960_wetTropics_HighKS_Jul
mari,1725-14595,1960,Df,LowKS,ct,Ap,irr1,ApCpCpDf,Cp,Cp,FertCp,TillAp,cover,split,early,PestD,0,76.5,1.89,1.733,5,0.7,1,1,0.2,17,6.5,45,100,"Masters et al 2008, rainfall sim",cowpea,spreading,25,40,c:/Projects/P2R/primary/RegionsRC9/Met/,Aug,wetTropics,0,62500,252,140,150,mari_ApCpCpDf_1725-14595_1960_wetTropics_LowKS_Aug
mari,1725-14595,1960,Df,LowKS,ct,Ap,irr1,ApCpCpDf,Cp,Cp,FertCp,TillAp,cover,split,early,PestD,0,76.5,1.89,1.733,5,0.7,1,1,0.2,17,6.5,45,100,"Masters et al 2008, rainfall sim",cowpea,spreading,25,40,c:/Projects/P2R/primary/RegionsRC9/Met/,Sep,wetTropics,0,62500,252,140,150,mari_ApCpCpDf_1725-14595_1960_wetTropics_LowKS_Sep
mari,1725-14595,1960,Df,LowKS,ct,C,irr1,CfCpCpDf,Cp,Cp,FertCp,TillC,cover,split,early,PestD,0,82.3,1.89,1.733,5,0.7,1,1,0.2,17,6.5,45,100,"Masters et al 2008, rainfall sim",cowpea,spreading,25,40,c:/Projects/P2R/primary/RegionsRC9/Met/,Aug,wetTropics,0,62500,252,140,150,mari_CfCpCpDf_1725-14595_1960_wetTropics_LowKS_Aug
mari,1725-14595,1960,Df,HighKS,cp,PORP,irr1,PoCpCpDf,Cp,Cp,FertCp,TillPO,PORP,split,early,PestD,0,82.3,1.8,1.65,100,0.7,1,1,0.2,17,6.5,45,100,"Masters et al 2008, rainfall sim",cowpea,spreading,25,40,c:/Projects/P2R/primary/RegionsRC9/Met/,Jul,wetTropics,0,62500,252,140,150,mari_PoCpCpDf_1725-14595_1960_wetTropics_HighKS_Jul
mari,1725-14595,1960,Df,HighKS,ct,C,irr1,CfCpCpDf,Cp,Cp,FertCp,TillC,cover,split,early,PestD,0,82.3,1.89,1.733,100,0.7,1,1,0.2,17,6.5,45,100,"Masters et al 2008, rainfall sim",cowpea,spreading,25,40,c:/Projects/P2R/primary/RegionsRC9/Met/,Jul,wetTropics,0,62500,252,140,150,mari_CfCpCpDf_1725-14595_1960_wetTropics_HighKS_Jul
mari,1725-14595,1960,Df,LowKS,ct,B,irr1,BfCpCpDf,Cp,Cp,FertCp,TillB,cover,split,early,PestD,0,79.1,1.89,1.733,5,0.7,1,1,0.2,17,6.5,45,100,"Masters et al 2008, rainfall sim",cowpea,spreading,25,40,c:/Projects/P2R/primary/RegionsRC9/Met/,Jun,wetTropics,0,62500,252,140,150,mari_BfCpCpDf_1725-14595_1960_wetTropics_LowKS_Jun
mari,1725-14595,1960,Df,LowKS,ct,B,irr1,BfCpCpDf,Cp,Cp,FertCp,TillB,cover,split,early,PestD,0,79.1,1.89,1.733,5,0.7,1,1,0.2,17,6.5,45,100,"Masters et al 2008, rainfall sim",cowpea,spreading,25,40,c:/Projects/P2R/primary/RegionsRC9/Met/,Jul,wetTropics,0,62500,252,140,150,mari_BfCpCpDf_1725-14595_1960_wetTropics_LowKS_Jul
mari,1725-14595,1960,Df,LowKS,cp,D,irr1,DfCpCpDf,Cp,Cp,FertCp,TillD,bare,split,early,PestD,1,88,1.8,1.65,5,0.7,1,1,0.2,17,6.5,45,100,"Masters et al 2008, rainfall sim",cowpea,spreading,25,40,c:/Projects/P2R/primary/RegionsRC9/Met/,Jul,wetTropics,0,62500,252,140,150,mari_DfCpCpDf_1725-14595_1960_wetTropics_LowKS_Jul
mari,1725-14595,1960,Df,LowKS,cp,PORP,irr1,PoCpCpDf,Cp,Cp,FertCp,TillPO,PORP,split,early,PestD,0,82.3,1.8,1.65,5,0.7,1,1,0.2,17,6.5,45,100,"Masters et al 2008, rainfall sim",cowpea,spreading,25,40,c:/Projects/P2R/primary/RegionsRC9/Met/,Sep,wetTropics,0,62500,252,140,150,mari_PoCpCpDf_1725-14595_1960_wetTropics_LowKS_Sep
mari,1725-14595,1960,Df,LowKS,cp,D,irr1,DfCpCpDf,Cp,Cp,FertCp,TillD,bare,split,early,PestD,1,88,1.8,1.65,5,0.7,1,1,0.2,17,6.5,45,100,"Masters et al 2008, rainfall sim",cowpea,spreading,25,40,c:/Projects/P2R/primary/RegionsRC9/Met/,Sep,wetTropics,0,62500,252,140,150,mari_DfCpCpDf_1725-14595_1960_wetTropics_LowKS_Sep
mari,1725-14595,1960,Df,HighKS,cp,Cp,irr1,CpCpCpDf,Cp,Cp,FertCp,TillCp,bare,split,early,PestD,0,88,1.8,1.65,100,0.7,1,1,0.2,17,6.5,45,100,"Masters et al 2008, rainfall sim",cowpea,spreading,25,40,c:/Projects/P2R/primary/RegionsRC9/Met/,Aug,wetTropics,0,62500,252,140,150,mari_CpCpCpDf_1725-14595_1960_wetTropics_HighKS_Aug
mari,1725-14595,1960,Df,LowKS,ct,Ap,irr1,ApCpCpDf,Cp,Cp,FertCp,TillAp,cover,split,early,PestD,0,76.5,1.89,1.733,5,0.7,1,1,0.2,17,6.5,45,100,"Masters et al 2008, rainfall sim",cowpea,spreading,25,40,c:/Projects/P2R/primary/RegionsRC9/Met/,Jul,wetTropics,0,62500,252,140,150,mari_ApCpCpDf_1725-14595_1960_wetTropics_LowKS_Jul
mari,1725-14595,1960,Df,LowKS,cp,D,irr1,DfCpCpDf,Cp,Cp,FertCp,TillD,bare,split,early,PestD,1,88,1.8,1.65,5,0.7,1,1,0.2,17,6.5,45,100,"Masters et al 2008, rainfall sim",cowpea,spreading,25,40,c:/Projects/P2R/primary/RegionsRC9/Met/,Jun,wetTropics,0,62500,252,140,150,mari_DfCpCpDf_1725-14595_1960_wetTropics_LowKS_Jun
mari,1725-14595,1960,Df,HighKS,ct,Bp,irr1,BpCpCpDf,Cp,Cp,FertCp,TillBp,cover,split,early,PestD,0,81.4,1.89,1.733,100,0.7,1,1,0.2,17,6.5,45,100,"Masters et al 2008, rainfall sim",cowpea,spreading,25,40,c:/Projects/P2R/primary/RegionsRC9/Met/,Sep,wetTropics,0,62500,252,140,150,mari_BpCpCpDf_1725-14595_1960_wetTropics_HighKS_Sep
mari,1725-14595,1960,Df,LowKS,ct,Bp,irr1,BpCpCpDf,Cp,Cp,FertCp,TillBp,cover,split,early,PestD,0,81.4,1.89,1.733,5,0.7,1,1,0.2,17,6.5,45,100,"Masters et al 2008, rainfall sim",cowpea,spreading,25,40,c:/Projects/P2R/primary/RegionsRC9/Met/,Jun,wetTropics,0,62500,252,140,150,mari_BpCpCpDf_1725-14595_1960_wetTropics_LowKS_Jun
mari,1725-14595,1960,Df,LowKS,cp,PORP,irr1,PoCpCpDf,Cp,Cp,FertCp,TillPO,PORP,split,early,PestD,0,82.3,1.8,1.65,5,0.7,1,1,0.2,17,6.5,45,100,"Masters et al 2008, rainfall sim",cowpea,spreading,25,40,c:/Projects/P2R/primary/RegionsRC9/Met/,Aug,wetTropics,0,62500,252,140,150,mari_PoCpCpDf_1725-14595_1960_wetTropics_LowKS_Aug
mari,1725-14595,1960,Df,LowKS,cp,Cp,irr1,CpCpCpDf,Cp,Cp,FertCp,TillCp,bare,split,early,PestD,0,88,1.8,1.65,5,0.7,1,1,0.2,17,6.5,45,100,"Masters et al 2008, rainfall sim",cowpea,spreading,25,40,c:/Projects/P2R/primary/RegionsRC9/Met/,Jul,wetTropics,0,62500,252,140,150,mari_CpCpCpDf_1725-14595_1960_wetTropics_LowKS_Jul
mari,1725-14595,1960,Df,HighKS,cp,PORP,irr1,PoCpCpDf,Cp,Cp,FertCp,TillPO,PORP,split,early,PestD,0,82.3,1.8,1.65,100,0.7,1,1,0.2,17,6.5,45,100,"Masters et al 2008, rainfall sim",cowpea,spreading,25,40,c:/Projects/P2R/primary/RegionsRC9/Met/,Aug,wetTropics,0,62500,252,140,150,mari_PoCpCpDf_1725-14595_1960_wetTropics_HighKS_Aug
mari,1725-14595,1960,Df,HighKS,cp,PORP,irr1,PoCpCpDf,Cp,Cp,FertCp,TillPO,PORP,split,early,PestD,0,82.3,1.8,1.65,100,0.7,1,1,0.2,17,6.5,45,100,"Masters et al 2008, rainfall sim",cowpea,spreading,25,40,c:/Projects/P2R/primary/RegionsRC9/Met/,Sep,wetTropics,0,62500,252,140,150,mari_PoCpCpDf_1725-14595_1960_wetTropics_HighKS_Sep
mari,1725-14595,1960,Df,LowKS,ct,B,irr1,BfCpCpDf,Cp,Cp,FertCp,TillB,cover,split,early,PestD,0,79.1,1.89,1.733,5,0.7,1,1,0.2,17,6.5,45,100,"Masters et al 2008, rainfall sim",cowpea,spreading,25,40,c:/Projects/P2R/primary/RegionsRC9/Met/,Aug,wetTropics,0,62500,252,140,150,mari_BfCpCpDf_1725-14595_1960_wetTropics_LowKS_Aug
mari,1725-14595,1960,Df,HighKS,ct,Ap,irr1,ApCpCpDf,Cp,Cp,FertCp,TillAp,cover,split,early,PestD,0,76.5,1.89,1.733,100,0.7,1,1,0.2,17,6.5,45,100,"Masters et al 2008, rainfall sim",cowpea,spreading,25,40,c:/Projects/P2R/primary/RegionsRC9/Met/,Aug,wetTropics,0,62500,252,140,150,mari_ApCpCpDf_1725-14595_1960_wetTropics_HighKS_Aug
mari,1725-14595,1960,Df,HighKS,ct,B,irr1,BfCpCpDf,Cp,Cp,FertCp,TillB,cover,split,early,PestD,0,79.1,1.89,1.733,100,0.7,1,1,0.2,17,6.5,45,100,"Masters et al 2008, rainfall sim",cowpea,spreading,25,40,c:/Projects/P2R/primary/RegionsRC9/Met/,Aug,wetTropics,0,62500,252,140,150,mari_BfCpCpDf_1725-14595_1960_wetTropics_HighKS_Aug
mari,1725-14595,1960,Df,HighKS,ct,B,irr1,BfCpCpDf,Cp,Cp,FertCp,TillB,cover,split,early,PestD,0,79.1,1.89,1.733,100,0.7,1,1,0.2,17,6.5,45,100,"Masters et al 2008, rainfall sim",cowpea,spreading,25,40,c:/Projects/P2R/primary/RegionsRC9/Met/,Sep,wetTropics,0,62500,252,140,150,mari_BfCpCpDf_1725-14595_1960_wetTropics_HighKS_Sep
mari,1725-14595,1960,Df,LowKS,ct,A,irr1,AfCpCpDf,Cp,Cp,FertCp,TillA,grain,split,early,PestD,0,74.8,1.89,1.733,5,0.7,1,1,0.2,17,6.5,45,100,"Masters et al 2008, rainfall sim",cowpea,spreading,25,40,c:/Projects/P2R/primary/RegionsRC9/Met/,Aug,wetTropics,0,62500,252,140,150,mari_AfCpCpDf_1725-14595_1960_wetTropics_LowKS_Aug
mari,1725-14595,1960,Df,HighKS,ct,Ap,irr1,ApCpCpDf,Cp,Cp,FertCp,TillAp,cover,split,early,PestD,0,76.5,1.89,1.733,100,0.7,1,1,0.2,17,6.5,45,100,"Masters et al 2008, rainfall sim",cowpea,spreading,25,40,c:/Projects/P2R/primary/RegionsRC9/Met/,Sep,wetTropics,0,62500,252,140,150,mari_ApCpCpDf_1725-14595_1960_wetTropics_HighKS_Sep
mari,1725-14595,1960,Df,LowKS,ct,B,irr1,BfCpCpDf,Cp,Cp,FertCp,TillB,cover,split,early,PestD,0,79.1,1.89,1.733,5,0.7,1,1,0.2,17,6.5,45,100,"Masters et al 2008, rainfall sim",cowpea,spreading,25,40,c:/Projects/P2R/primary/RegionsRC9/Met/,Sep,wetTropics,0,62500,252,140,150,mari_BfCpCpDf_1725-14595_1960_wetTropics_LowKS_Sep
mari,1725-14595,1960,Df,LowKS,ct,Bp,irr1,BpCpCpDf,Cp,Cp,FertCp,TillBp,cover,split,early,PestD,0,81.4,1.89,1.733,5,0.7,1,1,0.2,17,6.5,45,100,"Masters et al 2008, rainfall sim",cowpea,spreading,25,40,c:/Projects/P2R/primary/RegionsRC9/Met/,Sep,wetTropics,0,62500,252,140,150,mari_BpCpCpDf_1725-14595_1960_wetTropics_LowKS_Sep
mari,1725-14595,1960,Df,HighKS,ct,Bp,irr1,BpCpCpDf,Cp,Cp,FertCp,TillBp,cover,split,early,PestD,0,81.4,1.89,1.733,100,0.7,1,1,0.2,17,6.5,45,100,"Masters et al 2008, rainfall sim",cowpea,spreading,25,40,c:/Projects/P2R/primary/RegionsRC9/Met/,Aug,wetTropics,0,62500,252,140,150,mari_BpCpCpDf_1725-14595_1960_wetTropics_HighKS_Aug
mari,1725-14595,1960,Df,LowKS,ct,Bp,irr1,BpCpCpDf,Cp,Cp,FertCp,TillBp,cover,split,early,PestD,0,81.4,1.89,1.733,5,0.7,1,1,0.2,17,6.5,45,100,"Masters et al 2008, rainfall sim",cowpea,spreading,25,40,c:/Projects/P2R/primary/RegionsRC9/Met/,Jul,wetTropics,0,62500,252,140,150,mari_BpCpCpDf_1725-14595_1960_wetTropics_LowKS_Jul
mari,1725-14595,1960,Df,LowKS,cp,PORP,irr1,PoCpCpDf,Cp,Cp,FertCp,TillPO,PORP,split,early,PestD,0,82.3,1.8,1.65,5,0.7,1,1,0.2,17,6.5,45,100,"Masters et al 2008, rainfall sim",cowpea,spreading,25,40,c:/Projects/P2R/primary/RegionsRC9/Met/,Jul,wetTropics,0,62500,252,140,150,mari_PoCpCpDf_1725-14595_1960_wetTropics_LowKS_Jul
mari,1725-14595,1960,Df,LowKS,ct,Bp,irr1,BpCpCpDf,Cp,Cp,FertCp,TillBp,cover,split,early,PestD,0,81.4,1.89,1.733,5,0.7,1,1,0.2,17,6.5,45,100,"Masters et al 2008, rainfall sim",cowpea,spreading,25,40,c:/Projects/P2R/primary/RegionsRC9/Met/,Aug,wetTropics,0,62500,252,140,150,mari_BpCpCpDf_1725-14595_1960_wetTropics_LowKS_Aug
mari,1725-14595,1960,Df,HighKS,cp,Cp,irr1,CpCpCpDf,Cp,Cp,FertCp,TillCp,bare,split,early,PestD,0,88,1.8,1.65,100,0.7,1,1,0.2,17,6.5,45,100,"Masters et al 2008, rainfall sim",cowpea,spreading,25,40,c:/Projects/P2R/primary/RegionsRC9/Met/,Sep,wetTropics,0,62500,252,140,150,mari_CpCpCpDf_1725-14595_1960_wetTropics_HighKS_Sep
