Soil,Diuron_1_Kd,Hexazinone_1_Kd,Atrazine_1_Kd,Ametryn_1_Kd,Metribuzin_1_Kd,Isoxaflutole_1_Kd,Imazapic_1_Kd,twofourD_1_Kd,Glyphosate_1_Kd,Paraquat_1_Kd,Smetolachlor_1_Kd,Fluroxypyr_1_Kd,MCPA_1_Kd,Pendimethalin_1_Kd,Haloxyfop_1_Kd,Diuron_2_Kd,Hexazinone_2_Kd,Atrazine_2_Kd,Ametryn_2_Kd,Metribuzin_2_Kd,Isoxaflutole_2_Kd,Imazapic_2_Kd,twofourD_2_Kd,Glyphosate_2_Kd,Paraquat_2_Kd,Smetolachlor_2_Kd,Fluroxypyr_2_Kd,MCPA_2_Kd,Pendimethalin_2_Kd,Haloxyfop_2_Kd,pest_DrainedUpperLimit,pest_WiltingPoint,pest_UpperSoilLayerDepth,pest_BulkDensity
coom,5.55,0.72,3.74,6.37,1.073,1.48,1.82,0.9,289,1330,1.94,0.9,0.98,210,1,5.55,0.72,3.74,6.37,1.073,1.48,1.82,0.9,289,1330,1.94,0.9,0.98,210,1,37,23,10,1.3
eton,6.92,0.87,3.38,6.21,1.08,1.81,2.22,0.76,352,1620,2.26,1.1,1.2,255,1.22,6.92,0.87,3.38,6.21,1.08,1.81,2.22,0.76,352,1620,2.26,1.1,1.2,255,1.22,39.8,21.1,10,1.39
fmd3,3.67,0.51,0.62,3.46,0.56,1.06,1.3,0.6,206,950,1.53,0.65,0.7,150,0.71,3.67,0.51,0.62,3.46,0.56,1.06,1.3,0.6,206,950,1.53,0.65,0.7,150,0.71,28.8,13.2,10,1.51
mari,5.89,0.76,1.81,5.26,0.82,1.57,1.92,0.7,304,1400,2.02,0.95,1.04,220,1.05,5.89,0.76,1.81,5.26,0.82,1.57,1.92,0.7,304,1400,2.02,0.95,1.04,220,1.05,25.9,12.8,10,1.48
neil,4.72,0.63,1.02,1.8,0.64,1.3,1.59,0.26,252,1160,0.63,1,1,183,0.87,4.72,0.63,1.02,1.8,0.64,1.3,1.59,0.26,252,1160,0.63,1,1,183,0.87,24,21,15,1.38
stew,4.57,0.61,3.87,5.72,1.05,1.27,1.55,0.88,245,1130,1.73,0.77,0.84,178,0.85,4.57,0.61,3.87,5.72,1.05,1.27,1.55,0.88,245,1130,1.73,0.77,0.84,178,0.85,34,22,15,1.63
teko,4.52,0.6,2.05,5.83,0.8,1.25,1.53,0.9,243,1120,1,1,1,1,0.84,4.52,0.6,2.05,5.83,0.8,1.25,1.53,0.9,243,1120,1,1,1,1,0.84,30,17,10,1.5
thor,6.35,0.81,1.02,5,0.73,1.68,2.06,0.62,326,1500,2.13,1.02,1,236,1.13,6.35,0.81,1.02,5,0.73,1.68,2.06,0.62,326,1500,2.13,1.02,1,236,1.13,22,10,15,1.62
todd,10.96,1.37,7.5,9.6,1.83,2.85,3.48,0.92,551,2540,3.26,1.73,1.88,400,1.91,10.96,1.37,7.5,9.6,1.83,2.85,3.48,0.92,551,2540,3.26,1.73,1.88,400,1.91,38,30,15,1.4
fmd1,3.52,1,0.669,1,0.56,1.03,1.26,0.64,200,920,1.49,0.63,0.68,1,0.69,3.52,1,0.669,1,0.56,1.03,1.26,0.64,200,920,1.49,0.63,0.68,1,0.69,17.2,9.5,10,1.33
sff1,3.16,1,0.43,1,0.52,0.95,1.16,0.64,184,850,1.42,0.58,0.63,1,0.64,3.16,1,0.43,1,0.52,0.95,1.16,0.64,184,850,1.42,0.58,0.63,1,0.64,20,7,10,1.589
garb,3.16,1,1.47,1,0.63,0.95,1.17,0.32,184,850,1.42,1,1,134,0.64,3.16,1,1.47,1,0.63,0.95,1.17,0.32,184,850,1.42,1,1,134,0.64,30,13,15,1.54
hatc,3.67,1,3.25,1,0.91,1.06,1.3,0.64,206,950,1.53,1,1,150,0.71,3.67,1,3.25,1,0.91,1.06,1.3,0.64,206,950,1.53,1,1,150,0.71,33,23,15,1.42
kala,5.4,1,2.9,1,0.94,1.46,1.78,0.7,282,1300,1.92,1,1,205,0.98,5.4,1,2.9,1,0.94,1.46,1.78,0.7,282,1300,1.92,1,1,205,0.98,32.9,22,20,1.38
