P2RClass,Soil,Pest,Nutrient,MillMudCode,TrafficCode,FertCode,TillageCode,FallowCode,PSplitCode,RSplitCode,PestManagement,BurnFlag
AfAfAfAf,A,A,A,Af,ct,FertA,TillA,grain,split,early,PestA,0
AfBfBfAf,A,B,B,Af,ct,FertB,TillA,grain,split,early,PestB,0
AfBpBpAf,A,Bp,Bp,Af,ct,FertBp,TillA,grain,split,early,PestC,0
AfCfCfAf,A,C,C,Af,ct,FertC,TillA,grain,split,early,PestC,0
AfCpCpAf,A,Cp,Cp,Af,ct,FertCp,TillA,grain,split,early,PestD,0
AfDfDfAf,A,D,D,Af,ct,FertD,TillA,grain,split,early,PestD,0
ApAfAfAf,Ap,A,A,Af,ct,FertA,TillAp,cover,split,early,PestA,0
ApBfBfAf,Ap,B,B,Af,ct,FertB,TillAp,cover,split,early,PestB,0
ApBpBpAf,Ap,Bp,Bp,Af,ct,FertBp,TillAp,cover,split,early,PestC,0
ApCfCfAf,Ap,C,C,Af,ct,FertC,TillAp,cover,split,early,PestC,0
ApCpCpAf,Ap,Cp,Cp,Af,ct,FertCp,TillAp,cover,split,early,PestD,0
ApDfDfAf,Ap,D,D,Af,ct,FertD,TillAp,cover,split,early,PestD,0
BfAfAfAf,B,A,A,Af,ct,FertA,TillB,cover,split,early,PestA,0
BfBfBfAf,B,B,B,Af,ct,FertB,TillB,cover,split,early,PestB,0
BfBpBpAf,B,Bp,Bp,Af,ct,FertBp,TillB,cover,split,early,PestC,0
BfCfCfAf,B,C,C,Af,ct,FertC,TillB,cover,split,early,PestC,0
BfCpCpAf,B,Cp,Cp,Af,ct,FertCp,TillB,cover,split,early,PestD,0
BfDfDfAf,B,D,D,Af,ct,FertD,TillB,cover,split,early,PestD,0
BpAfAfAf,Bp,A,A,Af,ct,FertA,TillBp,cover,split,early,PestA,0
BpBfBfAf,Bp,B,B,Af,ct,FertB,TillBp,cover,split,early,PestB,0
BpBpBpAf,Bp,Bp,Bp,Af,ct,FertBp,TillBp,cover,split,early,PestC,0
BpCfCfAf,Bp,C,C,Af,ct,FertC,TillBp,cover,split,early,PestC,0
BpCpCpAf,Bp,Cp,Cp,Af,ct,FertCp,TillBp,cover,split,early,PestD,0
BpDfDfAf,Bp,D,D,Af,ct,FertD,TillBp,cover,split,early,PestD,0
CfAfAfAf,C,A,A,Af,ct,FertA,TillC,cover,split,early,PestA,0
CfBfBfAf,C,B,B,Af,ct,FertB,TillC,cover,split,early,PestB,0
CfBpBpAf,C,Bp,Bp,Af,ct,FertBp,TillC,cover,split,early,PestC,0
CfCfCfAf,C,C,C,Af,ct,FertC,TillC,cover,split,early,PestC,0
CfCpCpAf,C,Cp,Cp,Af,ct,FertCp,TillC,cover,split,early,PestD,0
CfDfDfAf,C,D,D,Af,ct,FertD,TillC,cover,split,early,PestD,0
CpAfAfAf,Cp,A,A,Af,cp,FertA,TillCp,bare,split,early,PestA,0
CpBfBfAf,Cp,B,B,Af,cp,FertB,TillCp,bare,split,early,PestB,0
CpBpBpAf,Cp,Bp,Bp,Af,cp,FertBp,TillCp,bare,split,early,PestC,0
CpCfCfAf,Cp,C,C,Af,cp,FertC,TillCp,bare,split,early,PestC,0
CpCpCpAf,Cp,Cp,Cp,Af,cp,FertCp,TillCp,bare,split,early,PestD,0
CpDfDfAf,Cp,D,D,Af,cp,FertD,TillCp,bare,split,early,PestD,0
DfAfAfAf,D,A,A,Af,cp,FertA,TillD,bare,split,early,PestA,1
DfBfBfAf,D,B,B,Af,cp,FertB,TillD,bare,split,early,PestB,1
DfBpBpAf,D,Bp,Bp,Af,cp,FertBp,TillD,bare,split,early,PestC,1
DfCfCfAf,D,C,C,Af,cp,FertC,TillD,bare,split,early,PestC,1
DfCpCpAf,D,Cp,Cp,Af,cp,FertCp,TillD,bare,split,early,PestD,1
DfDfDfAf,D,D,D,Af,cp,FertD,TillD,bare,split,early,PestD,1
AfAfAfBf,A,A,A,Bf,ct,FertA,TillA,grain,split,early,PestA,0
AfBfBfBf,A,B,B,Bf,ct,FertB,TillA,grain,split,early,PestB,0
AfBpBpBf,A,Bp,Bp,Bf,ct,FertBp,TillA,grain,split,early,PestC,0
AfCfCfBf,A,C,C,Bf,ct,FertC,TillA,grain,split,early,PestC,0
AfCpCpBf,A,Cp,Cp,Bf,ct,FertCp,TillA,grain,split,early,PestD,0
AfDfDfBf,A,D,D,Bf,ct,FertD,TillA,grain,split,early,PestD,0
ApAfAfBf,Ap,A,A,Bf,ct,FertA,TillAp,cover,split,early,PestA,0
ApBfBfBf,Ap,B,B,Bf,ct,FertB,TillAp,cover,split,early,PestB,0
ApBpBpBf,Ap,Bp,Bp,Bf,ct,FertBp,TillAp,cover,split,early,PestC,0
ApCfCfBf,Ap,C,C,Bf,ct,FertC,TillAp,cover,split,early,PestC,0
ApCpCpBf,Ap,Cp,Cp,Bf,ct,FertCp,TillAp,cover,split,early,PestD,0
ApDfDfBf,Ap,D,D,Bf,ct,FertD,TillAp,cover,split,early,PestD,0
BfAfAfBf,B,A,A,Bf,ct,FertA,TillB,cover,split,early,PestA,0
BfBfBfBf,B,B,B,Bf,ct,FertB,TillB,cover,split,early,PestB,0
BfBpBpBf,B,Bp,Bp,Bf,ct,FertBp,TillB,cover,split,early,PestC,0
BfCfCfBf,B,C,C,Bf,ct,FertC,TillB,cover,split,early,PestC,0
BfCpCpBf,B,Cp,Cp,Bf,ct,FertCp,TillB,cover,split,early,PestD,0
BfDfDfBf,B,D,D,Bf,ct,FertD,TillB,cover,split,early,PestD,0
BpAfAfBf,Bp,A,A,Bf,ct,FertA,TillBp,cover,split,early,PestA,0
BpBfBfBf,Bp,B,B,Bf,ct,FertB,TillBp,cover,split,early,PestB,0
BpBpBpBf,Bp,Bp,Bp,Bf,ct,FertBp,TillBp,cover,split,early,PestC,0
BpCfCfBf,Bp,C,C,Bf,ct,FertC,TillBp,cover,split,early,PestC,0
BpCpCpBf,Bp,Cp,Cp,Bf,ct,FertCp,TillBp,cover,split,early,PestD,0
BpDfDfBf,Bp,D,D,Bf,ct,FertD,TillBp,cover,split,early,PestD,0
CfAfAfBf,C,A,A,Bf,ct,FertA,TillC,cover,split,early,PestA,0
CfBfBfBf,C,B,B,Bf,ct,FertB,TillC,cover,split,early,PestB,0
CfBpBpBf,C,Bp,Bp,Bf,ct,FertBp,TillC,cover,split,early,PestC,0
CfCfCfBf,C,C,C,Bf,ct,FertC,TillC,cover,split,early,PestC,0
CfCpCpBf,C,Cp,Cp,Bf,ct,FertCp,TillC,cover,split,early,PestD,0
CfDfDfBf,C,D,D,Bf,ct,FertD,TillC,cover,split,early,PestD,0
CpAfAfBf,Cp,A,A,Bf,cp,FertA,TillCp,bare,split,early,PestA,0
CpBfBfBf,Cp,B,B,Bf,cp,FertB,TillCp,bare,split,early,PestB,0
CpBpBpBf,Cp,Bp,Bp,Bf,cp,FertBp,TillCp,bare,split,early,PestC,0
CpCfCfBf,Cp,C,C,Bf,cp,FertC,TillCp,bare,split,early,PestC,0
CpCpCpBf,Cp,Cp,Cp,Bf,cp,FertCp,TillCp,bare,split,early,PestD,0
CpDfDfBf,Cp,D,D,Bf,cp,FertD,TillCp,bare,split,early,PestD,0
DfAfAfBf,D,A,A,Bf,cp,FertA,TillD,bare,split,early,PestA,1
DfBfBfBf,D,B,B,Bf,cp,FertB,TillD,bare,split,early,PestB,1
DfBpBpBf,D,Bp,Bp,Bf,cp,FertBp,TillD,bare,split,early,PestC,1
DfCfCfBf,D,C,C,Bf,cp,FertC,TillD,bare,split,early,PestC,1
DfCpCpBf,D,Cp,Cp,Bf,cp,FertCp,TillD,bare,split,early,PestD,1
DfDfDfBf,D,D,D,Bf,cp,FertD,TillD,bare,split,early,PestD,1
AfAfAfCf,A,A,A,Cf,ct,FertA,TillA,grain,split,early,PestA,0
AfBfBfCf,A,B,B,Cf,ct,FertB,TillA,grain,split,early,PestB,0
AfBpBpCf,A,Bp,Bp,Cf,ct,FertBp,TillA,grain,split,early,PestC,0
AfCfCfCf,A,C,C,Cf,ct,FertC,TillA,grain,split,early,PestC,0
AfCpCpCf,A,Cp,Cp,Cf,ct,FertCp,TillA,grain,split,early,PestD,0
AfDfDfCf,A,D,D,Cf,ct,FertD,TillA,grain,split,early,PestD,0
ApAfAfCf,Ap,A,A,Cf,ct,FertA,TillAp,cover,split,early,PestA,0
ApBfBfCf,Ap,B,B,Cf,ct,FertB,TillAp,cover,split,early,PestB,0
ApBpBpCf,Ap,Bp,Bp,Cf,ct,FertBp,TillAp,cover,split,early,PestC,0
ApCfCfCf,Ap,C,C,Cf,ct,FertC,TillAp,cover,split,early,PestC,0
ApCpCpCf,Ap,Cp,Cp,Cf,ct,FertCp,TillAp,cover,split,early,PestD,0
ApDfDfCf,Ap,D,D,Cf,ct,FertD,TillAp,cover,split,early,PestD,0
BfAfAfCf,B,A,A,Cf,ct,FertA,TillB,cover,split,early,PestA,0
BfBfBfCf,B,B,B,Cf,ct,FertB,TillB,cover,split,early,PestB,0
BfBpBpCf,B,Bp,Bp,Cf,ct,FertBp,TillB,cover,split,early,PestC,0
BfCfCfCf,B,C,C,Cf,ct,FertC,TillB,cover,split,early,PestC,0
BfCpCpCf,B,Cp,Cp,Cf,ct,FertCp,TillB,cover,split,early,PestD,0
BfDfDfCf,B,D,D,Cf,ct,FertD,TillB,cover,split,early,PestD,0
BpAfAfCf,Bp,A,A,Cf,ct,FertA,TillBp,cover,split,early,PestA,0
BpBfBfCf,Bp,B,B,Cf,ct,FertB,TillBp,cover,split,early,PestB,0
BpBpBpCf,Bp,Bp,Bp,Cf,ct,FertBp,TillBp,cover,split,early,PestC,0
BpCfCfCf,Bp,C,C,Cf,ct,FertC,TillBp,cover,split,early,PestC,0
BpCpCpCf,Bp,Cp,Cp,Cf,ct,FertCp,TillBp,cover,split,early,PestD,0
BpDfDfCf,Bp,D,D,Cf,ct,FertD,TillBp,cover,split,early,PestD,0
CfAfAfCf,C,A,A,Cf,ct,FertA,TillC,cover,split,early,PestA,0
CfBfBfCf,C,B,B,Cf,ct,FertB,TillC,cover,split,early,PestB,0
CfBpBpCf,C,Bp,Bp,Cf,ct,FertBp,TillC,cover,split,early,PestC,0
CfCfCfCf,C,C,C,Cf,ct,FertC,TillC,cover,split,early,PestC,0
CfCpCpCf,C,Cp,Cp,Cf,ct,FertCp,TillC,cover,split,early,PestD,0
CfDfDfCf,C,D,D,Cf,ct,FertD,TillC,cover,split,early,PestD,0
CpAfAfCf,Cp,A,A,Cf,cp,FertA,TillCp,bare,split,early,PestA,0
CpBfBfCf,Cp,B,B,Cf,cp,FertB,TillCp,bare,split,early,PestB,0
CpBpBpCf,Cp,Bp,Bp,Cf,cp,FertBp,TillCp,bare,split,early,PestC,0
CpCfCfCf,Cp,C,C,Cf,cp,FertC,TillCp,bare,split,early,PestC,0
CpCpCpCf,Cp,Cp,Cp,Cf,cp,FertCp,TillCp,bare,split,early,PestD,0
CpDfDfCf,Cp,D,D,Cf,cp,FertD,TillCp,bare,split,early,PestD,0
DfAfAfCf,D,A,A,Cf,cp,FertA,TillD,bare,split,early,PestA,1
DfBfBfCf,D,B,B,Cf,cp,FertB,TillD,bare,split,early,PestB,1
DfBpBpCf,D,Bp,Bp,Cf,cp,FertBp,TillD,bare,split,early,PestC,1
DfCfCfCf,D,C,C,Cf,cp,FertC,TillD,bare,split,early,PestC,1
DfCpCpCf,D,Cp,Cp,Cf,cp,FertCp,TillD,bare,split,early,PestD,1
DfDfDfCf,D,D,D,Cf,cp,FertD,TillD,bare,split,early,PestD,1
AfAfAfDf,A,A,A,Df,ct,FertA,TillA,grain,split,early,PestA,0
AfBfBfDf,A,B,B,Df,ct,FertB,TillA,grain,split,early,PestB,0
AfBpBpDf,A,Bp,Bp,Df,ct,FertBp,TillA,grain,split,early,PestC,0
AfCfCfDf,A,C,C,Df,ct,FertC,TillA,grain,split,early,PestC,0
AfCpCpDf,A,Cp,Cp,Df,ct,FertCp,TillA,grain,split,early,PestD,0
AfDfDfDf,A,D,D,Df,ct,FertD,TillA,grain,split,early,PestD,0
ApAfAfDf,Ap,A,A,Df,ct,FertA,TillAp,cover,split,early,PestA,0
ApBfBfDf,Ap,B,B,Df,ct,FertB,TillAp,cover,split,early,PestB,0
ApBpBpDf,Ap,Bp,Bp,Df,ct,FertBp,TillAp,cover,split,early,PestC,0
ApCfCfDf,Ap,C,C,Df,ct,FertC,TillAp,cover,split,early,PestC,0
ApCpCpDf,Ap,Cp,Cp,Df,ct,FertCp,TillAp,cover,split,early,PestD,0
ApDfDfDf,Ap,D,D,Df,ct,FertD,TillAp,cover,split,early,PestD,0
BfAfAfDf,B,A,A,Df,ct,FertA,TillB,cover,split,early,PestA,0
BfBfBfDf,B,B,B,Df,ct,FertB,TillB,cover,split,early,PestB,0
BfBpBpDf,B,Bp,Bp,Df,ct,FertBp,TillB,cover,split,early,PestC,0
BfCfCfDf,B,C,C,Df,ct,FertC,TillB,cover,split,early,PestC,0
BfCpCpDf,B,Cp,Cp,Df,ct,FertCp,TillB,cover,split,early,PestD,0
BfDfDfDf,B,D,D,Df,ct,FertD,TillB,cover,split,early,PestD,0
BpAfAfDf,Bp,A,A,Df,ct,FertA,TillBp,cover,split,early,PestA,0
BpBfBfDf,Bp,B,B,Df,ct,FertB,TillBp,cover,split,early,PestB,0
BpBpBpDf,Bp,Bp,Bp,Df,ct,FertBp,TillBp,cover,split,early,PestC,0
BpCfCfDf,Bp,C,C,Df,ct,FertC,TillBp,cover,split,early,PestC,0
BpCpCpDf,Bp,Cp,Cp,Df,ct,FertCp,TillBp,cover,split,early,PestD,0
BpDfDfDf,Bp,D,D,Df,ct,FertD,TillBp,cover,split,early,PestD,0
CfAfAfDf,C,A,A,Df,ct,FertA,TillC,cover,split,early,PestA,0
CfBfBfDf,C,B,B,Df,ct,FertB,TillC,cover,split,early,PestB,0
CfBpBpDf,C,Bp,Bp,Df,ct,FertBp,TillC,cover,split,early,PestC,0
CfCfCfDf,C,C,C,Df,ct,FertC,TillC,cover,split,early,PestC,0
CfCpCpDf,C,Cp,Cp,Df,ct,FertCp,TillC,cover,split,early,PestD,0
CfDfDfDf,C,D,D,Df,ct,FertD,TillC,cover,split,early,PestD,0
CpAfAfDf,Cp,A,A,Df,cp,FertA,TillCp,bare,split,early,PestA,0
CpBfBfDf,Cp,B,B,Df,cp,FertB,TillCp,bare,split,early,PestB,0
CpBpBpDf,Cp,Bp,Bp,Df,cp,FertBp,TillCp,bare,split,early,PestC,0
CpCfCfDf,Cp,C,C,Df,cp,FertC,TillCp,bare,split,early,PestC,0
CpCpCpDf,Cp,Cp,Cp,Df,cp,FertCp,TillCp,bare,split,early,PestD,0
CpDfDfDf,Cp,D,D,Df,cp,FertD,TillCp,bare,split,early,PestD,0
DfAfAfDf,D,A,A,Df,cp,FertA,TillD,bare,split,early,PestA,1
DfBfBfDf,D,B,B,Df,cp,FertB,TillD,bare,split,early,PestB,1
DfBpBpDf,D,Bp,Bp,Df,cp,FertBp,TillD,bare,split,early,PestC,1
DfCfCfDf,D,C,C,Df,cp,FertC,TillD,bare,split,early,PestC,1
DfCpCpDf,D,Cp,Cp,Df,cp,FertCp,TillD,bare,split,early,PestD,1
DfDfDfDf,D,D,D,Df,cp,FertD,TillD,bare,split,early,PestD,1
PoAfAfAf,PORP,A,A,Af,ct,FertA,TillPO,PORP,split,early,PestA,0
PoBfBfAf,PORP,B,B,Af,ct,FertB,TillPO,PORP,split,early,PestB,0
PoBpBpAf,PORP,Bp,Bp,Af,ct,FertBp,TillPO,PORP,split,early,PestC,0
PoCfCfAf,PORP,C,C,Af,ct,FertC,TillPO,PORP,split,early,PestC,0
PoCpCpAf,PORP,Cp,Cp,Af,ct,FertCp,TillPO,PORP,split,early,PestD,0
PoDfDfAf,PORP,D,D,Af,ct,FertD,TillPO,PORP,split,early,PestD,0
PoAfAfBf,PORP,A,A,Bf,ct,FertA,TillPO,PORP,split,early,PestA,0
PoBfBfBf,PORP,B,B,Bf,ct,FertB,TillPO,PORP,split,early,PestB,0
PoBpBpBf,PORP,Bp,Bp,Bf,ct,FertBp,TillPO,PORP,split,early,PestC,0
PoCfCfBf,PORP,C,C,Bf,ct,FertC,TillPO,PORP,split,early,PestC,0
PoCpCpBf,PORP,Cp,Cp,Bf,ct,FertCp,TillPO,PORP,split,early,PestD,0
PoDfDfBf,PORP,D,D,Bf,ct,FertD,TillPO,PORP,split,early,PestD,0
PoAfAfCf,PORP,A,A,Cf,ct,FertA,TillPO,PORP,split,early,PestA,0
PoBfBfCf,PORP,B,B,Cf,ct,FertB,TillPO,PORP,split,early,PestB,0
PoBpBpCf,PORP,Bp,Bp,Cf,ct,FertBp,TillPO,PORP,split,early,PestC,0
PoCfCfCf,PORP,C,C,Cf,ct,FertC,TillPO,PORP,split,early,PestC,0
PoCpCpCf,PORP,Cp,Cp,Cf,ct,FertCp,TillPO,PORP,split,early,PestD,0
PoDfDfCf,PORP,D,D,Cf,ct,FertD,TillPO,PORP,split,early,PestD,0
PoAfAfDf,PORP,A,A,Df,ct,FertA,TillPO,PORP,split,early,PestA,0
PoBfBfDf,PORP,B,B,Df,ct,FertB,TillPO,PORP,split,early,PestB,0
PoBpBpDf,PORP,Bp,Bp,Df,ct,FertBp,TillPO,PORP,split,early,PestC,0
PoCfCfDf,PORP,C,C,Df,ct,FertC,TillPO,PORP,split,early,PestC,0
PoCpCpDf,PORP,Cp,Cp,Df,ct,FertCp,TillPO,PORP,split,early,PestD,0
PoDfDfDf,PORP,D,D,Df,ct,FertD,TillPO,PORP,split,early,PestD,0
