MetCode,FertCode,plantN,ratoonN
1845-14595,FertA,99,99
1825-14575,FertA,99,99
1870-14615,FertA,99,99
1885-14620,FertA,99,99
1870-14590,FertA,99,99
1850-14610,FertA,99,99
1855-14625,FertA,99,99
1845-14595,FertB,110,110
1825-14575,FertB,110,110
1870-14615,FertB,110,110
1885-14620,FertB,110,110
1870-14590,FertB,110,110
1850-14610,FertB,110,110
1855-14625,FertB,110,110
1845-14595,FertBp,116,116
1825-14575,FertBp,116,116
1870-14615,FertBp,116,116
1885-14620,FertBp,116,116
1870-14590,FertBp,116,116
1850-14610,FertBp,116,116
1855-14625,FertBp,116,116
1845-14595,FertC,130,130
1825-14575,FertC,130,130
1870-14615,FertC,130,130
1885-14620,FertC,130,130
1870-14590,FertC,130,130
1850-14610,FertC,130,130
1855-14625,FertC,130,130
1845-14595,FertCp,140,140
1825-14575,FertCp,140,140
1870-14615,FertCp,140,140
1885-14620,FertCp,140,140
1870-14590,FertCp,140,140
1850-14610,FertCp,140,140
1855-14625,FertCp,140,140
1845-14595,FertD,165,165
1825-14575,FertD,165,165
1870-14615,FertD,165,165
1885-14620,FertD,165,165
1870-14590,FertD,165,165
1850-14610,FertD,165,165
1855-14625,FertD,165,165
