MetCode,SoilName,KS,Irrigation,SOWREG
1885-14620,hatc,LowKS,irr2,Black
1885-14620,mari,HighKS,irr2,Black
1885-14620,mari,LowKS,irr2,Black
1885-14620,coom,HighKS,irr2,Black
1885-14620,coom,LowKS,irr2,Black
